Analysis & Synthesis report for fifo
Wed Jul 05 08:27:21 2006
Version 5.1 Build 216 03/06/2006 Service Pack 2 SJ Full Version


---------------------
; Table of Contents ;
---------------------
  1. Legal Notice
  2. Analysis & Synthesis Summary
  3. Analysis & Synthesis Settings
  4. Analysis & Synthesis Source Files Read
  5. Analysis & Synthesis Resource Usage Summary
  6. Analysis & Synthesis Resource Utilization by Entity
  7. General Register Statistics
  8. Inverted Register Statistics
  9. Parameter Settings for User Entity Instance: LPM_FF:CPeak_Reg_FF
 10. Parameter Settings for User Entity Instance: LPM_COUNTER:FF_CNT_CNTR
 11. Parameter Settings for User Entity Instance: LPM_COMPARE:FF_CNT_COMPARE
 12. Parameter Settings for User Entity Instance: LPM_FF:DSO_INT_REG_FF
 13. Parameter Settings for User Entity Instance: LPM_COUNTER:DSO_INT_CNTR
 14. Parameter Settings for User Entity Instance: LPM_COMPARE:DSO_INT_COMPARE
 15. Parameter Settings for User Entity Instance: LPM_COUNTER:Preset_Done_Cntr
 16. Parameter Settings for User Entity Instance: LPM_FF:Preset_Done_Cnt_FF
 17. Analysis & Synthesis Equations
 18. Analysis & Synthesis Messages



----------------
; Legal Notice ;
----------------
Copyright (C) 1991-2006 Altera Corporation
Your use of Altera Corporation's design tools, logic functions 
and other software and tools, and its AMPP partner logic 
functions, and any output files any of the foregoing 
(including device programming or simulation files), and any 
associated documentation or information are expressly subject 
to the terms and conditions of the Altera Program License 
Subscription Agreement, Altera MegaCore Function License 
Agreement, or other applicable license agreement, including, 
without limitation, that your use is for the sole purpose of 
programming logic devices manufactured by Altera and sold by 
Altera or its authorized distributors.  Please refer to the 
applicable agreement for further details.



+-----------------------------------------------------------------------------+
; Analysis & Synthesis Summary                                                ;
+-----------------------------+-----------------------------------------------+
; Analysis & Synthesis Status ; Successful - Wed Jul 05 08:27:21 2006         ;
; Quartus II Version          ; 5.1 Build 216 03/06/2006 SP 2 SJ Full Version ;
; Revision Name               ; fifo                                          ;
; Top-level Entity Name       ; fifo                                          ;
; Family                      ; APEX20KE                                      ;
; Total logic elements        ; 283                                           ;
; Total pins                  ; 3                                             ;
; Total virtual pins          ; 144                                           ;
; Total memory bits           ; 0                                             ;
; Total PLLs                  ; 0                                             ;
+-----------------------------+-----------------------------------------------+


+--------------------------------------------------------------------------------------------------------------------------------+
; Analysis & Synthesis Settings                                                                                                  ;
+--------------------------------------------------------------------------------------------+-------------------+---------------+
; Option                                                                                     ; Setting           ; Default Value ;
+--------------------------------------------------------------------------------------------+-------------------+---------------+
; Device                                                                                     ; EP20K300EQC240-2X ;               ;
; Top-level entity name                                                                      ; fifo              ; fifo          ;
; Family name                                                                                ; APEX20KE          ; Stratix       ;
; VHDL Show LMF Mapping Messages                                                             ; Off               ;               ;
; Optimization Technique -- APEX 20K/APEX 20KE/APEX 20KC/APEX II/ARM-based Excalibur         ; Speed             ; Balanced      ;
; Perform WYSIWYG Primitive Resynthesis                                                      ; On                ; Off           ;
; Perform gate-level register retiming                                                       ; On                ; Off           ;
; Use smart compilation                                                                      ; Off               ; Off           ;
; Create Debugging Nodes for IP Cores                                                        ; Off               ; Off           ;
; Preserve fewer node names                                                                  ; On                ; On            ;
; Disable OpenCore Plus hardware evaluation                                                  ; Off               ; Off           ;
; Verilog Version                                                                            ; Verilog_2001      ; Verilog_2001  ;
; VHDL Version                                                                               ; VHDL93            ; VHDL93        ;
; State Machine Processing                                                                   ; Auto              ; Auto          ;
; Extract Verilog State Machines                                                             ; On                ; On            ;
; Extract VHDL State Machines                                                                ; On                ; On            ;
; Add Pass-Through Logic to Inferred RAMs                                                    ; On                ; On            ;
; NOT Gate Push-Back                                                                         ; On                ; On            ;
; Power-Up Don't Care                                                                        ; On                ; On            ;
; Remove Redundant Logic Cells                                                               ; Off               ; Off           ;
; Remove Duplicate Registers                                                                 ; On                ; On            ;
; Ignore CARRY Buffers                                                                       ; Off               ; Off           ;
; Ignore CASCADE Buffers                                                                     ; Off               ; Off           ;
; Ignore GLOBAL Buffers                                                                      ; Off               ; Off           ;
; Ignore ROW GLOBAL Buffers                                                                  ; Off               ; Off           ;
; Ignore LCELL Buffers                                                                       ; Off               ; Off           ;
; Ignore SOFT Buffers                                                                        ; On                ; On            ;
; Limit AHDL Integers to 32 Bits                                                             ; Off               ; Off           ;
; Auto Implement in ROM                                                                      ; Off               ; Off           ;
; Technology Mapper -- APEX 20K/APEX 20KE/APEX 20KC/APEX II/ARM-based Excalibur              ; LUT               ; LUT           ;
; Allow XOR Gate Usage                                                                       ; On                ; On            ;
; Carry Chain Length                                                                         ; 48                ; 48            ;
; Cascade Chain Length                                                                       ; 2                 ; 2             ;
; Parallel Expander Chain Length -- APEX 20K/APEX 20KE/APEX 20KC/APEX II/ARM-based Excalibur ; 16                ; 16            ;
; Auto Carry Chains                                                                          ; On                ; On            ;
; Auto Parallel Expanders                                                                    ; On                ; On            ;
; Auto Open-Drain Pins                                                                       ; On                ; On            ;
; Remove Duplicate Logic                                                                     ; On                ; On            ;
; Allow register retiming to trade off Tsu/Tco with Fmax                                     ; On                ; On            ;
; Auto ROM Replacement                                                                       ; On                ; On            ;
; Auto RAM Replacement                                                                       ; On                ; On            ;
; Auto Shift Register Replacement                                                            ; On                ; On            ;
; Auto Clock Enable Replacement                                                              ; On                ; On            ;
; Auto Resource Sharing                                                                      ; Off               ; Off           ;
; Allow Any RAM Size For Recognition                                                         ; Off               ; Off           ;
; Allow Any ROM Size For Recognition                                                         ; Off               ; Off           ;
; Allow Any Shift Register Size For Recognition                                              ; Off               ; Off           ;
; Ignore translate_off and translate_on Synthesis Directives                                 ; Off               ; Off           ;
; Show Parameter Settings Tables in Synthesis Report                                         ; On                ; On            ;
; Ignore Maximum Fan-Out Assignments                                                         ; Off               ; Off           ;
; Retiming Meta-Stability Register Sequence Length                                           ; 2                 ; 2             ;
; HDL message level                                                                          ; Level2            ; Level2        ;
+--------------------------------------------------------------------------------------------+-------------------+---------------+


+--------------------------------------------------------------------------------------------------------------------------------------------+
; Analysis & Synthesis Source Files Read                                                                                                     ;
+----------------------------------+-----------------+-----------------+---------------------------------------------------------------------+
; File Name with User-Entered Path ; Used in Netlist ; File Type       ; File Name with Absolute Path                                        ;
+----------------------------------+-----------------+-----------------+---------------------------------------------------------------------+
; fifo.vhd                         ; yes             ; User VHDL File  ; N:/Dpp-2/p19710-4/Software/ep99840/FIFO/fifo.vhd                    ;
; LPM_FF.tdf                       ; yes             ; Megafunction    ; c:/altera/quartus51/libraries/megafunctions/LPM_FF.tdf              ;
; lpm_constant.inc                 ; yes             ; Other           ; c:/altera/quartus51/libraries/megafunctions/lpm_constant.inc        ;
; aglobal51.inc                    ; yes             ; Other           ; c:/altera/quartus51/libraries/megafunctions/aglobal51.inc           ;
; LPM_COUNTER.tdf                  ; yes             ; Megafunction    ; c:/altera/quartus51/libraries/megafunctions/LPM_COUNTER.tdf         ;
; lpm_decode.inc                   ; yes             ; Other           ; c:/altera/quartus51/libraries/megafunctions/lpm_decode.inc          ;
; lpm_add_sub.inc                  ; yes             ; Other           ; c:/altera/quartus51/libraries/megafunctions/lpm_add_sub.inc         ;
; cmpconst.inc                     ; yes             ; Other           ; c:/altera/quartus51/libraries/megafunctions/cmpconst.inc            ;
; lpm_compare.inc                  ; yes             ; Other           ; c:/altera/quartus51/libraries/megafunctions/lpm_compare.inc         ;
; lpm_counter.inc                  ; yes             ; Other           ; c:/altera/quartus51/libraries/megafunctions/lpm_counter.inc         ;
; dffeea.inc                       ; yes             ; Other           ; c:/altera/quartus51/libraries/megafunctions/dffeea.inc              ;
; alt_synch_counter.inc            ; yes             ; Other           ; c:/altera/quartus51/libraries/megafunctions/alt_synch_counter.inc   ;
; alt_synch_counter_f.inc          ; yes             ; Other           ; c:/altera/quartus51/libraries/megafunctions/alt_synch_counter_f.inc ;
; alt_counter_f10ke.inc            ; yes             ; Other           ; c:/altera/quartus51/libraries/megafunctions/alt_counter_f10ke.inc   ;
; alt_counter_stratix.inc          ; yes             ; Other           ; c:/altera/quartus51/libraries/megafunctions/alt_counter_stratix.inc ;
; alt_synch_counter.tdf            ; yes             ; Megafunction    ; c:/altera/quartus51/libraries/megafunctions/alt_synch_counter.tdf   ;
; mercury_lcell.inc                ; yes             ; Other           ; c:/altera/quartus51/libraries/megafunctions/mercury_lcell.inc       ;
; apex20ke_lcell.inc               ; yes             ; Other           ; c:/altera/quartus51/libraries/megafunctions/apex20ke_lcell.inc      ;
; apex20k_lcell.inc                ; yes             ; Other           ; c:/altera/quartus51/libraries/megafunctions/apex20k_lcell.inc       ;
; flex6k_lcell.inc                 ; yes             ; Other           ; c:/altera/quartus51/libraries/megafunctions/flex6k_lcell.inc        ;
; alt_asynch_counter.inc           ; yes             ; Other           ; c:/altera/quartus51/libraries/megafunctions/alt_asynch_counter.inc  ;
; LPM_COMPARE.tdf                  ; yes             ; Megafunction    ; c:/altera/quartus51/libraries/megafunctions/LPM_COMPARE.tdf         ;
; comptree.inc                     ; yes             ; Other           ; c:/altera/quartus51/libraries/megafunctions/comptree.inc            ;
; altshift.inc                     ; yes             ; Other           ; c:/altera/quartus51/libraries/megafunctions/altshift.inc            ;
; comptree.tdf                     ; yes             ; Megafunction    ; c:/altera/quartus51/libraries/megafunctions/comptree.tdf            ;
; cmpchain.inc                     ; yes             ; Other           ; c:/altera/quartus51/libraries/megafunctions/cmpchain.inc            ;
; cmpchain.tdf                     ; yes             ; Megafunction    ; c:/altera/quartus51/libraries/megafunctions/cmpchain.tdf            ;
; altshift.tdf                     ; yes             ; Megafunction    ; c:/altera/quartus51/libraries/megafunctions/altshift.tdf            ;
+----------------------------------+-----------------+-----------------+---------------------------------------------------------------------+


+---------------------------------------------+
; Analysis & Synthesis Resource Usage Summary ;
+-----------------------------------+---------+
; Resource                          ; Usage   ;
+-----------------------------------+---------+
; Total logic elements              ; 283     ;
; Total combinational functions     ; 239     ;
;     -- Total 4-input functions    ; 111     ;
;     -- Total 3-input functions    ; 32      ;
;     -- Total 2-input functions    ; 91      ;
;     -- Total 1-input functions    ; 5       ;
;     -- Total 0-input functions    ; 0       ;
; Combinational cells for routing   ; 0       ;
; Total registers                   ; -21     ;
; Total logic cells in carry chains ; 66      ;
; Virtual pins                      ; 144     ;
; I/O pins                          ; 3       ;
; Maximum fan-out node              ; CLK20   ;
; Maximum fan-out                   ; 123     ;
; Total fan-out                     ; 1217    ;
; Average fan-out                   ; 2.83    ;
+-----------------------------------+---------+


+-----------------------------------------------------------------------------------------------------------------------------------------------------------------------------------------------------------------------------------------------------------------------+
; Analysis & Synthesis Resource Utilization by Entity                                                                                                                                                                                                                   ;
+----------------------------------------+-------------+--------------+-------------+------+--------------+--------------+-------------------+------------------+-----------------+------------+------------------------------------------------------------------------+
; Compilation Hierarchy Node             ; Logic Cells ; LC Registers ; Memory Bits ; Pins ; Virtual Pins ; LUT-Only LCs ; Register-Only LCs ; LUT/Register LCs ; Carry Chain LCs ; Packed LCs ; Full Hierarchy Name                                                    ;
+----------------------------------------+-------------+--------------+-------------+------+--------------+--------------+-------------------+------------------+-----------------+------------+------------------------------------------------------------------------+
; |fifo                                  ; 283 (173)   ; 123          ; 0           ; 3    ; 144          ; 160 (142)    ; 44 (0)            ; 79 (31)          ; 66 (0)          ; 0 (0)      ; |fifo                                                                  ;
;    |lpm_compare:DSO_INT_COMPARE|       ; 16 (0)      ; 0            ; 0           ; 0    ; 0            ; 16 (0)       ; 0 (0)             ; 0 (0)            ; 16 (0)          ; 0 (0)      ; |fifo|lpm_compare:DSO_INT_COMPARE                                      ;
;       |comptree:comparator|            ; 16 (0)      ; 0            ; 0           ; 0    ; 0            ; 16 (0)       ; 0 (0)             ; 0 (0)            ; 16 (0)          ; 0 (0)      ; |fifo|lpm_compare:DSO_INT_COMPARE|comptree:comparator                  ;
;          |cmpchain:cmp_end|            ; 16 (16)     ; 0            ; 0           ; 0    ; 0            ; 16 (16)      ; 0 (0)             ; 0 (0)            ; 16 (16)         ; 0 (0)      ; |fifo|lpm_compare:DSO_INT_COMPARE|comptree:comparator|cmpchain:cmp_end ;
;    |lpm_compare:FF_CNT_COMPARE|        ; 2 (0)       ; 0            ; 0           ; 0    ; 0            ; 2 (0)        ; 0 (0)             ; 0 (0)            ; 2 (0)           ; 0 (0)      ; |fifo|lpm_compare:FF_CNT_COMPARE                                       ;
;       |comptree:comparator|            ; 2 (0)       ; 0            ; 0           ; 0    ; 0            ; 2 (0)        ; 0 (0)             ; 0 (0)            ; 2 (0)           ; 0 (0)      ; |fifo|lpm_compare:FF_CNT_COMPARE|comptree:comparator                   ;
;          |cmpchain:cmp_end|            ; 2 (2)       ; 0            ; 0           ; 0    ; 0            ; 2 (2)        ; 0 (0)             ; 0 (0)            ; 2 (2)           ; 0 (0)      ; |fifo|lpm_compare:FF_CNT_COMPARE|comptree:comparator|cmpchain:cmp_end  ;
;    |lpm_counter:DSO_INT_CNTR|          ; 16 (0)      ; 16           ; 0           ; 0    ; 0            ; 0 (0)        ; 0 (0)             ; 16 (0)           ; 16 (0)          ; 0 (0)      ; |fifo|lpm_counter:DSO_INT_CNTR                                         ;
;       |alt_synch_counter:wysi_counter| ; 16 (16)     ; 16           ; 0           ; 0    ; 0            ; 0 (0)        ; 0 (0)             ; 16 (16)          ; 16 (16)         ; 0 (0)      ; |fifo|lpm_counter:DSO_INT_CNTR|alt_synch_counter:wysi_counter          ;
;    |lpm_counter:FF_CNT_CNTR|           ; 16 (0)      ; 16           ; 0           ; 0    ; 0            ; 0 (0)        ; 0 (0)             ; 16 (0)           ; 16 (0)          ; 0 (0)      ; |fifo|lpm_counter:FF_CNT_CNTR                                          ;
;       |alt_synch_counter:wysi_counter| ; 16 (16)     ; 16           ; 0           ; 0    ; 0            ; 0 (0)        ; 0 (0)             ; 16 (16)          ; 16 (16)         ; 0 (0)      ; |fifo|lpm_counter:FF_CNT_CNTR|alt_synch_counter:wysi_counter           ;
;    |lpm_counter:Preset_Done_Cntr|      ; 16 (0)      ; 16           ; 0           ; 0    ; 0            ; 0 (0)        ; 0 (0)             ; 16 (0)           ; 16 (0)          ; 0 (0)      ; |fifo|lpm_counter:Preset_Done_Cntr                                     ;
;       |alt_synch_counter:wysi_counter| ; 16 (16)     ; 16           ; 0           ; 0    ; 0            ; 0 (0)        ; 0 (0)             ; 16 (16)          ; 16 (16)         ; 0 (0)      ; |fifo|lpm_counter:Preset_Done_Cntr|alt_synch_counter:wysi_counter      ;
;    |lpm_ff:CPeak_Reg_FF|               ; 12 (12)     ; 12           ; 0           ; 0    ; 0            ; 0 (0)        ; 12 (12)           ; 0 (0)            ; 0 (0)           ; 0 (0)      ; |fifo|lpm_ff:CPeak_Reg_FF                                              ;
;    |lpm_ff:DSO_INT_REG_FF|             ; 16 (16)     ; 16           ; 0           ; 0    ; 0            ; 0 (0)        ; 16 (16)           ; 0 (0)            ; 0 (0)           ; 0 (0)      ; |fifo|lpm_ff:DSO_INT_REG_FF                                            ;
;    |lpm_ff:Preset_Done_Cnt_FF|         ; 16 (16)     ; 16           ; 0           ; 0    ; 0            ; 0 (0)        ; 16 (16)           ; 0 (0)            ; 0 (0)           ; 0 (0)      ; |fifo|lpm_ff:Preset_Done_Cnt_FF                                        ;
+----------------------------------------+-------------+--------------+-------------+------+--------------+--------------+-------------------+------------------+-----------------+------------+------------------------------------------------------------------------+
Note: For table entries with two numbers listed, the numbers in parentheses indicate the number of resources of the given type used by the specific entity alone. The numbers listed outside of parentheses indicate the total resources of the given type used by the specific entity and all of its sub-entities in the hierarchy.


+------------------------------------------------------+
; General Register Statistics                          ;
+----------------------------------------------+-------+
; Statistic                                    ; Value ;
+----------------------------------------------+-------+
; Total registers                              ; 123   ;
; Number of registers using Synchronous Clear  ; 48    ;
; Number of registers using Synchronous Load   ; 0     ;
; Number of registers using Asynchronous Clear ; 123   ;
; Number of registers using Asynchronous Load  ; 0     ;
; Number of registers using Clock Enable       ; 28    ;
; Number of registers using Preset             ; 0     ;
+----------------------------------------------+-------+


+--------------------------------------------------+
; Inverted Register Statistics                     ;
+----------------------------------------+---------+
; Inverted Register                      ; Fan out ;
+----------------------------------------+---------+
; FF_WR~reg0                             ; 2       ;
; Total number of inverted registers = 1 ;         ;
+----------------------------------------+---------+


+------------------------------------------------------------------+
; Parameter Settings for User Entity Instance: LPM_FF:CPeak_Reg_FF ;
+------------------------+----------+------------------------------+
; Parameter Name         ; Value    ; Type                         ;
+------------------------+----------+------------------------------+
; LPM_WIDTH              ; 12       ; Integer                      ;
; LPM_AVALUE             ; UNUSED   ; Untyped                      ;
; LPM_SVALUE             ; UNUSED   ; Untyped                      ;
; LPM_FFTYPE             ; DFF      ; Untyped                      ;
; DEVICE_FAMILY          ; APEX20KE ; Untyped                      ;
; CBXI_PARAMETER         ; NOTHING  ; Untyped                      ;
; AUTO_CARRY_CHAINS      ; ON       ; AUTO_CARRY                   ;
; IGNORE_CARRY_BUFFERS   ; OFF      ; IGNORE_CARRY                 ;
; AUTO_CASCADE_CHAINS    ; ON       ; AUTO_CASCADE                 ;
; IGNORE_CASCADE_BUFFERS ; OFF      ; IGNORE_CASCADE               ;
+------------------------+----------+------------------------------+
Note: In order to hide this table in the UI and the text report file, please set the "Show Parameter Settings Tables in Synthesis Report" option in "Analysis and Synthesis Settings -> More Settings" to "Off".


+----------------------------------------------------------------------+
; Parameter Settings for User Entity Instance: LPM_COUNTER:FF_CNT_CNTR ;
+------------------------+-------------------+-------------------------+
; Parameter Name         ; Value             ; Type                    ;
+------------------------+-------------------+-------------------------+
; AUTO_CARRY_CHAINS      ; ON                ; AUTO_CARRY              ;
; IGNORE_CARRY_BUFFERS   ; OFF               ; IGNORE_CARRY            ;
; AUTO_CASCADE_CHAINS    ; ON                ; AUTO_CASCADE            ;
; IGNORE_CASCADE_BUFFERS ; OFF               ; IGNORE_CASCADE          ;
; LPM_WIDTH              ; 16                ; Integer                 ;
; LPM_DIRECTION          ; UP                ; Untyped                 ;
; LPM_MODULUS            ; 0                 ; Integer                 ;
; LPM_AVALUE             ; UNUSED            ; Untyped                 ;
; LPM_SVALUE             ; UNUSED            ; Untyped                 ;
; LPM_PORT_UPDOWN        ; PORT_CONNECTIVITY ; Untyped                 ;
; DEVICE_FAMILY          ; APEX20KE          ; Untyped                 ;
; CARRY_CHAIN            ; MANUAL            ; Untyped                 ;
; CARRY_CHAIN_LENGTH     ; 48                ; CARRY_CHAIN_LENGTH      ;
; NOT_GATE_PUSH_BACK     ; ON                ; NOT_GATE_PUSH_BACK      ;
; CARRY_CNT_EN           ; SMART             ; Untyped                 ;
; LABWIDE_SCLR           ; ON                ; Untyped                 ;
; USE_NEW_VERSION        ; TRUE              ; Untyped                 ;
; CBXI_PARAMETER         ; NOTHING           ; Untyped                 ;
+------------------------+-------------------+-------------------------+
Note: In order to hide this table in the UI and the text report file, please set the "Show Parameter Settings Tables in Synthesis Report" option in "Analysis and Synthesis Settings -> More Settings" to "Off".


+-------------------------------------------------------------------------+
; Parameter Settings for User Entity Instance: LPM_COMPARE:FF_CNT_COMPARE ;
+------------------------+----------+-------------------------------------+
; Parameter Name         ; Value    ; Type                                ;
+------------------------+----------+-------------------------------------+
; lpm_width              ; 16       ; Integer                             ;
; LPM_REPRESENTATION     ; UNSIGNED ; Untyped                             ;
; LPM_PIPELINE           ; 0        ; Integer                             ;
; CHAIN_SIZE             ; 8        ; Untyped                             ;
; ONE_INPUT_IS_CONSTANT  ; NO       ; Untyped                             ;
; CARRY_CHAIN            ; MANUAL   ; Untyped                             ;
; CASCADE_CHAIN          ; MANUAL   ; Untyped                             ;
; CARRY_CHAIN_LENGTH     ; 48       ; CARRY_CHAIN_LENGTH                  ;
; CASCADE_CHAIN_LENGTH   ; 2        ; CASCADE_CHAIN_LENGTH                ;
; DEVICE_FAMILY          ; APEX20KE ; Untyped                             ;
; CBXI_PARAMETER         ; NOTHING  ; Untyped                             ;
; AUTO_CARRY_CHAINS      ; ON       ; AUTO_CARRY                          ;
; IGNORE_CARRY_BUFFERS   ; OFF      ; IGNORE_CARRY                        ;
; AUTO_CASCADE_CHAINS    ; ON       ; AUTO_CASCADE                        ;
; IGNORE_CASCADE_BUFFERS ; OFF      ; IGNORE_CASCADE                      ;
+------------------------+----------+-------------------------------------+
Note: In order to hide this table in the UI and the text report file, please set the "Show Parameter Settings Tables in Synthesis Report" option in "Analysis and Synthesis Settings -> More Settings" to "Off".


+--------------------------------------------------------------------+
; Parameter Settings for User Entity Instance: LPM_FF:DSO_INT_REG_FF ;
+------------------------+----------+--------------------------------+
; Parameter Name         ; Value    ; Type                           ;
+------------------------+----------+--------------------------------+
; LPM_WIDTH              ; 16       ; Integer                        ;
; LPM_AVALUE             ; UNUSED   ; Untyped                        ;
; LPM_SVALUE             ; UNUSED   ; Untyped                        ;
; LPM_FFTYPE             ; DFF      ; Untyped                        ;
; DEVICE_FAMILY          ; APEX20KE ; Untyped                        ;
; CBXI_PARAMETER         ; NOTHING  ; Untyped                        ;
; AUTO_CARRY_CHAINS      ; ON       ; AUTO_CARRY                     ;
; IGNORE_CARRY_BUFFERS   ; OFF      ; IGNORE_CARRY                   ;
; AUTO_CASCADE_CHAINS    ; ON       ; AUTO_CASCADE                   ;
; IGNORE_CASCADE_BUFFERS ; OFF      ; IGNORE_CASCADE                 ;
+------------------------+----------+--------------------------------+
Note: In order to hide this table in the UI and the text report file, please set the "Show Parameter Settings Tables in Synthesis Report" option in "Analysis and Synthesis Settings -> More Settings" to "Off".


+-----------------------------------------------------------------------+
; Parameter Settings for User Entity Instance: LPM_COUNTER:DSO_INT_CNTR ;
+------------------------+-------------------+--------------------------+
; Parameter Name         ; Value             ; Type                     ;
+------------------------+-------------------+--------------------------+
; AUTO_CARRY_CHAINS      ; ON                ; AUTO_CARRY               ;
; IGNORE_CARRY_BUFFERS   ; OFF               ; IGNORE_CARRY             ;
; AUTO_CASCADE_CHAINS    ; ON                ; AUTO_CASCADE             ;
; IGNORE_CASCADE_BUFFERS ; OFF               ; IGNORE_CASCADE           ;
; LPM_WIDTH              ; 16                ; Integer                  ;
; LPM_DIRECTION          ; DEFAULT           ; Untyped                  ;
; LPM_MODULUS            ; 0                 ; Integer                  ;
; LPM_AVALUE             ; UNUSED            ; Untyped                  ;
; LPM_SVALUE             ; UNUSED            ; Untyped                  ;
; LPM_PORT_UPDOWN        ; PORT_CONNECTIVITY ; Untyped                  ;
; DEVICE_FAMILY          ; APEX20KE          ; Untyped                  ;
; CARRY_CHAIN            ; MANUAL            ; Untyped                  ;
; CARRY_CHAIN_LENGTH     ; 48                ; CARRY_CHAIN_LENGTH       ;
; NOT_GATE_PUSH_BACK     ; ON                ; NOT_GATE_PUSH_BACK       ;
; CARRY_CNT_EN           ; SMART             ; Untyped                  ;
; LABWIDE_SCLR           ; ON                ; Untyped                  ;
; USE_NEW_VERSION        ; TRUE              ; Untyped                  ;
; CBXI_PARAMETER         ; NOTHING           ; Untyped                  ;
+------------------------+-------------------+--------------------------+
Note: In order to hide this table in the UI and the text report file, please set the "Show Parameter Settings Tables in Synthesis Report" option in "Analysis and Synthesis Settings -> More Settings" to "Off".


+--------------------------------------------------------------------------+
; Parameter Settings for User Entity Instance: LPM_COMPARE:DSO_INT_COMPARE ;
+------------------------+----------+--------------------------------------+
; Parameter Name         ; Value    ; Type                                 ;
+------------------------+----------+--------------------------------------+
; lpm_width              ; 16       ; Integer                              ;
; LPM_REPRESENTATION     ; UNSIGNED ; Untyped                              ;
; LPM_PIPELINE           ; 0        ; Integer                              ;
; CHAIN_SIZE             ; 8        ; Untyped                              ;
; ONE_INPUT_IS_CONSTANT  ; NO       ; Untyped                              ;
; CARRY_CHAIN            ; MANUAL   ; Untyped                              ;
; CASCADE_CHAIN          ; MANUAL   ; Untyped                              ;
; CARRY_CHAIN_LENGTH     ; 48       ; CARRY_CHAIN_LENGTH                   ;
; CASCADE_CHAIN_LENGTH   ; 2        ; CASCADE_CHAIN_LENGTH                 ;
; DEVICE_FAMILY          ; APEX20KE ; Untyped                              ;
; CBXI_PARAMETER         ; NOTHING  ; Untyped                              ;
; AUTO_CARRY_CHAINS      ; ON       ; AUTO_CARRY                           ;
; IGNORE_CARRY_BUFFERS   ; OFF      ; IGNORE_CARRY                         ;
; AUTO_CASCADE_CHAINS    ; ON       ; AUTO_CASCADE                         ;
; IGNORE_CASCADE_BUFFERS ; OFF      ; IGNORE_CASCADE                       ;
+------------------------+----------+--------------------------------------+
Note: In order to hide this table in the UI and the text report file, please set the "Show Parameter Settings Tables in Synthesis Report" option in "Analysis and Synthesis Settings -> More Settings" to "Off".


+---------------------------------------------------------------------------+
; Parameter Settings for User Entity Instance: LPM_COUNTER:Preset_Done_Cntr ;
+------------------------+-------------------+------------------------------+
; Parameter Name         ; Value             ; Type                         ;
+------------------------+-------------------+------------------------------+
; AUTO_CARRY_CHAINS      ; ON                ; AUTO_CARRY                   ;
; IGNORE_CARRY_BUFFERS   ; OFF               ; IGNORE_CARRY                 ;
; AUTO_CASCADE_CHAINS    ; ON                ; AUTO_CASCADE                 ;
; IGNORE_CASCADE_BUFFERS ; OFF               ; IGNORE_CASCADE               ;
; LPM_WIDTH              ; 16                ; Integer                      ;
; LPM_DIRECTION          ; DEFAULT           ; Untyped                      ;
; LPM_MODULUS            ; 0                 ; Integer                      ;
; LPM_AVALUE             ; UNUSED            ; Untyped                      ;
; LPM_SVALUE             ; UNUSED            ; Untyped                      ;
; LPM_PORT_UPDOWN        ; PORT_CONNECTIVITY ; Untyped                      ;
; DEVICE_FAMILY          ; APEX20KE          ; Untyped                      ;
; CARRY_CHAIN            ; MANUAL            ; Untyped                      ;
; CARRY_CHAIN_LENGTH     ; 48                ; CARRY_CHAIN_LENGTH           ;
; NOT_GATE_PUSH_BACK     ; ON                ; NOT_GATE_PUSH_BACK           ;
; CARRY_CNT_EN           ; SMART             ; Untyped                      ;
; LABWIDE_SCLR           ; ON                ; Untyped                      ;
; USE_NEW_VERSION        ; TRUE              ; Untyped                      ;
; CBXI_PARAMETER         ; NOTHING           ; Untyped                      ;
+------------------------+-------------------+------------------------------+
Note: In order to hide this table in the UI and the text report file, please set the "Show Parameter Settings Tables in Synthesis Report" option in "Analysis and Synthesis Settings -> More Settings" to "Off".


+------------------------------------------------------------------------+
; Parameter Settings for User Entity Instance: LPM_FF:Preset_Done_Cnt_FF ;
+------------------------+----------+------------------------------------+
; Parameter Name         ; Value    ; Type                               ;
+------------------------+----------+------------------------------------+
; LPM_WIDTH              ; 16       ; Integer                            ;
; LPM_AVALUE             ; UNUSED   ; Untyped                            ;
; LPM_SVALUE             ; UNUSED   ; Untyped                            ;
; LPM_FFTYPE             ; DFF      ; Untyped                            ;
; DEVICE_FAMILY          ; APEX20KE ; Untyped                            ;
; CBXI_PARAMETER         ; NOTHING  ; Untyped                            ;
; AUTO_CARRY_CHAINS      ; ON       ; AUTO_CARRY                         ;
; IGNORE_CARRY_BUFFERS   ; OFF      ; IGNORE_CARRY                       ;
; AUTO_CASCADE_CHAINS    ; ON       ; AUTO_CASCADE                       ;
; IGNORE_CASCADE_BUFFERS ; OFF      ; IGNORE_CASCADE                     ;
+------------------------+----------+------------------------------------+
Note: In order to hide this table in the UI and the text report file, please set the "Show Parameter Settings Tables in Synthesis Report" option in "Analysis and Synthesis Settings -> More Settings" to "Off".


+--------------------------------+
; Analysis & Synthesis Equations ;
+--------------------------------+
The equations can be found in N:/Dpp-2/p19710-4/Software/ep99840/FIFO/fifo.map.eqn.


+-------------------------------+
; Analysis & Synthesis Messages ;
+-------------------------------+
Info: *******************************************************************
Info: Running Quartus II Analysis & Synthesis
    Info: Version 5.1 Build 216 03/06/2006 Service Pack 2 SJ Full Version
    Info: Processing started: Wed Jul 05 08:27:07 2006
Info: Command: quartus_map --read_settings_files=on --write_settings_files=off fifo -c fifo
Info: Found 2 design units, including 1 entities, in source file fifo.vhd
    Info: Found design unit 1: fifo-behavioral
    Info: Found entity 1: fifo
Info: Elaborating entity "fifo" for the top level hierarchy
Info: Found 1 design units, including 1 entities, in source file c:/altera/quartus51/libraries/megafunctions/LPM_FF.tdf
    Info: Found entity 1: lpm_ff
Info: Elaborating entity "LPM_FF" for hierarchy "LPM_FF:CPeak_Reg_FF"
Info: Found 1 design units, including 1 entities, in source file c:/altera/quartus51/libraries/megafunctions/LPM_COUNTER.tdf
    Info: Found entity 1: lpm_counter
Info: Elaborating entity "LPM_COUNTER" for hierarchy "LPM_COUNTER:FF_CNT_CNTR"
Info: Found 1 design units, including 1 entities, in source file c:/altera/quartus51/libraries/megafunctions/alt_synch_counter.tdf
    Info: Found entity 1: alt_synch_counter
Info: Elaborating entity "alt_synch_counter" for hierarchy "LPM_COUNTER:FF_CNT_CNTR|alt_synch_counter:wysi_counter"
Info: Found 1 design units, including 1 entities, in source file c:/altera/quartus51/libraries/megafunctions/LPM_COMPARE.tdf
    Info: Found entity 1: lpm_compare
Info: Elaborating entity "LPM_COMPARE" for hierarchy "LPM_COMPARE:FF_CNT_COMPARE"
Info: Found 1 design units, including 1 entities, in source file c:/altera/quartus51/libraries/megafunctions/comptree.tdf
    Info: Found entity 1: comptree
Info: Elaborating entity "comptree" for hierarchy "LPM_COMPARE:FF_CNT_COMPARE|comptree:comparator"
Info: Found 1 design units, including 1 entities, in source file c:/altera/quartus51/libraries/megafunctions/cmpchain.tdf
    Info: Found entity 1: cmpchain
Info: Elaborating entity "cmpchain" for hierarchy "LPM_COMPARE:FF_CNT_COMPARE|comptree:comparator|cmpchain:cmp_end"
Info: Found 1 design units, including 1 entities, in source file c:/altera/quartus51/libraries/megafunctions/altshift.tdf
    Info: Found entity 1: altshift
Info: Elaborating entity "altshift" for hierarchy "LPM_COMPARE:FF_CNT_COMPARE|altshift:aeb_ext_lat_ffs"
Info: Elaborating entity "LPM_FF" for hierarchy "LPM_FF:DSO_INT_REG_FF"
Info: Elaborating entity "LPM_COUNTER" for hierarchy "LPM_COUNTER:DSO_INT_CNTR"
Info: Elaborating entity "alt_synch_counter" for hierarchy "LPM_COUNTER:DSO_INT_CNTR|alt_synch_counter:wysi_counter"
Info: Elaborating entity "LPM_COMPARE" for hierarchy "LPM_COMPARE:DSO_INT_COMPARE"
Info: Elaborating entity "LPM_FF" for hierarchy "LPM_FF:Preset_Done_Cnt_FF"
Info: Ignored 14 buffer(s)
    Info: Ignored 14 SOFT buffer(s)
Info: Resynthesizing 0 WYSIWYG logic cells and I/Os using "speed" technology mapper which leaves 48 WYSIWYG logic cells and I/Os untouched
Info: Registers with preset signals will power-up high
Info: DEV_CLRn pin will set, and not reset, register with preset signal due to NOT Gate Push-Back
Info: Performing gate-level register retiming
Info: Not allowed to move 48 registers
    Info: Not allowed to move 28 registers because they are directly fed by input pins
    Info: Not allowed to move 20 registers because they feed output pins directly
Info: Quartus II software applied gate-level register retiming to 0 clock domains
Info: Converted 16 single input CARRY primitives to CARRY_SUM primitives
Info: Implemented 430 device resources after synthesis - the final resource count might be different
    Info: Implemented 95 input pins
    Info: Implemented 52 output pins
    Info: Implemented 283 logic cells
Info: Design contains 144 virtual pins; timing numbers associated with paths containing virtual pins are estimates
    Info: Pin "Preset_out" is virtual input pin
    Info: Pin "WE_Preset_Done_Cnt" is virtual input pin
    Info: Pin "FF_FF" is virtual input pin
    Info: Pin "TEST_REG[0]" is virtual input pin
    Info: Pin "Debug[0]" is virtual input pin
    Info: Pin "BLEVEL[0]" is virtual input pin
    Info: Pin "TEST_REG[1]" is virtual input pin
    Info: Pin "Debug[1]" is virtual input pin
    Info: Pin "BLEVEL[1]" is virtual input pin
    Info: Pin "TEST_REG[2]" is virtual input pin
    Info: Pin "Debug[2]" is virtual input pin
    Info: Pin "BLEVEL[2]" is virtual input pin
    Info: Pin "TEST_REG[3]" is virtual input pin
    Info: Pin "Debug[3]" is virtual input pin
    Info: Pin "BLEVEL[3]" is virtual input pin
    Info: Pin "TEST_REG[4]" is virtual input pin
    Info: Pin "Debug[4]" is virtual input pin
    Info: Pin "BLEVEL[4]" is virtual input pin
    Info: Pin "TEST_REG[5]" is virtual input pin
    Info: Pin "Debug[5]" is virtual input pin
    Info: Pin "BLEVEL[5]" is virtual input pin
    Info: Pin "TEST_REG[6]" is virtual input pin
    Info: Pin "Debug[6]" is virtual input pin
    Info: Pin "BLEVEL[6]" is virtual input pin
    Info: Pin "TEST_REG[7]" is virtual input pin
    Info: Pin "Debug[7]" is virtual input pin
    Info: Pin "BLEVEL[7]" is virtual input pin
    Info: Pin "TEST_REG[8]" is virtual input pin
    Info: Pin "Debug[8]" is virtual input pin
    Info: Pin "Debug[9]" is virtual input pin
    Info: Pin "TEST_REG[9]" is virtual input pin
    Info: Pin "Debug[10]" is virtual input pin
    Info: Pin "TEST_REG[10]" is virtual input pin
    Info: Pin "TEST_REG[11]" is virtual input pin
    Info: Pin "TEST_REG[12]" is virtual input pin
    Info: Pin "Debug[12]" is virtual input pin
    Info: Pin "TEST_REG[13]" is virtual input pin
    Info: Pin "Debug[13]" is virtual input pin
    Info: Pin "TEST_REG[14]" is virtual input pin
    Info: Pin "Debug[15]" is virtual input pin
    Info: Pin "TEST_REG[17]" is virtual input pin
    Info: Pin "DSO_Trig[2]" is virtual input pin
    Info: Pin "DSO_Trig[3]" is virtual input pin
    Info: Pin "DSO_TRIG_VEC[2]" is virtual input pin
    Info: Pin "DSO_Trig[1]" is virtual input pin
    Info: Pin "DSO_TRIG_VEC[1]" is virtual input pin
    Info: Pin "DSO_Trig[0]" is virtual input pin
    Info: Pin "DSO_TRIG_VEC[0]" is virtual input pin
    Info: Pin "DSO_TRIG_VEC[3]" is virtual input pin
    Info: Pin "DSO_TRIG_VEC[5]" is virtual input pin
    Info: Pin "DSO_TRIG_VEC[4]" is virtual input pin
    Info: Pin "CPEAK[0]" is virtual input pin
    Info: Pin "Meas_Done" is virtual input pin
    Info: Pin "CPEAK[1]" is virtual input pin
    Info: Pin "CPEAK[2]" is virtual input pin
    Info: Pin "CPEAK[3]" is virtual input pin
    Info: Pin "CPEAK[4]" is virtual input pin
    Info: Pin "CPEAK[5]" is virtual input pin
    Info: Pin "CPEAK[6]" is virtual input pin
    Info: Pin "CPEAK[7]" is virtual input pin
    Info: Pin "CPEAK[8]" is virtual input pin
    Info: Pin "CPEAK[9]" is virtual input pin
    Info: Pin "CPEAK[10]" is virtual input pin
    Info: Pin "CPEAK[11]" is virtual input pin
    Info: Pin "TEST_REG[16]" is virtual input pin
    Info: Pin "WE_fifo_HI" is virtual input pin
    Info: Pin "BIT_ENABLE" is virtual input pin
    Info: Pin "Time_Enable" is virtual input pin
    Info: Pin "DSO_Enable" is virtual input pin
    Info: Pin "Blevel_En" is virtual input pin
    Info: Pin "Blevel_Upd" is virtual input pin
    Info: Pin "WE_DSO_START" is virtual input pin
    Info: Pin "PBusy" is virtual input pin
    Info: Pin "Debug[11]" is virtual input pin
    Info: Pin "Debug[14]" is virtual input pin
    Info: Pin "TEST_REG[15]" is virtual input pin
    Info: Pin "DSO_INT[15]" is virtual input pin
    Info: Pin "DSO_INT[14]" is virtual input pin
    Info: Pin "DSO_INT[13]" is virtual input pin
    Info: Pin "DSO_INT[12]" is virtual input pin
    Info: Pin "DSO_INT[11]" is virtual input pin
    Info: Pin "DSO_INT[10]" is virtual input pin
    Info: Pin "DSO_INT[9]" is virtual input pin
    Info: Pin "DSO_INT[8]" is virtual input pin
    Info: Pin "DSO_INT[7]" is virtual input pin
    Info: Pin "DSO_INT[6]" is virtual input pin
    Info: Pin "DSO_INT[5]" is virtual input pin
    Info: Pin "DSO_INT[4]" is virtual input pin
    Info: Pin "DSO_INT[3]" is virtual input pin
    Info: Pin "DSO_INT[2]" is virtual input pin
    Info: Pin "DSO_INT[1]" is virtual input pin
    Info: Pin "DSO_INT[0]" is virtual input pin
    Info: Pin "Preset_Done_Cnt[0]" is virtual output pin
    Info: Pin "Preset_Done_Cnt[1]" is virtual output pin
    Info: Pin "Preset_Done_Cnt[2]" is virtual output pin
    Info: Pin "Preset_Done_Cnt[3]" is virtual output pin
    Info: Pin "Preset_Done_Cnt[4]" is virtual output pin
    Info: Pin "Preset_Done_Cnt[5]" is virtual output pin
    Info: Pin "Preset_Done_Cnt[6]" is virtual output pin
    Info: Pin "Preset_Done_Cnt[7]" is virtual output pin
    Info: Pin "Preset_Done_Cnt[8]" is virtual output pin
    Info: Pin "Preset_Done_Cnt[9]" is virtual output pin
    Info: Pin "Preset_Done_Cnt[10]" is virtual output pin
    Info: Pin "Preset_Done_Cnt[11]" is virtual output pin
    Info: Pin "Preset_Done_Cnt[12]" is virtual output pin
    Info: Pin "Preset_Done_Cnt[13]" is virtual output pin
    Info: Pin "Preset_Done_Cnt[14]" is virtual output pin
    Info: Pin "Preset_Done_Cnt[15]" is virtual output pin
    Info: Pin "FF_DONE" is virtual output pin
    Info: Pin "FF_CNT[0]" is virtual output pin
    Info: Pin "FF_CNT[1]" is virtual output pin
    Info: Pin "FF_CNT[2]" is virtual output pin
    Info: Pin "FF_CNT[3]" is virtual output pin
    Info: Pin "FF_CNT[4]" is virtual output pin
    Info: Pin "FF_CNT[5]" is virtual output pin
    Info: Pin "FF_CNT[6]" is virtual output pin
    Info: Pin "FF_CNT[7]" is virtual output pin
    Info: Pin "FF_CNT[8]" is virtual output pin
    Info: Pin "FF_CNT[9]" is virtual output pin
    Info: Pin "FF_CNT[10]" is virtual output pin
    Info: Pin "FF_CNT[11]" is virtual output pin
    Info: Pin "FF_CNT[12]" is virtual output pin
    Info: Pin "FF_CNT[13]" is virtual output pin
    Info: Pin "FF_CNT[14]" is virtual output pin
    Info: Pin "FF_CNT[15]" is virtual output pin
    Info: Pin "FF_WR" is virtual output pin
    Info: Pin "FF_WDATA[0]" is virtual output pin
    Info: Pin "FF_WDATA[1]" is virtual output pin
    Info: Pin "FF_WDATA[2]" is virtual output pin
    Info: Pin "FF_WDATA[3]" is virtual output pin
    Info: Pin "FF_WDATA[4]" is virtual output pin
    Info: Pin "FF_WDATA[5]" is virtual output pin
    Info: Pin "FF_WDATA[6]" is virtual output pin
    Info: Pin "FF_WDATA[7]" is virtual output pin
    Info: Pin "FF_WDATA[8]" is virtual output pin
    Info: Pin "FF_WDATA[9]" is virtual output pin
    Info: Pin "FF_WDATA[10]" is virtual output pin
    Info: Pin "FF_WDATA[11]" is virtual output pin
    Info: Pin "FF_WDATA[12]" is virtual output pin
    Info: Pin "FF_WDATA[13]" is virtual output pin
    Info: Pin "FF_WDATA[14]" is virtual output pin
    Info: Pin "FF_WDATA[15]" is virtual output pin
    Info: Pin "FF_WDATA[16]" is virtual output pin
    Info: Pin "FF_WDATA[17]" is virtual output pin
Info: Quartus II Analysis & Synthesis was successful. 0 errors, 0 warnings
    Info: Processing ended: Wed Jul 05 08:27:21 2006
    Info: Elapsed time: 00:00:15


