Flow report for ep99840
Tue Apr 24 14:48:52 2007
Version 5.1 Build 216 03/06/2006 Service Pack 2 SJ Full Version


---------------------
; Table of Contents ;
---------------------
  1. Legal Notice
  2. Flow Summary
  3. Flow Settings
  4. Flow Elapsed Time
  5. Flow Log



----------------
; Legal Notice ;
----------------
Copyright (C) 1991-2006 Altera Corporation
Your use of Altera Corporation's design tools, logic functions 
and other software and tools, and its AMPP partner logic 
functions, and any output files any of the foregoing 
(including device programming or simulation files), and any 
associated documentation or information are expressly subject 
to the terms and conditions of the Altera Program License 
Subscription Agreement, Altera MegaCore Function License 
Agreement, or other applicable license agreement, including, 
without limitation, that your use is for the sole purpose of 
programming logic devices manufactured by Altera and sold by 
Altera or its authorized distributors.  Please refer to the 
applicable agreement for further details.



+-------------------------------------------------------------------------+
; Flow Summary                                                            ;
+-------------------------+-----------------------------------------------+
; Flow Status             ; Successful - Tue Apr 24 14:48:51 2007         ;
; Quartus II Version      ; 5.1 Build 216 03/06/2006 SP 2 SJ Full Version ;
; Revision Name           ; ep99840                                       ;
; Top-level Entity Name   ; EP99840                                       ;
; Family                  ; APEX20KE                                      ;
; Device                  ; EP20K300EQC240-2X                             ;
; Timing Models           ; Final                                         ;
; Met timing requirements ; Yes                                           ;
; Total logic elements    ; 10,004 / 11,520 ( 87 % )                      ;
; Total pins              ; 135 / 152 ( 89 % )                            ;
; Total virtual pins      ; 0                                             ;
; Total memory bits       ; 113,368 / 147,456 ( 77 % )                    ;
; Total PLLs              ; 1 / 4 ( 25 % )                                ;
+-------------------------+-----------------------------------------------+


+-----------------------------------------+
; Flow Settings                           ;
+-------------------+---------------------+
; Option            ; Setting             ;
+-------------------+---------------------+
; Start date & time ; 04/24/2007 14:40:41 ;
; Main task         ; Compilation         ;
; Revision Name     ; ep99840             ;
+-------------------+---------------------+


+-------------------------------------+
; Flow Elapsed Time                   ;
+----------------------+--------------+
; Module Name          ; Elapsed Time ;
+----------------------+--------------+
; Analysis & Synthesis ; 00:02:21     ;
; Fitter               ; 00:05:08     ;
; Assembler            ; 00:00:06     ;
; Timing Analyzer      ; 00:00:29     ;
; Total                ; 00:08:04     ;
+----------------------+--------------+


------------
; Flow Log ;
------------
quartus_map --read_settings_files=on --write_settings_files=off Ep99840 -c ep99840
quartus_fit --read_settings_files=off --write_settings_files=off Ep99840 -c ep99840
quartus_asm --read_settings_files=off --write_settings_files=off Ep99840 -c ep99840
quartus_tan --read_settings_files=off --write_settings_files=off Ep99840 -c ep99840



