Info: *******************************************************************
Info: Running Quartus II Fitter
    Info: Version 4.0 Build 214 3/25/2004 Service Pack 1 SJ Full Version
    Info: Copyright (C) 1991-2004 Altera Corporation. All rights reserved.
    Info: Quartus is a registered trademark of Altera Corporation in the 
    Info: US and other countries.  Portions of the Quartus II software   
    Info: code, and other portions of the code included in this download 
    Info: or on this CD, are licensed to Altera Corporation and are the  
    Info: copyrighted property of third parties who may include, without 
    Info: limitation, Sun Microsystems, The Regents of the University of 
    Info: California, Softel vdm., and Verific Design Automation Inc. 
    Info: Warning:  This computer program is protected by copyright law  
    Info: and international treaties. Unauthorized reproduction or       
    Info: distribution of this program, or any portion of it, may result 
    Info: in severe civil and criminal penalties, and will be prosecuted 
    Info: to the maximum extent possible under the law.
    Info: Processing started: Thu Jul 22 08:26:19 2004
Info: Command: quartus_fit Ep99840 -c ep99840
Info: Selected device EP20K300EQC240-2X for design ep99840
Info: Implementing parameter values for PLL altclklock:CLK_GEN0|pll
    Info: Clock multiplication of 1 and clock division of 1 are implemented for port CLOCK0
    Info: Clock multiplication of 2 and clock division of 1 are implemented for port CLOCK1
    Info: Implementing value for PHASE_SHIFT = 0 ps
Info: Compiling with the fast fit feature
Info: Detected fmax, tsu, tco, and/or tpd requirements -- optimizing circuit to achieve only the specified requirements
Info: Promoted cell altclklock:CLK_GEN0|outclock1 to global signal 
Info: Promoted cell altclklock:CLK_GEN0|outclock0 to global signal 
Info: Promoted cell Dspint:U_DSPINT|FF_RCK~reg0 to global signal automatically
Info: Promoted cell OMR to global signal automatically
Info: Started fitting attempt 1 on Thu Jul 22 2004 at 08:26:53
Info: Fitter placement preparation operations beginning
Info: Fitter placement preparation operations ending: elapsed time = 46 seconds
Info: Fitter placement operations beginning
Info: Fitter placement was successful
Info: Design requires the following device routing resources:
    Info: Overall column FastTrack interconnect = 54%
    Info: Overall row FastTrack interconnect = 99%
    Info: Maximum column FastTrack interconnect = 62%
    Info: Maximum row FastTrack interconnect = 119%
Info: Estimated most critical path is register to pin delay of 7.780 ns
    Info: 1: + IC(0.000 ns) + CELL(0.194 ns) = 0.194 ns; Loc. = LAB_1_J2; Fanout = 6; REG Node = 'Dspint:U_DSPINT|FF_RCK~reg0'
    Info: 2: + IC(4.935 ns) + CELL(2.651 ns) = 7.780 ns; Loc. = Unassigned; Fanout = 0; PIN Node = 'FF_RCK'
    Info: Total cell delay = 2.845 ns ( 36.57 % )
    Info: Total interconnect delay = 4.935 ns ( 63.43 % )
Info: Fitter placement operations ending: elapsed time = 207 seconds
Info: Can't fit design in device -- retrying with increased optimization, which may result in a longer processing time
Info: Design requires the following device routing resources:
    Info: Overall column FastTrack interconnect = 54%
    Info: Overall row FastTrack interconnect = 99%
    Info: Maximum column FastTrack interconnect = 62%
    Info: Maximum row FastTrack interconnect = 119%
Info: Fitter placement operations beginning
Info: Fitter placement was successful
Info: Design requires the following device routing resources:
    Info: Overall column FastTrack interconnect = 52%
    Info: Overall row FastTrack interconnect = 87%
    Info: Maximum column FastTrack interconnect = 61%
    Info: Maximum row FastTrack interconnect = 90%
Info: Estimated most critical path is register to pin delay of 7.780 ns
    Info: 1: + IC(0.000 ns) + CELL(0.194 ns) = 0.194 ns; Loc. = LAB_1_J2; Fanout = 6; REG Node = 'Dspint:U_DSPINT|FF_RCK~reg0'
    Info: 2: + IC(4.935 ns) + CELL(2.651 ns) = 7.780 ns; Loc. = Unassigned; Fanout = 0; PIN Node = 'FF_RCK'
    Info: Total cell delay = 2.845 ns ( 36.57 % )
    Info: Total interconnect delay = 4.935 ns ( 63.43 % )
Info: Fitter placement operations ending: elapsed time = 728 seconds
Info: Fitter routing operations beginning
Info: Fitter routing operations ending: elapsed time = 59 seconds
Info: Quartus II Fitter was successful. 0 errors, 0 warnings
    Info: Processing ended: Thu Jul 22 08:44:36 2004
    Info: Elapsed time: 00:18:16
