Timing Analyzer report for ads8321
Mon Mar 27 09:15:59 2006
Version 5.1 Build 216 03/06/2006 Service Pack 2 SJ Full Version


---------------------
; Table of Contents ;
---------------------
  1. Legal Notice
  2. Timing Analyzer Summary
  3. Timing Analyzer Settings
  4. Clock Settings Summary
  5. Clock Setup: 'CLK20'
  6. Clock Hold: 'CLK20'
  7. tsu
  8. tco
  9. th
 10. Minimum tco
 11. Timing Analyzer Messages



----------------
; Legal Notice ;
----------------
Copyright (C) 1991-2006 Altera Corporation
Your use of Altera Corporation's design tools, logic functions 
and other software and tools, and its AMPP partner logic 
functions, and any output files any of the foregoing 
(including device programming or simulation files), and any 
associated documentation or information are expressly subject 
to the terms and conditions of the Altera Program License 
Subscription Agreement, Altera MegaCore Function License 
Agreement, or other applicable license agreement, including, 
without limitation, that your use is for the sole purpose of 
programming logic devices manufactured by Altera and sold by 
Altera or its authorized distributors.  Please refer to the 
applicable agreement for further details.



+-------------------------------------------------------------------------------------------------------------------------------------------------------------------------------------------------------------+
; Timing Analyzer Summary                                                                                                                                                                                     ;
+------------------------------+-----------+----------------------------------+----------------------------------+--------------------------+--------------------------+------------+----------+--------------+
; Type                         ; Slack     ; Required Time                    ; Actual Time                      ; From                     ; To                       ; From Clock ; To Clock ; Failed Paths ;
+------------------------------+-----------+----------------------------------+----------------------------------+--------------------------+--------------------------+------------+----------+--------------+
; Worst-case tsu               ; 6.974 ns  ; 15.000 ns                        ; 8.026 ns                         ; AD_Dout                  ; Sample                   ; --         ; CLK20    ; 0            ;
; Worst-case tco               ; 5.080 ns  ; 15.000 ns                        ; 9.920 ns                         ; lpm_ff:adata_ff|dffs[11] ; ADATA[11]                ; CLK20      ; --       ; 0            ;
; Worst-case th                ; N/A       ; None                             ; -6.948 ns                        ; AD_Dout                  ; iADATA[0]                ; --         ; CLK20    ; 0            ;
; Worst-case Minimum tco       ; N/A       ; None                             ; 6.755 ns                         ; lpm_ff:adata_ff|dffs[10] ; ADATA[10]                ; CLK20      ; --       ; 0            ;
; Clock Setup: 'CLK20'         ; 14.917 ns ; 50.00 MHz ( period = 20.000 ns ) ; 196.73 MHz ( period = 5.083 ns ) ; BIT_CNT[2]               ; Data                     ; CLK20      ; CLK20    ; 0            ;
; Clock Hold: 'CLK20'          ; 0.644 ns  ; 50.00 MHz ( period = 20.000 ns ) ; N/A                              ; iADATA[16]               ; lpm_ff:adata_ff|dffs[15] ; CLK20      ; CLK20    ; 0            ;
; Total number of failed paths ;           ;                                  ;                                  ;                          ;                          ;            ;          ; 0            ;
+------------------------------+-----------+----------------------------------+----------------------------------+--------------------------+--------------------------+------------+----------+--------------+


+------------------------------------------------------------------------------------------------------+
; Timing Analyzer Settings                                                                             ;
+-------------------------------------------------------+--------------------+------+----+-------------+
; Option                                                ; Setting            ; From ; To ; Entity Name ;
+-------------------------------------------------------+--------------------+------+----+-------------+
; Device Name                                           ; EP20K300EQC240-2X  ;      ;    ;             ;
; Timing Models                                         ; Final              ;      ;    ;             ;
; Number of source nodes to report per destination node ; 10                 ;      ;    ;             ;
; Number of destination nodes to report                 ; 10                 ;      ;    ;             ;
; Number of paths to report                             ; 200                ;      ;    ;             ;
; Report Minimum Timing Checks                          ; On                 ;      ;    ;             ;
; Use Fast Timing Models                                ; Off                ;      ;    ;             ;
; Report IO Paths Separately                            ; Off                ;      ;    ;             ;
; Default hold multicycle                               ; Same As Multicycle ;      ;    ;             ;
; Cut paths between unrelated clock domains             ; On                 ;      ;    ;             ;
; Cut off read during write signal paths                ; On                 ;      ;    ;             ;
; Cut off feedback from I/O pins                        ; On                 ;      ;    ;             ;
; Report Combined Fast/Slow Timing                      ; Off                ;      ;    ;             ;
; tpd Requirement                                       ; 15 ns              ;      ;    ;             ;
; tsu Requirement                                       ; 15 ns              ;      ;    ;             ;
; tco Requirement                                       ; 15 ns              ;      ;    ;             ;
; fmax Requirement                                      ; 20 ns              ;      ;    ;             ;
; Ignore Clock Settings                                 ; On                 ;      ;    ;             ;
; Analyze latches as synchronous elements               ; Off                ;      ;    ;             ;
; Enable Recovery/Removal analysis                      ; Off                ;      ;    ;             ;
; Enable Clock Latency                                  ; Off                ;      ;    ;             ;
+-------------------------------------------------------+--------------------+------+----+-------------+


+------------------------------------------------------------------------------------------------------------------------------------------------------------------------------------+
; Clock Settings Summary                                                                                                                                                             ;
+-----------------+--------------------+----------+------------------+---------------+--------------+----------+-----------------------+---------------------+--------+--------------+
; Clock Node Name ; Clock Setting Name ; Type     ; Fmax Requirement ; Early Latency ; Late Latency ; Based on ; Multiply Base Fmax by ; Divide Base Fmax by ; Offset ; Phase offset ;
+-----------------+--------------------+----------+------------------+---------------+--------------+----------+-----------------------+---------------------+--------+--------------+
; CLK20           ;                    ; User Pin ; 50.0 MHz         ; 0.000 ns      ; 0.000 ns     ; --       ; N/A                   ; N/A                 ; N/A    ;              ;
+-----------------+--------------------+----------+------------------+---------------+--------------+----------+-----------------------+---------------------+--------+--------------+


+---------------------------------------------------------------------------------------------------------------------------------------------------------------------------------------------------------------+
; Clock Setup: 'CLK20'                                                                                                                                                                                          ;
+-----------+-----------------------------------------------+------------+--------------------------+------------+----------+-----------------------------+---------------------------+-------------------------+
; Slack     ; Actual fmax (period)                          ; From       ; To                       ; From Clock ; To Clock ; Required Setup Relationship ; Required Longest P2P Time ; Actual Longest P2P Time ;
+-----------+-----------------------------------------------+------------+--------------------------+------------+----------+-----------------------------+---------------------------+-------------------------+
; 14.917 ns ; 196.73 MHz ( period = 5.083 ns )              ; BIT_CNT[2] ; Data                     ; CLK20      ; CLK20    ; 20.000 ns                   ; 19.453 ns                 ; 4.536 ns                ;
; 15.433 ns ; 218.96 MHz ( period = 4.567 ns )              ; BIT_CNT[1] ; Data                     ; CLK20      ; CLK20    ; 20.000 ns                   ; 19.453 ns                 ; 4.020 ns                ;
; 15.553 ns ; 224.87 MHz ( period = 4.447 ns )              ; BIT_CNT[3] ; Data                     ; CLK20      ; CLK20    ; 20.000 ns                   ; 19.453 ns                 ; 3.900 ns                ;
; 15.578 ns ; 226.14 MHz ( period = 4.422 ns )              ; clk_cnt[1] ; BIT_CNT[2]               ; CLK20      ; CLK20    ; 20.000 ns                   ; 19.453 ns                 ; 3.875 ns                ;
; 15.579 ns ; 226.19 MHz ( period = 4.421 ns )              ; clk_cnt[1] ; BIT_CNT[1]               ; CLK20      ; CLK20    ; 20.000 ns                   ; 19.453 ns                 ; 3.874 ns                ;
; 15.581 ns ; 226.30 MHz ( period = 4.419 ns )              ; clk_cnt[1] ; BIT_CNT[3]               ; CLK20      ; CLK20    ; 20.000 ns                   ; 19.453 ns                 ; 3.872 ns                ;
; 15.584 ns ; 226.45 MHz ( period = 4.416 ns )              ; clk_cnt[1] ; BIT_CNT[4]               ; CLK20      ; CLK20    ; 20.000 ns                   ; 19.453 ns                 ; 3.869 ns                ;
; 15.596 ns ; 227.07 MHz ( period = 4.404 ns )              ; BIT_CNT[2] ; AD_CS~reg0               ; CLK20      ; CLK20    ; 20.000 ns                   ; 19.453 ns                 ; 3.857 ns                ;
; 15.620 ns ; 228.31 MHz ( period = 4.380 ns )              ; BIT_CNT[2] ; BIT_CNT[4]               ; CLK20      ; CLK20    ; 20.000 ns                   ; 19.453 ns                 ; 3.833 ns                ;
; 15.654 ns ; 230.10 MHz ( period = 4.346 ns )              ; clk_cnt[0] ; BIT_CNT[2]               ; CLK20      ; CLK20    ; 20.000 ns                   ; 19.453 ns                 ; 3.799 ns                ;
; 15.655 ns ; 230.15 MHz ( period = 4.345 ns )              ; clk_cnt[0] ; BIT_CNT[1]               ; CLK20      ; CLK20    ; 20.000 ns                   ; 19.453 ns                 ; 3.798 ns                ;
; 15.657 ns ; 230.26 MHz ( period = 4.343 ns )              ; clk_cnt[0] ; BIT_CNT[3]               ; CLK20      ; CLK20    ; 20.000 ns                   ; 19.453 ns                 ; 3.796 ns                ;
; 15.660 ns ; 230.41 MHz ( period = 4.340 ns )              ; clk_cnt[0] ; BIT_CNT[4]               ; CLK20      ; CLK20    ; 20.000 ns                   ; 19.453 ns                 ; 3.793 ns                ;
; 15.759 ns ; Restricted to 233.64 MHz ( period = 4.28 ns ) ; BIT_CNT[2] ; BIT_CNT[3]               ; CLK20      ; CLK20    ; 20.000 ns                   ; 19.453 ns                 ; 3.694 ns                ;
; 15.890 ns ; Restricted to 233.64 MHz ( period = 4.28 ns ) ; BIT_CNT[0] ; BIT_CNT[4]               ; CLK20      ; CLK20    ; 20.000 ns                   ; 19.453 ns                 ; 3.563 ns                ;
; 16.011 ns ; Restricted to 233.64 MHz ( period = 4.28 ns ) ; BIT_CNT[1] ; BIT_CNT[4]               ; CLK20      ; CLK20    ; 20.000 ns                   ; 19.453 ns                 ; 3.442 ns                ;
; 16.029 ns ; Restricted to 233.64 MHz ( period = 4.28 ns ) ; BIT_CNT[0] ; BIT_CNT[3]               ; CLK20      ; CLK20    ; 20.000 ns                   ; 19.453 ns                 ; 3.424 ns                ;
; 16.066 ns ; Restricted to 233.64 MHz ( period = 4.28 ns ) ; clk_cnt[1] ; Sample                   ; CLK20      ; CLK20    ; 20.000 ns                   ; 19.453 ns                 ; 3.387 ns                ;
; 16.087 ns ; Restricted to 233.64 MHz ( period = 4.28 ns ) ; clk_cnt[0] ; AD_CS~reg0               ; CLK20      ; CLK20    ; 20.000 ns                   ; 19.453 ns                 ; 3.366 ns                ;
; 16.105 ns ; Restricted to 233.64 MHz ( period = 4.28 ns ) ; clk_cnt[1] ; Data                     ; CLK20      ; CLK20    ; 20.000 ns                   ; 19.453 ns                 ; 3.348 ns                ;
; 16.112 ns ; Restricted to 233.64 MHz ( period = 4.28 ns ) ; BIT_CNT[1] ; AD_CS~reg0               ; CLK20      ; CLK20    ; 20.000 ns                   ; 19.453 ns                 ; 3.341 ns                ;
; 16.142 ns ; Restricted to 233.64 MHz ( period = 4.28 ns ) ; clk_cnt[0] ; Sample                   ; CLK20      ; CLK20    ; 20.000 ns                   ; 19.453 ns                 ; 3.311 ns                ;
; 16.150 ns ; Restricted to 233.64 MHz ( period = 4.28 ns ) ; BIT_CNT[1] ; BIT_CNT[3]               ; CLK20      ; CLK20    ; 20.000 ns                   ; 19.453 ns                 ; 3.303 ns                ;
; 16.181 ns ; Restricted to 233.64 MHz ( period = 4.28 ns ) ; clk_cnt[0] ; Data                     ; CLK20      ; CLK20    ; 20.000 ns                   ; 19.453 ns                 ; 3.272 ns                ;
; 16.203 ns ; Restricted to 233.64 MHz ( period = 4.28 ns ) ; Data       ; AD_CS~reg0               ; CLK20      ; CLK20    ; 20.000 ns                   ; 19.453 ns                 ; 3.250 ns                ;
; 16.222 ns ; Restricted to 233.64 MHz ( period = 4.28 ns ) ; clk_cnt[0] ; iADATA[5]                ; CLK20      ; CLK20    ; 20.000 ns                   ; 19.453 ns                 ; 3.231 ns                ;
; 16.222 ns ; Restricted to 233.64 MHz ( period = 4.28 ns ) ; clk_cnt[0] ; iADATA[10]               ; CLK20      ; CLK20    ; 20.000 ns                   ; 19.453 ns                 ; 3.231 ns                ;
; 16.223 ns ; Restricted to 233.64 MHz ( period = 4.28 ns ) ; clk_cnt[0] ; iADATA[4]                ; CLK20      ; CLK20    ; 20.000 ns                   ; 19.453 ns                 ; 3.230 ns                ;
; 16.223 ns ; Restricted to 233.64 MHz ( period = 4.28 ns ) ; clk_cnt[0] ; iADATA[12]               ; CLK20      ; CLK20    ; 20.000 ns                   ; 19.453 ns                 ; 3.230 ns                ;
; 16.224 ns ; Restricted to 233.64 MHz ( period = 4.28 ns ) ; clk_cnt[0] ; iADATA[13]               ; CLK20      ; CLK20    ; 20.000 ns                   ; 19.453 ns                 ; 3.229 ns                ;
; 16.224 ns ; Restricted to 233.64 MHz ( period = 4.28 ns ) ; clk_cnt[0] ; iADATA[14]               ; CLK20      ; CLK20    ; 20.000 ns                   ; 19.453 ns                 ; 3.229 ns                ;
; 16.225 ns ; Restricted to 233.64 MHz ( period = 4.28 ns ) ; clk_cnt[0] ; iADATA[6]                ; CLK20      ; CLK20    ; 20.000 ns                   ; 19.453 ns                 ; 3.228 ns                ;
; 16.227 ns ; Restricted to 233.64 MHz ( period = 4.28 ns ) ; clk_cnt[0] ; iADATA[11]               ; CLK20      ; CLK20    ; 20.000 ns                   ; 19.453 ns                 ; 3.226 ns                ;
; 16.229 ns ; Restricted to 233.64 MHz ( period = 4.28 ns ) ; clk_cnt[0] ; iADATA[3]                ; CLK20      ; CLK20    ; 20.000 ns                   ; 19.453 ns                 ; 3.224 ns                ;
; 16.229 ns ; Restricted to 233.64 MHz ( period = 4.28 ns ) ; clk_cnt[0] ; iADATA[16]               ; CLK20      ; CLK20    ; 20.000 ns                   ; 19.453 ns                 ; 3.224 ns                ;
; 16.230 ns ; Restricted to 233.64 MHz ( period = 4.28 ns ) ; clk_cnt[0] ; iADATA[1]                ; CLK20      ; CLK20    ; 20.000 ns                   ; 19.453 ns                 ; 3.223 ns                ;
; 16.230 ns ; Restricted to 233.64 MHz ( period = 4.28 ns ) ; clk_cnt[0] ; iADATA[2]                ; CLK20      ; CLK20    ; 20.000 ns                   ; 19.453 ns                 ; 3.223 ns                ;
; 16.231 ns ; Restricted to 233.64 MHz ( period = 4.28 ns ) ; clk_cnt[0] ; iADATA[9]                ; CLK20      ; CLK20    ; 20.000 ns                   ; 19.453 ns                 ; 3.222 ns                ;
; 16.232 ns ; Restricted to 233.64 MHz ( period = 4.28 ns ) ; BIT_CNT[3] ; AD_CS~reg0               ; CLK20      ; CLK20    ; 20.000 ns                   ; 19.453 ns                 ; 3.221 ns                ;
; 16.232 ns ; Restricted to 233.64 MHz ( period = 4.28 ns ) ; clk_cnt[0] ; iADATA[8]                ; CLK20      ; CLK20    ; 20.000 ns                   ; 19.453 ns                 ; 3.221 ns                ;
; 16.232 ns ; Restricted to 233.64 MHz ( period = 4.28 ns ) ; clk_cnt[0] ; iADATA[0]                ; CLK20      ; CLK20    ; 20.000 ns                   ; 19.453 ns                 ; 3.221 ns                ;
; 16.234 ns ; Restricted to 233.64 MHz ( period = 4.28 ns ) ; clk_cnt[0] ; iADATA[7]                ; CLK20      ; CLK20    ; 20.000 ns                   ; 19.453 ns                 ; 3.219 ns                ;
; 16.235 ns ; Restricted to 233.64 MHz ( period = 4.28 ns ) ; clk_cnt[0] ; iADATA[15]               ; CLK20      ; CLK20    ; 20.000 ns                   ; 19.453 ns                 ; 3.218 ns                ;
; 16.261 ns ; Restricted to 233.64 MHz ( period = 4.28 ns ) ; BIT_CNT[4] ; Data                     ; CLK20      ; CLK20    ; 20.000 ns                   ; 19.453 ns                 ; 3.192 ns                ;
; 16.281 ns ; Restricted to 233.64 MHz ( period = 4.28 ns ) ; clk_cnt[1] ; BIT_CNT[0]               ; CLK20      ; CLK20    ; 20.000 ns                   ; 19.453 ns                 ; 3.172 ns                ;
; 16.298 ns ; Restricted to 233.64 MHz ( period = 4.28 ns ) ; BIT_CNT[3] ; BIT_CNT[4]               ; CLK20      ; CLK20    ; 20.000 ns                   ; 19.453 ns                 ; 3.155 ns                ;
; 16.338 ns ; Restricted to 233.64 MHz ( period = 4.28 ns ) ; Data       ; iADATA[5]                ; CLK20      ; CLK20    ; 20.000 ns                   ; 19.453 ns                 ; 3.115 ns                ;
; 16.338 ns ; Restricted to 233.64 MHz ( period = 4.28 ns ) ; Data       ; iADATA[10]               ; CLK20      ; CLK20    ; 20.000 ns                   ; 19.453 ns                 ; 3.115 ns                ;
; 16.339 ns ; Restricted to 233.64 MHz ( period = 4.28 ns ) ; Data       ; iADATA[4]                ; CLK20      ; CLK20    ; 20.000 ns                   ; 19.453 ns                 ; 3.114 ns                ;
; 16.339 ns ; Restricted to 233.64 MHz ( period = 4.28 ns ) ; Data       ; iADATA[12]               ; CLK20      ; CLK20    ; 20.000 ns                   ; 19.453 ns                 ; 3.114 ns                ;
; 16.340 ns ; Restricted to 233.64 MHz ( period = 4.28 ns ) ; Data       ; iADATA[13]               ; CLK20      ; CLK20    ; 20.000 ns                   ; 19.453 ns                 ; 3.113 ns                ;
; 16.340 ns ; Restricted to 233.64 MHz ( period = 4.28 ns ) ; Data       ; iADATA[14]               ; CLK20      ; CLK20    ; 20.000 ns                   ; 19.453 ns                 ; 3.113 ns                ;
; 16.341 ns ; Restricted to 233.64 MHz ( period = 4.28 ns ) ; Data       ; iADATA[6]                ; CLK20      ; CLK20    ; 20.000 ns                   ; 19.453 ns                 ; 3.112 ns                ;
; 16.343 ns ; Restricted to 233.64 MHz ( period = 4.28 ns ) ; Data       ; iADATA[11]               ; CLK20      ; CLK20    ; 20.000 ns                   ; 19.453 ns                 ; 3.110 ns                ;
; 16.345 ns ; Restricted to 233.64 MHz ( period = 4.28 ns ) ; Data       ; iADATA[3]                ; CLK20      ; CLK20    ; 20.000 ns                   ; 19.453 ns                 ; 3.108 ns                ;
; 16.345 ns ; Restricted to 233.64 MHz ( period = 4.28 ns ) ; Data       ; iADATA[16]               ; CLK20      ; CLK20    ; 20.000 ns                   ; 19.453 ns                 ; 3.108 ns                ;
; 16.346 ns ; Restricted to 233.64 MHz ( period = 4.28 ns ) ; Data       ; iADATA[1]                ; CLK20      ; CLK20    ; 20.000 ns                   ; 19.453 ns                 ; 3.107 ns                ;
; 16.346 ns ; Restricted to 233.64 MHz ( period = 4.28 ns ) ; Data       ; iADATA[2]                ; CLK20      ; CLK20    ; 20.000 ns                   ; 19.453 ns                 ; 3.107 ns                ;
; 16.347 ns ; Restricted to 233.64 MHz ( period = 4.28 ns ) ; Data       ; iADATA[9]                ; CLK20      ; CLK20    ; 20.000 ns                   ; 19.453 ns                 ; 3.106 ns                ;
; 16.348 ns ; Restricted to 233.64 MHz ( period = 4.28 ns ) ; Data       ; iADATA[8]                ; CLK20      ; CLK20    ; 20.000 ns                   ; 19.453 ns                 ; 3.105 ns                ;
; 16.348 ns ; Restricted to 233.64 MHz ( period = 4.28 ns ) ; Data       ; iADATA[0]                ; CLK20      ; CLK20    ; 20.000 ns                   ; 19.453 ns                 ; 3.105 ns                ;
; 16.350 ns ; Restricted to 233.64 MHz ( period = 4.28 ns ) ; Data       ; iADATA[7]                ; CLK20      ; CLK20    ; 20.000 ns                   ; 19.453 ns                 ; 3.103 ns                ;
; 16.351 ns ; Restricted to 233.64 MHz ( period = 4.28 ns ) ; Data       ; iADATA[15]               ; CLK20      ; CLK20    ; 20.000 ns                   ; 19.453 ns                 ; 3.102 ns                ;
; 16.357 ns ; Restricted to 233.64 MHz ( period = 4.28 ns ) ; clk_cnt[0] ; BIT_CNT[0]               ; CLK20      ; CLK20    ; 20.000 ns                   ; 19.453 ns                 ; 3.096 ns                ;
; 16.390 ns ; Restricted to 233.64 MHz ( period = 4.28 ns ) ; BIT_CNT[0] ; Data                     ; CLK20      ; CLK20    ; 20.000 ns                   ; 19.453 ns                 ; 3.063 ns                ;
; 16.722 ns ; Restricted to 233.64 MHz ( period = 4.28 ns ) ; clk_cnt[1] ; AD_CS~reg0               ; CLK20      ; CLK20    ; 20.000 ns                   ; 19.453 ns                 ; 2.731 ns                ;
; 16.833 ns ; Restricted to 233.64 MHz ( period = 4.28 ns ) ; BIT_CNT[0] ; BIT_CNT[2]               ; CLK20      ; CLK20    ; 20.000 ns                   ; 19.453 ns                 ; 2.620 ns                ;
; 16.857 ns ; Restricted to 233.64 MHz ( period = 4.28 ns ) ; clk_cnt[1] ; iADATA[5]                ; CLK20      ; CLK20    ; 20.000 ns                   ; 19.453 ns                 ; 2.596 ns                ;
; 16.857 ns ; Restricted to 233.64 MHz ( period = 4.28 ns ) ; clk_cnt[1] ; iADATA[10]               ; CLK20      ; CLK20    ; 20.000 ns                   ; 19.453 ns                 ; 2.596 ns                ;
; 16.858 ns ; Restricted to 233.64 MHz ( period = 4.28 ns ) ; clk_cnt[1] ; iADATA[4]                ; CLK20      ; CLK20    ; 20.000 ns                   ; 19.453 ns                 ; 2.595 ns                ;
; 16.858 ns ; Restricted to 233.64 MHz ( period = 4.28 ns ) ; clk_cnt[1] ; iADATA[12]               ; CLK20      ; CLK20    ; 20.000 ns                   ; 19.453 ns                 ; 2.595 ns                ;
; 16.859 ns ; Restricted to 233.64 MHz ( period = 4.28 ns ) ; clk_cnt[1] ; iADATA[13]               ; CLK20      ; CLK20    ; 20.000 ns                   ; 19.453 ns                 ; 2.594 ns                ;
; 16.859 ns ; Restricted to 233.64 MHz ( period = 4.28 ns ) ; clk_cnt[1] ; iADATA[14]               ; CLK20      ; CLK20    ; 20.000 ns                   ; 19.453 ns                 ; 2.594 ns                ;
; 16.860 ns ; Restricted to 233.64 MHz ( period = 4.28 ns ) ; clk_cnt[1] ; iADATA[6]                ; CLK20      ; CLK20    ; 20.000 ns                   ; 19.453 ns                 ; 2.593 ns                ;
; 16.862 ns ; Restricted to 233.64 MHz ( period = 4.28 ns ) ; clk_cnt[1] ; iADATA[11]               ; CLK20      ; CLK20    ; 20.000 ns                   ; 19.453 ns                 ; 2.591 ns                ;
; 16.864 ns ; Restricted to 233.64 MHz ( period = 4.28 ns ) ; clk_cnt[1] ; iADATA[3]                ; CLK20      ; CLK20    ; 20.000 ns                   ; 19.453 ns                 ; 2.589 ns                ;
; 16.864 ns ; Restricted to 233.64 MHz ( period = 4.28 ns ) ; clk_cnt[1] ; iADATA[16]               ; CLK20      ; CLK20    ; 20.000 ns                   ; 19.453 ns                 ; 2.589 ns                ;
; 16.865 ns ; Restricted to 233.64 MHz ( period = 4.28 ns ) ; clk_cnt[1] ; iADATA[1]                ; CLK20      ; CLK20    ; 20.000 ns                   ; 19.453 ns                 ; 2.588 ns                ;
; 16.865 ns ; Restricted to 233.64 MHz ( period = 4.28 ns ) ; clk_cnt[1] ; iADATA[2]                ; CLK20      ; CLK20    ; 20.000 ns                   ; 19.453 ns                 ; 2.588 ns                ;
; 16.866 ns ; Restricted to 233.64 MHz ( period = 4.28 ns ) ; clk_cnt[1] ; iADATA[9]                ; CLK20      ; CLK20    ; 20.000 ns                   ; 19.453 ns                 ; 2.587 ns                ;
; 16.867 ns ; Restricted to 233.64 MHz ( period = 4.28 ns ) ; clk_cnt[1] ; iADATA[8]                ; CLK20      ; CLK20    ; 20.000 ns                   ; 19.453 ns                 ; 2.586 ns                ;
; 16.867 ns ; Restricted to 233.64 MHz ( period = 4.28 ns ) ; BIT_CNT[3] ; BIT_CNT[3]               ; CLK20      ; CLK20    ; 20.000 ns                   ; 19.453 ns                 ; 2.586 ns                ;
; 16.867 ns ; Restricted to 233.64 MHz ( period = 4.28 ns ) ; clk_cnt[1] ; iADATA[0]                ; CLK20      ; CLK20    ; 20.000 ns                   ; 19.453 ns                 ; 2.586 ns                ;
; 16.869 ns ; Restricted to 233.64 MHz ( period = 4.28 ns ) ; clk_cnt[1] ; iADATA[7]                ; CLK20      ; CLK20    ; 20.000 ns                   ; 19.453 ns                 ; 2.584 ns                ;
; 16.870 ns ; Restricted to 233.64 MHz ( period = 4.28 ns ) ; clk_cnt[1] ; iADATA[15]               ; CLK20      ; CLK20    ; 20.000 ns                   ; 19.453 ns                 ; 2.583 ns                ;
; 16.940 ns ; Restricted to 233.64 MHz ( period = 4.28 ns ) ; BIT_CNT[4] ; AD_CS~reg0               ; CLK20      ; CLK20    ; 20.000 ns                   ; 19.453 ns                 ; 2.513 ns                ;
; 16.954 ns ; Restricted to 233.64 MHz ( period = 4.28 ns ) ; BIT_CNT[1] ; BIT_CNT[2]               ; CLK20      ; CLK20    ; 20.000 ns                   ; 19.453 ns                 ; 2.499 ns                ;
; 16.972 ns ; Restricted to 233.64 MHz ( period = 4.28 ns ) ; BIT_CNT[0] ; BIT_CNT[1]               ; CLK20      ; CLK20    ; 20.000 ns                   ; 19.453 ns                 ; 2.481 ns                ;
; 16.974 ns ; Restricted to 233.64 MHz ( period = 4.28 ns ) ; BIT_CNT[0] ; BIT_CNT[0]               ; CLK20      ; CLK20    ; 20.000 ns                   ; 19.453 ns                 ; 2.479 ns                ;
; 16.977 ns ; Restricted to 233.64 MHz ( period = 4.28 ns ) ; Data       ; Data                     ; CLK20      ; CLK20    ; 20.000 ns                   ; 19.453 ns                 ; 2.476 ns                ;
; 17.069 ns ; Restricted to 233.64 MHz ( period = 4.28 ns ) ; BIT_CNT[0] ; AD_CS~reg0               ; CLK20      ; CLK20    ; 20.000 ns                   ; 19.453 ns                 ; 2.384 ns                ;
; 17.371 ns ; Restricted to 233.64 MHz ( period = 4.28 ns ) ; AD_CS~reg0 ; AD_CS~reg0               ; CLK20      ; CLK20    ; 20.000 ns                   ; 19.453 ns                 ; 2.082 ns                ;
; 17.419 ns ; Restricted to 233.64 MHz ( period = 4.28 ns ) ; clk_cnt[0] ; AD_CLK~reg0              ; CLK20      ; CLK20    ; 20.000 ns                   ; 19.453 ns                 ; 2.034 ns                ;
; 17.458 ns ; Restricted to 233.64 MHz ( period = 4.28 ns ) ; Sample     ; Sample                   ; CLK20      ; CLK20    ; 20.000 ns                   ; 19.453 ns                 ; 1.995 ns                ;
; 17.463 ns ; Restricted to 233.64 MHz ( period = 4.28 ns ) ; Sample     ; Data                     ; CLK20      ; CLK20    ; 20.000 ns                   ; 19.453 ns                 ; 1.990 ns                ;
; 17.470 ns ; Restricted to 233.64 MHz ( period = 4.28 ns ) ; AD_CS~reg0 ; clk_cnt[1]               ; CLK20      ; CLK20    ; 20.000 ns                   ; 19.453 ns                 ; 1.983 ns                ;
; 17.476 ns ; Restricted to 233.64 MHz ( period = 4.28 ns ) ; AD_CS~reg0 ; clk_cnt[0]               ; CLK20      ; CLK20    ; 20.000 ns                   ; 19.453 ns                 ; 1.977 ns                ;
; 17.484 ns ; Restricted to 233.64 MHz ( period = 4.28 ns ) ; BIT_CNT[4] ; BIT_CNT[4]               ; CLK20      ; CLK20    ; 20.000 ns                   ; 19.453 ns                 ; 1.969 ns                ;
; 17.487 ns ; Restricted to 233.64 MHz ( period = 4.28 ns ) ; Data       ; BIT_CNT[2]               ; CLK20      ; CLK20    ; 20.000 ns                   ; 19.453 ns                 ; 1.966 ns                ;
; 17.499 ns ; Restricted to 233.64 MHz ( period = 4.28 ns ) ; Data       ; BIT_CNT[1]               ; CLK20      ; CLK20    ; 20.000 ns                   ; 19.453 ns                 ; 1.954 ns                ;
; 17.505 ns ; Restricted to 233.64 MHz ( period = 4.28 ns ) ; Data       ; BIT_CNT[3]               ; CLK20      ; CLK20    ; 20.000 ns                   ; 19.453 ns                 ; 1.948 ns                ;
; 17.506 ns ; Restricted to 233.64 MHz ( period = 4.28 ns ) ; clk_cnt[1] ; AD_CLK~reg0              ; CLK20      ; CLK20    ; 20.000 ns                   ; 19.453 ns                 ; 1.947 ns                ;
; 17.511 ns ; Restricted to 233.64 MHz ( period = 4.28 ns ) ; Data       ; BIT_CNT[4]               ; CLK20      ; CLK20    ; 20.000 ns                   ; 19.453 ns                 ; 1.942 ns                ;
; 17.522 ns ; Restricted to 233.64 MHz ( period = 4.28 ns ) ; BIT_CNT[2] ; BIT_CNT[2]               ; CLK20      ; CLK20    ; 20.000 ns                   ; 19.453 ns                 ; 1.931 ns                ;
; 17.523 ns ; Restricted to 233.64 MHz ( period = 4.28 ns ) ; BIT_CNT[1] ; BIT_CNT[1]               ; CLK20      ; CLK20    ; 20.000 ns                   ; 19.453 ns                 ; 1.930 ns                ;
; 17.524 ns ; Restricted to 233.64 MHz ( period = 4.28 ns ) ; AD_CS~reg0 ; lpm_ff:adata_ff|dffs[1]  ; CLK20      ; CLK20    ; 20.000 ns                   ; 19.453 ns                 ; 1.929 ns                ;
; 17.525 ns ; Restricted to 233.64 MHz ( period = 4.28 ns ) ; AD_CS~reg0 ; lpm_ff:adata_ff|dffs[9]  ; CLK20      ; CLK20    ; 20.000 ns                   ; 19.453 ns                 ; 1.928 ns                ;
; 17.525 ns ; Restricted to 233.64 MHz ( period = 4.28 ns ) ; AD_CS~reg0 ; lpm_ff:adata_ff|dffs[14] ; CLK20      ; CLK20    ; 20.000 ns                   ; 19.453 ns                 ; 1.928 ns                ;
; 17.526 ns ; Restricted to 233.64 MHz ( period = 4.28 ns ) ; AD_CS~reg0 ; lpm_ff:adata_ff|dffs[2]  ; CLK20      ; CLK20    ; 20.000 ns                   ; 19.453 ns                 ; 1.927 ns                ;
; 17.527 ns ; Restricted to 233.64 MHz ( period = 4.28 ns ) ; AD_CS~reg0 ; lpm_ff:adata_ff|dffs[15] ; CLK20      ; CLK20    ; 20.000 ns                   ; 19.453 ns                 ; 1.926 ns                ;
; 17.530 ns ; Restricted to 233.64 MHz ( period = 4.28 ns ) ; AD_CS~reg0 ; lpm_ff:adata_ff|dffs[0]  ; CLK20      ; CLK20    ; 20.000 ns                   ; 19.453 ns                 ; 1.923 ns                ;
; 17.533 ns ; Restricted to 233.64 MHz ( period = 4.28 ns ) ; AD_CS~reg0 ; lpm_ff:adata_ff|dffs[13] ; CLK20      ; CLK20    ; 20.000 ns                   ; 19.453 ns                 ; 1.920 ns                ;
; 17.558 ns ; Restricted to 233.64 MHz ( period = 4.28 ns ) ; AD_CS~reg0 ; lpm_ff:adata_ff|dffs[5]  ; CLK20      ; CLK20    ; 20.000 ns                   ; 19.453 ns                 ; 1.895 ns                ;
; 17.567 ns ; Restricted to 233.64 MHz ( period = 4.28 ns ) ; AD_CS~reg0 ; lpm_ff:adata_ff|dffs[10] ; CLK20      ; CLK20    ; 20.000 ns                   ; 19.453 ns                 ; 1.886 ns                ;
; 17.579 ns ; Restricted to 233.64 MHz ( period = 4.28 ns ) ; AD_CS~reg0 ; lpm_ff:adata_ff|dffs[6]  ; CLK20      ; CLK20    ; 20.000 ns                   ; 19.453 ns                 ; 1.874 ns                ;
; 17.579 ns ; Restricted to 233.64 MHz ( period = 4.28 ns ) ; AD_CS~reg0 ; lpm_ff:adata_ff|dffs[11] ; CLK20      ; CLK20    ; 20.000 ns                   ; 19.453 ns                 ; 1.874 ns                ;
; 17.580 ns ; Restricted to 233.64 MHz ( period = 4.28 ns ) ; AD_CS~reg0 ; lpm_ff:adata_ff|dffs[12] ; CLK20      ; CLK20    ; 20.000 ns                   ; 19.453 ns                 ; 1.873 ns                ;
; 17.581 ns ; Restricted to 233.64 MHz ( period = 4.28 ns ) ; AD_CS~reg0 ; lpm_ff:adata_ff|dffs[4]  ; CLK20      ; CLK20    ; 20.000 ns                   ; 19.453 ns                 ; 1.872 ns                ;
; 17.581 ns ; Restricted to 233.64 MHz ( period = 4.28 ns ) ; AD_CS~reg0 ; lpm_ff:adata_ff|dffs[8]  ; CLK20      ; CLK20    ; 20.000 ns                   ; 19.453 ns                 ; 1.872 ns                ;
; 17.584 ns ; Restricted to 233.64 MHz ( period = 4.28 ns ) ; AD_CS~reg0 ; lpm_ff:adata_ff|dffs[7]  ; CLK20      ; CLK20    ; 20.000 ns                   ; 19.453 ns                 ; 1.869 ns                ;
; 17.587 ns ; Restricted to 233.64 MHz ( period = 4.28 ns ) ; AD_CS~reg0 ; lpm_ff:adata_ff|dffs[3]  ; CLK20      ; CLK20    ; 20.000 ns                   ; 19.453 ns                 ; 1.866 ns                ;
; 17.898 ns ; Restricted to 233.64 MHz ( period = 4.28 ns ) ; iADATA[14] ; iADATA[15]               ; CLK20      ; CLK20    ; 20.000 ns                   ; 19.453 ns                 ; 1.555 ns                ;
; 17.905 ns ; Restricted to 233.64 MHz ( period = 4.28 ns ) ; iADATA[14] ; lpm_ff:adata_ff|dffs[13] ; CLK20      ; CLK20    ; 20.000 ns                   ; 19.453 ns                 ; 1.548 ns                ;
; 17.936 ns ; Restricted to 233.64 MHz ( period = 4.28 ns ) ; iADATA[10] ; lpm_ff:adata_ff|dffs[9]  ; CLK20      ; CLK20    ; 20.000 ns                   ; 19.453 ns                 ; 1.517 ns                ;
; 18.009 ns ; Restricted to 233.64 MHz ( period = 4.28 ns ) ; AD_CS~reg0 ; AD_CLK~reg0              ; CLK20      ; CLK20    ; 20.000 ns                   ; 19.453 ns                 ; 1.444 ns                ;
; 18.065 ns ; Restricted to 233.64 MHz ( period = 4.28 ns ) ; iADATA[3]  ; iADATA[4]                ; CLK20      ; CLK20    ; 20.000 ns                   ; 19.453 ns                 ; 1.388 ns                ;
; 18.181 ns ; Restricted to 233.64 MHz ( period = 4.28 ns ) ; clk_cnt[0] ; clk_cnt[1]               ; CLK20      ; CLK20    ; 20.000 ns                   ; 19.453 ns                 ; 1.272 ns                ;
; 18.273 ns ; Restricted to 233.64 MHz ( period = 4.28 ns ) ; iADATA[4]  ; lpm_ff:adata_ff|dffs[3]  ; CLK20      ; CLK20    ; 20.000 ns                   ; 19.453 ns                 ; 1.180 ns                ;
; 18.273 ns ; Restricted to 233.64 MHz ( period = 4.28 ns ) ; iADATA[5]  ; lpm_ff:adata_ff|dffs[4]  ; CLK20      ; CLK20    ; 20.000 ns                   ; 19.453 ns                 ; 1.180 ns                ;
; 18.273 ns ; Restricted to 233.64 MHz ( period = 4.28 ns ) ; iADATA[9]  ; lpm_ff:adata_ff|dffs[8]  ; CLK20      ; CLK20    ; 20.000 ns                   ; 19.453 ns                 ; 1.180 ns                ;
; 18.279 ns ; Restricted to 233.64 MHz ( period = 4.28 ns ) ; iADATA[6]  ; iADATA[7]                ; CLK20      ; CLK20    ; 20.000 ns                   ; 19.453 ns                 ; 1.174 ns                ;
; 18.279 ns ; Restricted to 233.64 MHz ( period = 4.28 ns ) ; iADATA[13] ; lpm_ff:adata_ff|dffs[12] ; CLK20      ; CLK20    ; 20.000 ns                   ; 19.453 ns                 ; 1.174 ns                ;
; 18.297 ns ; Restricted to 233.64 MHz ( period = 4.28 ns ) ; iADATA[2]  ; lpm_ff:adata_ff|dffs[1]  ; CLK20      ; CLK20    ; 20.000 ns                   ; 19.453 ns                 ; 1.156 ns                ;
; 18.303 ns ; Restricted to 233.64 MHz ( period = 4.28 ns ) ; iADATA[1]  ; lpm_ff:adata_ff|dffs[0]  ; CLK20      ; CLK20    ; 20.000 ns                   ; 19.453 ns                 ; 1.150 ns                ;
; 18.303 ns ; Restricted to 233.64 MHz ( period = 4.28 ns ) ; iADATA[12] ; lpm_ff:adata_ff|dffs[11] ; CLK20      ; CLK20    ; 20.000 ns                   ; 19.453 ns                 ; 1.150 ns                ;
; 18.306 ns ; Restricted to 233.64 MHz ( period = 4.28 ns ) ; iADATA[3]  ; lpm_ff:adata_ff|dffs[2]  ; CLK20      ; CLK20    ; 20.000 ns                   ; 19.453 ns                 ; 1.147 ns                ;
; 18.312 ns ; Restricted to 233.64 MHz ( period = 4.28 ns ) ; iADATA[10] ; iADATA[11]               ; CLK20      ; CLK20    ; 20.000 ns                   ; 19.453 ns                 ; 1.141 ns                ;
; 18.807 ns ; Restricted to 233.64 MHz ( period = 4.28 ns ) ; clk_cnt[0] ; clk_cnt[0]               ; CLK20      ; CLK20    ; 20.000 ns                   ; 19.453 ns                 ; 0.646 ns                ;
; 18.816 ns ; Restricted to 233.64 MHz ( period = 4.28 ns ) ; clk_cnt[1] ; clk_cnt[1]               ; CLK20      ; CLK20    ; 20.000 ns                   ; 19.453 ns                 ; 0.637 ns                ;
; 18.816 ns ; Restricted to 233.64 MHz ( period = 4.28 ns ) ; iADATA[4]  ; iADATA[5]                ; CLK20      ; CLK20    ; 20.000 ns                   ; 19.453 ns                 ; 0.637 ns                ;
; 18.816 ns ; Restricted to 233.64 MHz ( period = 4.28 ns ) ; iADATA[5]  ; iADATA[6]                ; CLK20      ; CLK20    ; 20.000 ns                   ; 19.453 ns                 ; 0.637 ns                ;
; 18.816 ns ; Restricted to 233.64 MHz ( period = 4.28 ns ) ; iADATA[9]  ; iADATA[10]               ; CLK20      ; CLK20    ; 20.000 ns                   ; 19.453 ns                 ; 0.637 ns                ;
; 18.822 ns ; Restricted to 233.64 MHz ( period = 4.28 ns ) ; iADATA[6]  ; lpm_ff:adata_ff|dffs[5]  ; CLK20      ; CLK20    ; 20.000 ns                   ; 19.453 ns                 ; 0.631 ns                ;
; 18.822 ns ; Restricted to 233.64 MHz ( period = 4.28 ns ) ; iADATA[11] ; lpm_ff:adata_ff|dffs[10] ; CLK20      ; CLK20    ; 20.000 ns                   ; 19.453 ns                 ; 0.631 ns                ;
; 18.822 ns ; Restricted to 233.64 MHz ( period = 4.28 ns ) ; iADATA[11] ; iADATA[12]               ; CLK20      ; CLK20    ; 20.000 ns                   ; 19.453 ns                 ; 0.631 ns                ;
; 18.822 ns ; Restricted to 233.64 MHz ( period = 4.28 ns ) ; iADATA[13] ; iADATA[14]               ; CLK20      ; CLK20    ; 20.000 ns                   ; 19.453 ns                 ; 0.631 ns                ;
; 18.825 ns ; Restricted to 233.64 MHz ( period = 4.28 ns ) ; iADATA[0]  ; iADATA[1]                ; CLK20      ; CLK20    ; 20.000 ns                   ; 19.453 ns                 ; 0.628 ns                ;
; 18.825 ns ; Restricted to 233.64 MHz ( period = 4.28 ns ) ; Data       ; BIT_CNT[0]               ; CLK20      ; CLK20    ; 20.000 ns                   ; 19.453 ns                 ; 0.628 ns                ;
; 18.834 ns ; Restricted to 233.64 MHz ( period = 4.28 ns ) ; iADATA[8]  ; lpm_ff:adata_ff|dffs[7]  ; CLK20      ; CLK20    ; 20.000 ns                   ; 19.453 ns                 ; 0.619 ns                ;
; 18.834 ns ; Restricted to 233.64 MHz ( period = 4.28 ns ) ; iADATA[8]  ; iADATA[9]                ; CLK20      ; CLK20    ; 20.000 ns                   ; 19.453 ns                 ; 0.619 ns                ;
; 18.840 ns ; Restricted to 233.64 MHz ( period = 4.28 ns ) ; iADATA[2]  ; iADATA[3]                ; CLK20      ; CLK20    ; 20.000 ns                   ; 19.453 ns                 ; 0.613 ns                ;
; 18.840 ns ; Restricted to 233.64 MHz ( period = 4.28 ns ) ; iADATA[7]  ; lpm_ff:adata_ff|dffs[6]  ; CLK20      ; CLK20    ; 20.000 ns                   ; 19.453 ns                 ; 0.613 ns                ;
; 18.840 ns ; Restricted to 233.64 MHz ( period = 4.28 ns ) ; iADATA[7]  ; iADATA[8]                ; CLK20      ; CLK20    ; 20.000 ns                   ; 19.453 ns                 ; 0.613 ns                ;
; 18.846 ns ; Restricted to 233.64 MHz ( period = 4.28 ns ) ; iADATA[1]  ; iADATA[2]                ; CLK20      ; CLK20    ; 20.000 ns                   ; 19.453 ns                 ; 0.607 ns                ;
; 18.846 ns ; Restricted to 233.64 MHz ( period = 4.28 ns ) ; iADATA[12] ; iADATA[13]               ; CLK20      ; CLK20    ; 20.000 ns                   ; 19.453 ns                 ; 0.607 ns                ;
; 18.846 ns ; Restricted to 233.64 MHz ( period = 4.28 ns ) ; iADATA[15] ; lpm_ff:adata_ff|dffs[14] ; CLK20      ; CLK20    ; 20.000 ns                   ; 19.453 ns                 ; 0.607 ns                ;
; 18.846 ns ; Restricted to 233.64 MHz ( period = 4.28 ns ) ; iADATA[15] ; iADATA[16]               ; CLK20      ; CLK20    ; 20.000 ns                   ; 19.453 ns                 ; 0.607 ns                ;
; 18.861 ns ; Restricted to 233.64 MHz ( period = 4.28 ns ) ; iADATA[16] ; lpm_ff:adata_ff|dffs[15] ; CLK20      ; CLK20    ; 20.000 ns                   ; 19.453 ns                 ; 0.592 ns                ;
+-----------+-----------------------------------------------+------------+--------------------------+------------+----------+-----------------------------+---------------------------+-------------------------+


+--------------------------------------------------------------------------------------------------------------------------------------------------------------------+
; Clock Hold: 'CLK20'                                                                                                                                                ;
+---------------+------------+--------------------------+------------+----------+----------------------------+----------------------------+--------------------------+
; Minimum Slack ; From       ; To                       ; From Clock ; To Clock ; Required Hold Relationship ; Required Shortest P2P Time ; Actual Shortest P2P Time ;
+---------------+------------+--------------------------+------------+----------+----------------------------+----------------------------+--------------------------+
; 0.644 ns      ; iADATA[16] ; lpm_ff:adata_ff|dffs[15] ; CLK20      ; CLK20    ; 0.000 ns                   ; -0.052 ns                  ; 0.592 ns                 ;
; 0.659 ns      ; iADATA[1]  ; iADATA[2]                ; CLK20      ; CLK20    ; 0.000 ns                   ; -0.052 ns                  ; 0.607 ns                 ;
; 0.659 ns      ; iADATA[12] ; iADATA[13]               ; CLK20      ; CLK20    ; 0.000 ns                   ; -0.052 ns                  ; 0.607 ns                 ;
; 0.659 ns      ; iADATA[15] ; lpm_ff:adata_ff|dffs[14] ; CLK20      ; CLK20    ; 0.000 ns                   ; -0.052 ns                  ; 0.607 ns                 ;
; 0.659 ns      ; iADATA[15] ; iADATA[16]               ; CLK20      ; CLK20    ; 0.000 ns                   ; -0.052 ns                  ; 0.607 ns                 ;
; 0.665 ns      ; iADATA[2]  ; iADATA[3]                ; CLK20      ; CLK20    ; 0.000 ns                   ; -0.052 ns                  ; 0.613 ns                 ;
; 0.665 ns      ; iADATA[7]  ; lpm_ff:adata_ff|dffs[6]  ; CLK20      ; CLK20    ; 0.000 ns                   ; -0.052 ns                  ; 0.613 ns                 ;
; 0.665 ns      ; iADATA[7]  ; iADATA[8]                ; CLK20      ; CLK20    ; 0.000 ns                   ; -0.052 ns                  ; 0.613 ns                 ;
; 0.671 ns      ; iADATA[8]  ; lpm_ff:adata_ff|dffs[7]  ; CLK20      ; CLK20    ; 0.000 ns                   ; -0.052 ns                  ; 0.619 ns                 ;
; 0.671 ns      ; iADATA[8]  ; iADATA[9]                ; CLK20      ; CLK20    ; 0.000 ns                   ; -0.052 ns                  ; 0.619 ns                 ;
; 0.680 ns      ; iADATA[0]  ; iADATA[1]                ; CLK20      ; CLK20    ; 0.000 ns                   ; -0.052 ns                  ; 0.628 ns                 ;
; 0.680 ns      ; Data       ; BIT_CNT[0]               ; CLK20      ; CLK20    ; 0.000 ns                   ; -0.052 ns                  ; 0.628 ns                 ;
; 0.683 ns      ; iADATA[6]  ; lpm_ff:adata_ff|dffs[5]  ; CLK20      ; CLK20    ; 0.000 ns                   ; -0.052 ns                  ; 0.631 ns                 ;
; 0.683 ns      ; iADATA[11] ; lpm_ff:adata_ff|dffs[10] ; CLK20      ; CLK20    ; 0.000 ns                   ; -0.052 ns                  ; 0.631 ns                 ;
; 0.683 ns      ; iADATA[11] ; iADATA[12]               ; CLK20      ; CLK20    ; 0.000 ns                   ; -0.052 ns                  ; 0.631 ns                 ;
; 0.683 ns      ; iADATA[13] ; iADATA[14]               ; CLK20      ; CLK20    ; 0.000 ns                   ; -0.052 ns                  ; 0.631 ns                 ;
; 0.689 ns      ; clk_cnt[1] ; clk_cnt[1]               ; CLK20      ; CLK20    ; 0.000 ns                   ; -0.052 ns                  ; 0.637 ns                 ;
; 0.689 ns      ; iADATA[4]  ; iADATA[5]                ; CLK20      ; CLK20    ; 0.000 ns                   ; -0.052 ns                  ; 0.637 ns                 ;
; 0.689 ns      ; iADATA[5]  ; iADATA[6]                ; CLK20      ; CLK20    ; 0.000 ns                   ; -0.052 ns                  ; 0.637 ns                 ;
; 0.689 ns      ; iADATA[9]  ; iADATA[10]               ; CLK20      ; CLK20    ; 0.000 ns                   ; -0.052 ns                  ; 0.637 ns                 ;
; 0.698 ns      ; clk_cnt[0] ; clk_cnt[0]               ; CLK20      ; CLK20    ; 0.000 ns                   ; -0.052 ns                  ; 0.646 ns                 ;
; 1.193 ns      ; iADATA[10] ; iADATA[11]               ; CLK20      ; CLK20    ; 0.000 ns                   ; -0.052 ns                  ; 1.141 ns                 ;
; 1.199 ns      ; iADATA[3]  ; lpm_ff:adata_ff|dffs[2]  ; CLK20      ; CLK20    ; 0.000 ns                   ; -0.052 ns                  ; 1.147 ns                 ;
; 1.202 ns      ; iADATA[1]  ; lpm_ff:adata_ff|dffs[0]  ; CLK20      ; CLK20    ; 0.000 ns                   ; -0.052 ns                  ; 1.150 ns                 ;
; 1.202 ns      ; iADATA[12] ; lpm_ff:adata_ff|dffs[11] ; CLK20      ; CLK20    ; 0.000 ns                   ; -0.052 ns                  ; 1.150 ns                 ;
; 1.208 ns      ; iADATA[2]  ; lpm_ff:adata_ff|dffs[1]  ; CLK20      ; CLK20    ; 0.000 ns                   ; -0.052 ns                  ; 1.156 ns                 ;
; 1.226 ns      ; iADATA[6]  ; iADATA[7]                ; CLK20      ; CLK20    ; 0.000 ns                   ; -0.052 ns                  ; 1.174 ns                 ;
; 1.226 ns      ; iADATA[13] ; lpm_ff:adata_ff|dffs[12] ; CLK20      ; CLK20    ; 0.000 ns                   ; -0.052 ns                  ; 1.174 ns                 ;
; 1.232 ns      ; iADATA[4]  ; lpm_ff:adata_ff|dffs[3]  ; CLK20      ; CLK20    ; 0.000 ns                   ; -0.052 ns                  ; 1.180 ns                 ;
; 1.232 ns      ; iADATA[5]  ; lpm_ff:adata_ff|dffs[4]  ; CLK20      ; CLK20    ; 0.000 ns                   ; -0.052 ns                  ; 1.180 ns                 ;
; 1.232 ns      ; iADATA[9]  ; lpm_ff:adata_ff|dffs[8]  ; CLK20      ; CLK20    ; 0.000 ns                   ; -0.052 ns                  ; 1.180 ns                 ;
; 1.324 ns      ; clk_cnt[0] ; clk_cnt[1]               ; CLK20      ; CLK20    ; 0.000 ns                   ; -0.052 ns                  ; 1.272 ns                 ;
; 1.440 ns      ; iADATA[3]  ; iADATA[4]                ; CLK20      ; CLK20    ; 0.000 ns                   ; -0.052 ns                  ; 1.388 ns                 ;
; 1.496 ns      ; AD_CS~reg0 ; AD_CLK~reg0              ; CLK20      ; CLK20    ; 0.000 ns                   ; -0.052 ns                  ; 1.444 ns                 ;
; 1.569 ns      ; iADATA[10] ; lpm_ff:adata_ff|dffs[9]  ; CLK20      ; CLK20    ; 0.000 ns                   ; -0.052 ns                  ; 1.517 ns                 ;
; 1.600 ns      ; iADATA[14] ; lpm_ff:adata_ff|dffs[13] ; CLK20      ; CLK20    ; 0.000 ns                   ; -0.052 ns                  ; 1.548 ns                 ;
; 1.607 ns      ; iADATA[14] ; iADATA[15]               ; CLK20      ; CLK20    ; 0.000 ns                   ; -0.052 ns                  ; 1.555 ns                 ;
; 1.918 ns      ; AD_CS~reg0 ; lpm_ff:adata_ff|dffs[3]  ; CLK20      ; CLK20    ; 0.000 ns                   ; -0.052 ns                  ; 1.866 ns                 ;
; 1.921 ns      ; AD_CS~reg0 ; lpm_ff:adata_ff|dffs[7]  ; CLK20      ; CLK20    ; 0.000 ns                   ; -0.052 ns                  ; 1.869 ns                 ;
; 1.924 ns      ; AD_CS~reg0 ; lpm_ff:adata_ff|dffs[4]  ; CLK20      ; CLK20    ; 0.000 ns                   ; -0.052 ns                  ; 1.872 ns                 ;
; 1.924 ns      ; AD_CS~reg0 ; lpm_ff:adata_ff|dffs[8]  ; CLK20      ; CLK20    ; 0.000 ns                   ; -0.052 ns                  ; 1.872 ns                 ;
; 1.925 ns      ; AD_CS~reg0 ; lpm_ff:adata_ff|dffs[12] ; CLK20      ; CLK20    ; 0.000 ns                   ; -0.052 ns                  ; 1.873 ns                 ;
; 1.926 ns      ; AD_CS~reg0 ; lpm_ff:adata_ff|dffs[6]  ; CLK20      ; CLK20    ; 0.000 ns                   ; -0.052 ns                  ; 1.874 ns                 ;
; 1.926 ns      ; AD_CS~reg0 ; lpm_ff:adata_ff|dffs[11] ; CLK20      ; CLK20    ; 0.000 ns                   ; -0.052 ns                  ; 1.874 ns                 ;
; 1.938 ns      ; AD_CS~reg0 ; lpm_ff:adata_ff|dffs[10] ; CLK20      ; CLK20    ; 0.000 ns                   ; -0.052 ns                  ; 1.886 ns                 ;
; 1.947 ns      ; AD_CS~reg0 ; lpm_ff:adata_ff|dffs[5]  ; CLK20      ; CLK20    ; 0.000 ns                   ; -0.052 ns                  ; 1.895 ns                 ;
; 1.972 ns      ; AD_CS~reg0 ; lpm_ff:adata_ff|dffs[13] ; CLK20      ; CLK20    ; 0.000 ns                   ; -0.052 ns                  ; 1.920 ns                 ;
; 1.975 ns      ; AD_CS~reg0 ; lpm_ff:adata_ff|dffs[0]  ; CLK20      ; CLK20    ; 0.000 ns                   ; -0.052 ns                  ; 1.923 ns                 ;
; 1.978 ns      ; AD_CS~reg0 ; lpm_ff:adata_ff|dffs[15] ; CLK20      ; CLK20    ; 0.000 ns                   ; -0.052 ns                  ; 1.926 ns                 ;
; 1.979 ns      ; AD_CS~reg0 ; lpm_ff:adata_ff|dffs[2]  ; CLK20      ; CLK20    ; 0.000 ns                   ; -0.052 ns                  ; 1.927 ns                 ;
; 1.980 ns      ; AD_CS~reg0 ; lpm_ff:adata_ff|dffs[9]  ; CLK20      ; CLK20    ; 0.000 ns                   ; -0.052 ns                  ; 1.928 ns                 ;
; 1.980 ns      ; AD_CS~reg0 ; lpm_ff:adata_ff|dffs[14] ; CLK20      ; CLK20    ; 0.000 ns                   ; -0.052 ns                  ; 1.928 ns                 ;
; 1.981 ns      ; AD_CS~reg0 ; lpm_ff:adata_ff|dffs[1]  ; CLK20      ; CLK20    ; 0.000 ns                   ; -0.052 ns                  ; 1.929 ns                 ;
; 1.982 ns      ; BIT_CNT[1] ; BIT_CNT[1]               ; CLK20      ; CLK20    ; 0.000 ns                   ; -0.052 ns                  ; 1.930 ns                 ;
; 1.983 ns      ; BIT_CNT[2] ; BIT_CNT[2]               ; CLK20      ; CLK20    ; 0.000 ns                   ; -0.052 ns                  ; 1.931 ns                 ;
; 1.994 ns      ; Data       ; BIT_CNT[4]               ; CLK20      ; CLK20    ; 0.000 ns                   ; -0.052 ns                  ; 1.942 ns                 ;
; 1.999 ns      ; clk_cnt[1] ; AD_CLK~reg0              ; CLK20      ; CLK20    ; 0.000 ns                   ; -0.052 ns                  ; 1.947 ns                 ;
; 2.000 ns      ; Data       ; BIT_CNT[3]               ; CLK20      ; CLK20    ; 0.000 ns                   ; -0.052 ns                  ; 1.948 ns                 ;
; 2.006 ns      ; Data       ; BIT_CNT[1]               ; CLK20      ; CLK20    ; 0.000 ns                   ; -0.052 ns                  ; 1.954 ns                 ;
; 2.018 ns      ; Data       ; BIT_CNT[2]               ; CLK20      ; CLK20    ; 0.000 ns                   ; -0.052 ns                  ; 1.966 ns                 ;
; 2.021 ns      ; BIT_CNT[4] ; BIT_CNT[4]               ; CLK20      ; CLK20    ; 0.000 ns                   ; -0.052 ns                  ; 1.969 ns                 ;
; 2.029 ns      ; AD_CS~reg0 ; clk_cnt[0]               ; CLK20      ; CLK20    ; 0.000 ns                   ; -0.052 ns                  ; 1.977 ns                 ;
; 2.035 ns      ; AD_CS~reg0 ; clk_cnt[1]               ; CLK20      ; CLK20    ; 0.000 ns                   ; -0.052 ns                  ; 1.983 ns                 ;
; 2.042 ns      ; Sample     ; Data                     ; CLK20      ; CLK20    ; 0.000 ns                   ; -0.052 ns                  ; 1.990 ns                 ;
; 2.047 ns      ; Sample     ; Sample                   ; CLK20      ; CLK20    ; 0.000 ns                   ; -0.052 ns                  ; 1.995 ns                 ;
; 2.086 ns      ; clk_cnt[0] ; AD_CLK~reg0              ; CLK20      ; CLK20    ; 0.000 ns                   ; -0.052 ns                  ; 2.034 ns                 ;
; 2.134 ns      ; AD_CS~reg0 ; AD_CS~reg0               ; CLK20      ; CLK20    ; 0.000 ns                   ; -0.052 ns                  ; 2.082 ns                 ;
; 2.436 ns      ; BIT_CNT[0] ; AD_CS~reg0               ; CLK20      ; CLK20    ; 0.000 ns                   ; -0.052 ns                  ; 2.384 ns                 ;
; 2.528 ns      ; Data       ; Data                     ; CLK20      ; CLK20    ; 0.000 ns                   ; -0.052 ns                  ; 2.476 ns                 ;
; 2.531 ns      ; BIT_CNT[0] ; BIT_CNT[0]               ; CLK20      ; CLK20    ; 0.000 ns                   ; -0.052 ns                  ; 2.479 ns                 ;
; 2.533 ns      ; BIT_CNT[0] ; BIT_CNT[1]               ; CLK20      ; CLK20    ; 0.000 ns                   ; -0.052 ns                  ; 2.481 ns                 ;
; 2.551 ns      ; BIT_CNT[1] ; BIT_CNT[2]               ; CLK20      ; CLK20    ; 0.000 ns                   ; -0.052 ns                  ; 2.499 ns                 ;
; 2.565 ns      ; BIT_CNT[4] ; AD_CS~reg0               ; CLK20      ; CLK20    ; 0.000 ns                   ; -0.052 ns                  ; 2.513 ns                 ;
; 2.635 ns      ; clk_cnt[1] ; iADATA[15]               ; CLK20      ; CLK20    ; 0.000 ns                   ; -0.052 ns                  ; 2.583 ns                 ;
; 2.636 ns      ; clk_cnt[1] ; iADATA[7]                ; CLK20      ; CLK20    ; 0.000 ns                   ; -0.052 ns                  ; 2.584 ns                 ;
; 2.638 ns      ; clk_cnt[1] ; iADATA[8]                ; CLK20      ; CLK20    ; 0.000 ns                   ; -0.052 ns                  ; 2.586 ns                 ;
; 2.638 ns      ; BIT_CNT[3] ; BIT_CNT[3]               ; CLK20      ; CLK20    ; 0.000 ns                   ; -0.052 ns                  ; 2.586 ns                 ;
; 2.638 ns      ; clk_cnt[1] ; iADATA[0]                ; CLK20      ; CLK20    ; 0.000 ns                   ; -0.052 ns                  ; 2.586 ns                 ;
; 2.639 ns      ; clk_cnt[1] ; iADATA[9]                ; CLK20      ; CLK20    ; 0.000 ns                   ; -0.052 ns                  ; 2.587 ns                 ;
; 2.640 ns      ; clk_cnt[1] ; iADATA[1]                ; CLK20      ; CLK20    ; 0.000 ns                   ; -0.052 ns                  ; 2.588 ns                 ;
; 2.640 ns      ; clk_cnt[1] ; iADATA[2]                ; CLK20      ; CLK20    ; 0.000 ns                   ; -0.052 ns                  ; 2.588 ns                 ;
; 2.641 ns      ; clk_cnt[1] ; iADATA[3]                ; CLK20      ; CLK20    ; 0.000 ns                   ; -0.052 ns                  ; 2.589 ns                 ;
; 2.641 ns      ; clk_cnt[1] ; iADATA[16]               ; CLK20      ; CLK20    ; 0.000 ns                   ; -0.052 ns                  ; 2.589 ns                 ;
; 2.643 ns      ; clk_cnt[1] ; iADATA[11]               ; CLK20      ; CLK20    ; 0.000 ns                   ; -0.052 ns                  ; 2.591 ns                 ;
; 2.645 ns      ; clk_cnt[1] ; iADATA[6]                ; CLK20      ; CLK20    ; 0.000 ns                   ; -0.052 ns                  ; 2.593 ns                 ;
; 2.646 ns      ; clk_cnt[1] ; iADATA[13]               ; CLK20      ; CLK20    ; 0.000 ns                   ; -0.052 ns                  ; 2.594 ns                 ;
; 2.646 ns      ; clk_cnt[1] ; iADATA[14]               ; CLK20      ; CLK20    ; 0.000 ns                   ; -0.052 ns                  ; 2.594 ns                 ;
; 2.647 ns      ; clk_cnt[1] ; iADATA[4]                ; CLK20      ; CLK20    ; 0.000 ns                   ; -0.052 ns                  ; 2.595 ns                 ;
; 2.647 ns      ; clk_cnt[1] ; iADATA[12]               ; CLK20      ; CLK20    ; 0.000 ns                   ; -0.052 ns                  ; 2.595 ns                 ;
; 2.648 ns      ; clk_cnt[1] ; iADATA[5]                ; CLK20      ; CLK20    ; 0.000 ns                   ; -0.052 ns                  ; 2.596 ns                 ;
; 2.648 ns      ; clk_cnt[1] ; iADATA[10]               ; CLK20      ; CLK20    ; 0.000 ns                   ; -0.052 ns                  ; 2.596 ns                 ;
; 2.672 ns      ; BIT_CNT[0] ; BIT_CNT[2]               ; CLK20      ; CLK20    ; 0.000 ns                   ; -0.052 ns                  ; 2.620 ns                 ;
; 2.783 ns      ; clk_cnt[1] ; AD_CS~reg0               ; CLK20      ; CLK20    ; 0.000 ns                   ; -0.052 ns                  ; 2.731 ns                 ;
; 3.115 ns      ; BIT_CNT[0] ; Data                     ; CLK20      ; CLK20    ; 0.000 ns                   ; -0.052 ns                  ; 3.063 ns                 ;
; 3.148 ns      ; clk_cnt[0] ; BIT_CNT[0]               ; CLK20      ; CLK20    ; 0.000 ns                   ; -0.052 ns                  ; 3.096 ns                 ;
; 3.154 ns      ; Data       ; iADATA[15]               ; CLK20      ; CLK20    ; 0.000 ns                   ; -0.052 ns                  ; 3.102 ns                 ;
; 3.155 ns      ; Data       ; iADATA[7]                ; CLK20      ; CLK20    ; 0.000 ns                   ; -0.052 ns                  ; 3.103 ns                 ;
; 3.157 ns      ; Data       ; iADATA[8]                ; CLK20      ; CLK20    ; 0.000 ns                   ; -0.052 ns                  ; 3.105 ns                 ;
; 3.157 ns      ; Data       ; iADATA[0]                ; CLK20      ; CLK20    ; 0.000 ns                   ; -0.052 ns                  ; 3.105 ns                 ;
; 3.158 ns      ; Data       ; iADATA[9]                ; CLK20      ; CLK20    ; 0.000 ns                   ; -0.052 ns                  ; 3.106 ns                 ;
; 3.159 ns      ; Data       ; iADATA[1]                ; CLK20      ; CLK20    ; 0.000 ns                   ; -0.052 ns                  ; 3.107 ns                 ;
; 3.159 ns      ; Data       ; iADATA[2]                ; CLK20      ; CLK20    ; 0.000 ns                   ; -0.052 ns                  ; 3.107 ns                 ;
; 3.160 ns      ; Data       ; iADATA[3]                ; CLK20      ; CLK20    ; 0.000 ns                   ; -0.052 ns                  ; 3.108 ns                 ;
; 3.160 ns      ; Data       ; iADATA[16]               ; CLK20      ; CLK20    ; 0.000 ns                   ; -0.052 ns                  ; 3.108 ns                 ;
; 3.162 ns      ; Data       ; iADATA[11]               ; CLK20      ; CLK20    ; 0.000 ns                   ; -0.052 ns                  ; 3.110 ns                 ;
; 3.164 ns      ; Data       ; iADATA[6]                ; CLK20      ; CLK20    ; 0.000 ns                   ; -0.052 ns                  ; 3.112 ns                 ;
; 3.165 ns      ; Data       ; iADATA[13]               ; CLK20      ; CLK20    ; 0.000 ns                   ; -0.052 ns                  ; 3.113 ns                 ;
; 3.165 ns      ; Data       ; iADATA[14]               ; CLK20      ; CLK20    ; 0.000 ns                   ; -0.052 ns                  ; 3.113 ns                 ;
; 3.166 ns      ; Data       ; iADATA[4]                ; CLK20      ; CLK20    ; 0.000 ns                   ; -0.052 ns                  ; 3.114 ns                 ;
; 3.166 ns      ; Data       ; iADATA[12]               ; CLK20      ; CLK20    ; 0.000 ns                   ; -0.052 ns                  ; 3.114 ns                 ;
; 3.167 ns      ; Data       ; iADATA[5]                ; CLK20      ; CLK20    ; 0.000 ns                   ; -0.052 ns                  ; 3.115 ns                 ;
; 3.167 ns      ; Data       ; iADATA[10]               ; CLK20      ; CLK20    ; 0.000 ns                   ; -0.052 ns                  ; 3.115 ns                 ;
; 3.207 ns      ; BIT_CNT[3] ; BIT_CNT[4]               ; CLK20      ; CLK20    ; 0.000 ns                   ; -0.052 ns                  ; 3.155 ns                 ;
; 3.212 ns      ; clk_cnt[1] ; Data                     ; CLK20      ; CLK20    ; 0.000 ns                   ; -0.052 ns                  ; 3.160 ns                 ;
; 3.224 ns      ; clk_cnt[1] ; BIT_CNT[0]               ; CLK20      ; CLK20    ; 0.000 ns                   ; -0.052 ns                  ; 3.172 ns                 ;
; 3.244 ns      ; BIT_CNT[4] ; Data                     ; CLK20      ; CLK20    ; 0.000 ns                   ; -0.052 ns                  ; 3.192 ns                 ;
; 3.270 ns      ; clk_cnt[0] ; iADATA[15]               ; CLK20      ; CLK20    ; 0.000 ns                   ; -0.052 ns                  ; 3.218 ns                 ;
; 3.271 ns      ; clk_cnt[0] ; iADATA[7]                ; CLK20      ; CLK20    ; 0.000 ns                   ; -0.052 ns                  ; 3.219 ns                 ;
; 3.273 ns      ; BIT_CNT[3] ; AD_CS~reg0               ; CLK20      ; CLK20    ; 0.000 ns                   ; -0.052 ns                  ; 3.221 ns                 ;
; 3.273 ns      ; clk_cnt[0] ; iADATA[8]                ; CLK20      ; CLK20    ; 0.000 ns                   ; -0.052 ns                  ; 3.221 ns                 ;
; 3.273 ns      ; clk_cnt[0] ; iADATA[0]                ; CLK20      ; CLK20    ; 0.000 ns                   ; -0.052 ns                  ; 3.221 ns                 ;
; 3.274 ns      ; clk_cnt[0] ; iADATA[9]                ; CLK20      ; CLK20    ; 0.000 ns                   ; -0.052 ns                  ; 3.222 ns                 ;
; 3.275 ns      ; clk_cnt[0] ; iADATA[1]                ; CLK20      ; CLK20    ; 0.000 ns                   ; -0.052 ns                  ; 3.223 ns                 ;
; 3.275 ns      ; clk_cnt[0] ; iADATA[2]                ; CLK20      ; CLK20    ; 0.000 ns                   ; -0.052 ns                  ; 3.223 ns                 ;
; 3.276 ns      ; clk_cnt[0] ; iADATA[3]                ; CLK20      ; CLK20    ; 0.000 ns                   ; -0.052 ns                  ; 3.224 ns                 ;
; 3.276 ns      ; clk_cnt[0] ; iADATA[16]               ; CLK20      ; CLK20    ; 0.000 ns                   ; -0.052 ns                  ; 3.224 ns                 ;
; 3.278 ns      ; clk_cnt[0] ; iADATA[11]               ; CLK20      ; CLK20    ; 0.000 ns                   ; -0.052 ns                  ; 3.226 ns                 ;
; 3.280 ns      ; clk_cnt[0] ; iADATA[6]                ; CLK20      ; CLK20    ; 0.000 ns                   ; -0.052 ns                  ; 3.228 ns                 ;
; 3.281 ns      ; clk_cnt[0] ; iADATA[13]               ; CLK20      ; CLK20    ; 0.000 ns                   ; -0.052 ns                  ; 3.229 ns                 ;
; 3.281 ns      ; clk_cnt[0] ; iADATA[14]               ; CLK20      ; CLK20    ; 0.000 ns                   ; -0.052 ns                  ; 3.229 ns                 ;
; 3.282 ns      ; clk_cnt[0] ; iADATA[4]                ; CLK20      ; CLK20    ; 0.000 ns                   ; -0.052 ns                  ; 3.230 ns                 ;
; 3.282 ns      ; clk_cnt[0] ; iADATA[12]               ; CLK20      ; CLK20    ; 0.000 ns                   ; -0.052 ns                  ; 3.230 ns                 ;
; 3.283 ns      ; clk_cnt[0] ; iADATA[5]                ; CLK20      ; CLK20    ; 0.000 ns                   ; -0.052 ns                  ; 3.231 ns                 ;
; 3.283 ns      ; clk_cnt[0] ; iADATA[10]               ; CLK20      ; CLK20    ; 0.000 ns                   ; -0.052 ns                  ; 3.231 ns                 ;
; 3.288 ns      ; clk_cnt[0] ; Data                     ; CLK20      ; CLK20    ; 0.000 ns                   ; -0.052 ns                  ; 3.236 ns                 ;
; 3.302 ns      ; Data       ; AD_CS~reg0               ; CLK20      ; CLK20    ; 0.000 ns                   ; -0.052 ns                  ; 3.250 ns                 ;
; 3.355 ns      ; BIT_CNT[1] ; BIT_CNT[3]               ; CLK20      ; CLK20    ; 0.000 ns                   ; -0.052 ns                  ; 3.303 ns                 ;
; 3.363 ns      ; clk_cnt[0] ; Sample                   ; CLK20      ; CLK20    ; 0.000 ns                   ; -0.052 ns                  ; 3.311 ns                 ;
; 3.393 ns      ; BIT_CNT[1] ; AD_CS~reg0               ; CLK20      ; CLK20    ; 0.000 ns                   ; -0.052 ns                  ; 3.341 ns                 ;
; 3.418 ns      ; clk_cnt[0] ; AD_CS~reg0               ; CLK20      ; CLK20    ; 0.000 ns                   ; -0.052 ns                  ; 3.366 ns                 ;
; 3.439 ns      ; clk_cnt[1] ; Sample                   ; CLK20      ; CLK20    ; 0.000 ns                   ; -0.052 ns                  ; 3.387 ns                 ;
; 3.476 ns      ; BIT_CNT[0] ; BIT_CNT[3]               ; CLK20      ; CLK20    ; 0.000 ns                   ; -0.052 ns                  ; 3.424 ns                 ;
; 3.494 ns      ; BIT_CNT[1] ; BIT_CNT[4]               ; CLK20      ; CLK20    ; 0.000 ns                   ; -0.052 ns                  ; 3.442 ns                 ;
; 3.615 ns      ; BIT_CNT[0] ; BIT_CNT[4]               ; CLK20      ; CLK20    ; 0.000 ns                   ; -0.052 ns                  ; 3.563 ns                 ;
; 3.746 ns      ; BIT_CNT[2] ; BIT_CNT[3]               ; CLK20      ; CLK20    ; 0.000 ns                   ; -0.052 ns                  ; 3.694 ns                 ;
; 3.845 ns      ; clk_cnt[0] ; BIT_CNT[4]               ; CLK20      ; CLK20    ; 0.000 ns                   ; -0.052 ns                  ; 3.793 ns                 ;
; 3.848 ns      ; clk_cnt[0] ; BIT_CNT[3]               ; CLK20      ; CLK20    ; 0.000 ns                   ; -0.052 ns                  ; 3.796 ns                 ;
; 3.850 ns      ; clk_cnt[0] ; BIT_CNT[1]               ; CLK20      ; CLK20    ; 0.000 ns                   ; -0.052 ns                  ; 3.798 ns                 ;
; 3.851 ns      ; clk_cnt[0] ; BIT_CNT[2]               ; CLK20      ; CLK20    ; 0.000 ns                   ; -0.052 ns                  ; 3.799 ns                 ;
; 3.885 ns      ; BIT_CNT[2] ; BIT_CNT[4]               ; CLK20      ; CLK20    ; 0.000 ns                   ; -0.052 ns                  ; 3.833 ns                 ;
; 3.909 ns      ; BIT_CNT[2] ; AD_CS~reg0               ; CLK20      ; CLK20    ; 0.000 ns                   ; -0.052 ns                  ; 3.857 ns                 ;
; 3.921 ns      ; clk_cnt[1] ; BIT_CNT[4]               ; CLK20      ; CLK20    ; 0.000 ns                   ; -0.052 ns                  ; 3.869 ns                 ;
; 3.924 ns      ; clk_cnt[1] ; BIT_CNT[3]               ; CLK20      ; CLK20    ; 0.000 ns                   ; -0.052 ns                  ; 3.872 ns                 ;
; 3.926 ns      ; clk_cnt[1] ; BIT_CNT[1]               ; CLK20      ; CLK20    ; 0.000 ns                   ; -0.052 ns                  ; 3.874 ns                 ;
; 3.927 ns      ; clk_cnt[1] ; BIT_CNT[2]               ; CLK20      ; CLK20    ; 0.000 ns                   ; -0.052 ns                  ; 3.875 ns                 ;
; 3.952 ns      ; BIT_CNT[3] ; Data                     ; CLK20      ; CLK20    ; 0.000 ns                   ; -0.052 ns                  ; 3.900 ns                 ;
; 4.072 ns      ; BIT_CNT[1] ; Data                     ; CLK20      ; CLK20    ; 0.000 ns                   ; -0.052 ns                  ; 4.020 ns                 ;
; 4.588 ns      ; BIT_CNT[2] ; Data                     ; CLK20      ; CLK20    ; 0.000 ns                   ; -0.052 ns                  ; 4.536 ns                 ;
+---------------+------------+--------------------------+------------+----------+----------------------------+----------------------------+--------------------------+


+-------------------------------------------------------------------------+
; tsu                                                                     ;
+----------+--------------+------------+----------+------------+----------+
; Slack    ; Required tsu ; Actual tsu ; From     ; To         ; To Clock ;
+----------+--------------+------------+----------+------------+----------+
; 6.974 ns ; 15.000 ns    ; 8.026 ns   ; AD_Dout  ; Sample     ; CLK20    ;
; 7.523 ns ; 15.000 ns    ; 7.477 ns   ; AD_Start ; AD_CS~reg0 ; CLK20    ;
; 7.524 ns ; 15.000 ns    ; 7.476 ns   ; AD_Start ; Sample     ; CLK20    ;
; 7.530 ns ; 15.000 ns    ; 7.470 ns   ; AD_Dout  ; Data       ; CLK20    ;
; 7.557 ns ; 15.000 ns    ; 7.443 ns   ; AD_Dout  ; iADATA[0]  ; CLK20    ;
+----------+--------------+------------+----------+------------+----------+


+------------------------------------------------------------------------------------------+
; tco                                                                                      ;
+----------+--------------+------------+--------------------------+-----------+------------+
; Slack    ; Required tco ; Actual tco ; From                     ; To        ; From Clock ;
+----------+--------------+------------+--------------------------+-----------+------------+
; 5.080 ns ; 15.000 ns    ; 9.920 ns   ; lpm_ff:adata_ff|dffs[11] ; ADATA[11] ; CLK20      ;
; 5.179 ns ; 15.000 ns    ; 9.821 ns   ; lpm_ff:adata_ff|dffs[15] ; ADATA[15] ; CLK20      ;
; 5.237 ns ; 15.000 ns    ; 9.763 ns   ; lpm_ff:adata_ff|dffs[9]  ; ADATA[9]  ; CLK20      ;
; 5.286 ns ; 15.000 ns    ; 9.714 ns   ; lpm_ff:adata_ff|dffs[2]  ; ADATA[2]  ; CLK20      ;
; 5.299 ns ; 15.000 ns    ; 9.701 ns   ; AD_CS~reg0               ; AD_CS     ; CLK20      ;
; 5.340 ns ; 15.000 ns    ; 9.660 ns   ; AD_CS~reg0               ; AD_BUSY   ; CLK20      ;
; 7.055 ns ; 15.000 ns    ; 7.945 ns   ; lpm_ff:adata_ff|dffs[8]  ; ADATA[8]  ; CLK20      ;
; 7.073 ns ; 15.000 ns    ; 7.927 ns   ; lpm_ff:adata_ff|dffs[12] ; ADATA[12] ; CLK20      ;
; 7.090 ns ; 15.000 ns    ; 7.910 ns   ; lpm_ff:adata_ff|dffs[4]  ; ADATA[4]  ; CLK20      ;
; 7.171 ns ; 15.000 ns    ; 7.829 ns   ; lpm_ff:adata_ff|dffs[7]  ; ADATA[7]  ; CLK20      ;
; 7.206 ns ; 15.000 ns    ; 7.794 ns   ; lpm_ff:adata_ff|dffs[0]  ; ADATA[0]  ; CLK20      ;
; 7.343 ns ; 15.000 ns    ; 7.657 ns   ; lpm_ff:adata_ff|dffs[1]  ; ADATA[1]  ; CLK20      ;
; 8.124 ns ; 15.000 ns    ; 6.876 ns   ; lpm_ff:adata_ff|dffs[6]  ; ADATA[6]  ; CLK20      ;
; 8.124 ns ; 15.000 ns    ; 6.876 ns   ; lpm_ff:adata_ff|dffs[13] ; ADATA[13] ; CLK20      ;
; 8.142 ns ; 15.000 ns    ; 6.858 ns   ; AD_CLK~reg0              ; AD_CLK    ; CLK20      ;
; 8.148 ns ; 15.000 ns    ; 6.852 ns   ; lpm_ff:adata_ff|dffs[3]  ; ADATA[3]  ; CLK20      ;
; 8.160 ns ; 15.000 ns    ; 6.840 ns   ; lpm_ff:adata_ff|dffs[14] ; ADATA[14] ; CLK20      ;
; 8.239 ns ; 15.000 ns    ; 6.761 ns   ; lpm_ff:adata_ff|dffs[5]  ; ADATA[5]  ; CLK20      ;
; 8.245 ns ; 15.000 ns    ; 6.755 ns   ; lpm_ff:adata_ff|dffs[10] ; ADATA[10] ; CLK20      ;
+----------+--------------+------------+--------------------------+-----------+------------+


+----------------------------------------------------------------------------+
; th                                                                         ;
+---------------+-------------+-----------+----------+------------+----------+
; Minimum Slack ; Required th ; Actual th ; From     ; To         ; To Clock ;
+---------------+-------------+-----------+----------+------------+----------+
; N/A           ; None        ; -6.948 ns ; AD_Dout  ; iADATA[0]  ; CLK20    ;
; N/A           ; None        ; -6.975 ns ; AD_Dout  ; Data       ; CLK20    ;
; N/A           ; None        ; -6.981 ns ; AD_Start ; Sample     ; CLK20    ;
; N/A           ; None        ; -6.982 ns ; AD_Start ; AD_CS~reg0 ; CLK20    ;
; N/A           ; None        ; -7.531 ns ; AD_Dout  ; Sample     ; CLK20    ;
+---------------+-------------+-----------+----------+------------+----------+


+-------------------------------------------------------------------------------------------------------+
; Minimum tco                                                                                           ;
+---------------+------------------+----------------+--------------------------+-----------+------------+
; Minimum Slack ; Required Min tco ; Actual Min tco ; From                     ; To        ; From Clock ;
+---------------+------------------+----------------+--------------------------+-----------+------------+
; N/A           ; None             ; 6.755 ns       ; lpm_ff:adata_ff|dffs[10] ; ADATA[10] ; CLK20      ;
; N/A           ; None             ; 6.761 ns       ; lpm_ff:adata_ff|dffs[5]  ; ADATA[5]  ; CLK20      ;
; N/A           ; None             ; 6.840 ns       ; lpm_ff:adata_ff|dffs[14] ; ADATA[14] ; CLK20      ;
; N/A           ; None             ; 6.852 ns       ; lpm_ff:adata_ff|dffs[3]  ; ADATA[3]  ; CLK20      ;
; N/A           ; None             ; 6.858 ns       ; AD_CLK~reg0              ; AD_CLK    ; CLK20      ;
; N/A           ; None             ; 6.876 ns       ; lpm_ff:adata_ff|dffs[6]  ; ADATA[6]  ; CLK20      ;
; N/A           ; None             ; 6.876 ns       ; lpm_ff:adata_ff|dffs[13] ; ADATA[13] ; CLK20      ;
; N/A           ; None             ; 7.657 ns       ; lpm_ff:adata_ff|dffs[1]  ; ADATA[1]  ; CLK20      ;
; N/A           ; None             ; 7.794 ns       ; lpm_ff:adata_ff|dffs[0]  ; ADATA[0]  ; CLK20      ;
; N/A           ; None             ; 7.829 ns       ; lpm_ff:adata_ff|dffs[7]  ; ADATA[7]  ; CLK20      ;
; N/A           ; None             ; 7.910 ns       ; lpm_ff:adata_ff|dffs[4]  ; ADATA[4]  ; CLK20      ;
; N/A           ; None             ; 7.927 ns       ; lpm_ff:adata_ff|dffs[12] ; ADATA[12] ; CLK20      ;
; N/A           ; None             ; 7.945 ns       ; lpm_ff:adata_ff|dffs[8]  ; ADATA[8]  ; CLK20      ;
; N/A           ; None             ; 9.660 ns       ; AD_CS~reg0               ; AD_BUSY   ; CLK20      ;
; N/A           ; None             ; 9.701 ns       ; AD_CS~reg0               ; AD_CS     ; CLK20      ;
; N/A           ; None             ; 9.714 ns       ; lpm_ff:adata_ff|dffs[2]  ; ADATA[2]  ; CLK20      ;
; N/A           ; None             ; 9.763 ns       ; lpm_ff:adata_ff|dffs[9]  ; ADATA[9]  ; CLK20      ;
; N/A           ; None             ; 9.821 ns       ; lpm_ff:adata_ff|dffs[15] ; ADATA[15] ; CLK20      ;
; N/A           ; None             ; 9.920 ns       ; lpm_ff:adata_ff|dffs[11] ; ADATA[11] ; CLK20      ;
+---------------+------------------+----------------+--------------------------+-----------+------------+


+--------------------------+
; Timing Analyzer Messages ;
+--------------------------+
Info: *******************************************************************
Info: Running Quartus II Timing Analyzer
    Info: Version 5.1 Build 216 03/06/2006 Service Pack 2 SJ Full Version
    Info: Processing started: Mon Mar 27 09:15:56 2006
Info: Command: quartus_tan --read_settings_files=off --write_settings_files=off ads8321 -c ads8321
Info: Started post-fitting delay annotation
Info: Delay annotation completed successfully
Warning: Found pins functioning as undefined clocks and/or memory enables
    Info: Assuming node "CLK20" is an undefined clock
Info: Slack time is 14.917 ns for clock "CLK20" between source register "BIT_CNT[2]" and destination register "Data"
    Info: Fmax is 196.73 MHz (period= 5.083 ns)
    Info: + Largest register to register requirement is 19.453 ns
        Info: + Setup relationship between source and destination is 20.000 ns
            Info: + Latch edge is 20.000 ns
                Info: Clock period of Destination clock "CLK20" is 20.000 ns with  offset of 0.000 ns and duty cycle of 50
                Info: Multicycle Setup factor for Destination register is 1
            Info: - Launch edge is 0.000 ns
                Info: Clock period of Source clock "CLK20" is 20.000 ns with  offset of 0.000 ns and duty cycle of 50
                Info: Multicycle Setup factor for Source register is 1
        Info: + Largest clock skew is 0.000 ns
            Info: + Shortest clock path from clock "CLK20" to destination register is 3.374 ns
                Info: 1: + IC(0.000 ns) + CELL(1.586 ns) = 1.586 ns; Loc. = PIN_154; Fanout = 44; CLK Node = 'CLK20'
                Info: 2: + IC(1.788 ns) + CELL(0.000 ns) = 3.374 ns; Loc. = LC1_4_A1; Fanout = 7; REG Node = 'Data'
                Info: Total cell delay = 1.586 ns ( 47.01 % )
                Info: Total interconnect delay = 1.788 ns ( 52.99 % )
            Info: - Longest clock path from clock "CLK20" to source register is 3.374 ns
                Info: 1: + IC(0.000 ns) + CELL(1.586 ns) = 1.586 ns; Loc. = PIN_154; Fanout = 44; CLK Node = 'CLK20'
                Info: 2: + IC(1.788 ns) + CELL(0.000 ns) = 3.374 ns; Loc. = LC10_3_A1; Fanout = 3; REG Node = 'BIT_CNT[2]'
                Info: Total cell delay = 1.586 ns ( 47.01 % )
                Info: Total interconnect delay = 1.788 ns ( 52.99 % )
        Info: - Micro clock to output delay of source is 0.384 ns
        Info: - Micro setup delay of destination is 0.163 ns
    Info: - Longest register to register delay is 4.536 ns
        Info: 1: + IC(0.000 ns) + CELL(0.194 ns) = 0.194 ns; Loc. = LC10_3_A1; Fanout = 3; REG Node = 'BIT_CNT[2]'
        Info: 2: + IC(0.264 ns) + CELL(0.958 ns) = 1.416 ns; Loc. = LC9_3_A1; Fanout = 1; COMB Node = 'AD_CS~76'
        Info: 3: + IC(1.037 ns) + CELL(0.430 ns) = 2.883 ns; Loc. = LC7_4_A1; Fanout = 2; COMB Node = 'AD_CS~77'
        Info: 4: + IC(0.270 ns) + CELL(0.430 ns) = 3.583 ns; Loc. = LC9_4_A1; Fanout = 1; COMB Node = 'Data~138'
        Info: 5: + IC(0.249 ns) + CELL(0.704 ns) = 4.536 ns; Loc. = LC1_4_A1; Fanout = 7; REG Node = 'Data'
        Info: Total cell delay = 2.716 ns ( 59.88 % )
        Info: Total interconnect delay = 1.820 ns ( 40.12 % )
Info: Minimum slack time is 644 ps for clock "CLK20" between source register "iADATA[16]" and destination register "lpm_ff:adata_ff|dffs[15]"
    Info: + Shortest register to register delay is 0.592 ns
        Info: 1: + IC(0.000 ns) + CELL(0.194 ns) = 0.194 ns; Loc. = LC9_6_A1; Fanout = 1; REG Node = 'iADATA[16]'
        Info: 2: + IC(0.237 ns) + CELL(0.161 ns) = 0.592 ns; Loc. = LC10_6_A1; Fanout = 1; REG Node = 'lpm_ff:adata_ff|dffs[15]'
        Info: Total cell delay = 0.355 ns ( 59.97 % )
        Info: Total interconnect delay = 0.237 ns ( 40.03 % )
    Info: - Smallest register to register requirement is -0.052 ns
        Info: + Hold relationship between source and destination is 0.000 ns
            Info: + Latch edge is 0.000 ns
                Info: Clock period of Destination clock "CLK20" is 20.000 ns with  offset of 0.000 ns and duty cycle of 50
                Info: Multicycle Setup factor for Destination register is 1
                Info: Multicycle Hold factor for Destination register is 1
            Info: - Launch edge is 0.000 ns
                Info: Clock period of Source clock "CLK20" is 20.000 ns with  offset of 0.000 ns and duty cycle of 50
                Info: Multicycle Setup factor for Source register is 1
                Info: Multicycle Hold factor for Source register is 1
        Info: + Smallest clock skew is 0.000 ns
            Info: + Longest clock path from clock "CLK20" to destination register is 3.374 ns
                Info: 1: + IC(0.000 ns) + CELL(1.586 ns) = 1.586 ns; Loc. = PIN_154; Fanout = 44; CLK Node = 'CLK20'
                Info: 2: + IC(1.788 ns) + CELL(0.000 ns) = 3.374 ns; Loc. = LC10_6_A1; Fanout = 1; REG Node = 'lpm_ff:adata_ff|dffs[15]'
                Info: Total cell delay = 1.586 ns ( 47.01 % )
                Info: Total interconnect delay = 1.788 ns ( 52.99 % )
            Info: - Shortest clock path from clock "CLK20" to source register is 3.374 ns
                Info: 1: + IC(0.000 ns) + CELL(1.586 ns) = 1.586 ns; Loc. = PIN_154; Fanout = 44; CLK Node = 'CLK20'
                Info: 2: + IC(1.788 ns) + CELL(0.000 ns) = 3.374 ns; Loc. = LC9_6_A1; Fanout = 1; REG Node = 'iADATA[16]'
                Info: Total cell delay = 1.586 ns ( 47.01 % )
                Info: Total interconnect delay = 1.788 ns ( 52.99 % )
        Info: - Micro clock to output delay of source is 0.384 ns
        Info: + Micro hold delay of destination is 0.332 ns
Info: Slack time is 6.974 ns for clock "CLK20" between source pin "AD_Dout" and destination register "Sample"
    Info: + tsu requirement for source pin and destination register is 15.000 ns
    Info: - tsu from clock to input pin is 8.026 ns
        Info: + Longest pin to register delay is 11.237 ns
            Info: 1: + IC(0.000 ns) + CELL(1.959 ns) = 1.959 ns; Loc. = PIN_2; Fanout = 3; PIN Node = 'AD_Dout'
            Info: 2: + IC(8.574 ns) + CELL(0.704 ns) = 11.237 ns; Loc. = LC9_5_A1; Fanout = 2; REG Node = 'Sample'
            Info: Total cell delay = 2.663 ns ( 23.70 % )
            Info: Total interconnect delay = 8.574 ns ( 76.30 % )
        Info: + Micro setup delay of destination is 0.163 ns
        Info: - Shortest clock path from clock "CLK20" to destination register is 3.374 ns
            Info: 1: + IC(0.000 ns) + CELL(1.586 ns) = 1.586 ns; Loc. = PIN_154; Fanout = 44; CLK Node = 'CLK20'
            Info: 2: + IC(1.788 ns) + CELL(0.000 ns) = 3.374 ns; Loc. = LC9_5_A1; Fanout = 2; REG Node = 'Sample'
            Info: Total cell delay = 1.586 ns ( 47.01 % )
            Info: Total interconnect delay = 1.788 ns ( 52.99 % )
Info: Slack time is 5.08 ns for clock "CLK20" between source register "lpm_ff:adata_ff|dffs[11]" and destination pin "ADATA[11]"
    Info: + tco requirement for source register and destination pin is 15.000 ns
    Info: - tco from clock to output pin is 9.920 ns
        Info: + Longest clock path from clock "CLK20" to source register is 3.374 ns
            Info: 1: + IC(0.000 ns) + CELL(1.586 ns) = 1.586 ns; Loc. = PIN_154; Fanout = 44; CLK Node = 'CLK20'
            Info: 2: + IC(1.788 ns) + CELL(0.000 ns) = 3.374 ns; Loc. = LC6_2_A1; Fanout = 1; REG Node = 'lpm_ff:adata_ff|dffs[11]'
            Info: Total cell delay = 1.586 ns ( 47.01 % )
            Info: Total interconnect delay = 1.788 ns ( 52.99 % )
        Info: + Micro clock to output delay of source is 0.384 ns
        Info: + Longest register to pin delay is 6.162 ns
            Info: 1: + IC(0.000 ns) + CELL(0.194 ns) = 0.194 ns; Loc. = LC6_2_A1; Fanout = 1; REG Node = 'lpm_ff:adata_ff|dffs[11]'
            Info: 2: + IC(3.317 ns) + CELL(2.651 ns) = 6.162 ns; Loc. = PIN_197; Fanout = 0; PIN Node = 'ADATA[11]'
            Info: Total cell delay = 2.845 ns ( 46.17 % )
            Info: Total interconnect delay = 3.317 ns ( 53.83 % )
Info: th for register "iADATA[0]" (data pin = "AD_Dout", clock pin = "CLK20") is -6.948 ns
    Info: + Longest clock path from clock "CLK20" to destination register is 3.374 ns
        Info: 1: + IC(0.000 ns) + CELL(1.586 ns) = 1.586 ns; Loc. = PIN_154; Fanout = 44; CLK Node = 'CLK20'
        Info: 2: + IC(1.788 ns) + CELL(0.000 ns) = 3.374 ns; Loc. = LC4_5_A1; Fanout = 1; REG Node = 'iADATA[0]'
        Info: Total cell delay = 1.586 ns ( 47.01 % )
        Info: Total interconnect delay = 1.788 ns ( 52.99 % )
    Info: + Micro hold delay of destination is 0.332 ns
    Info: - Shortest pin to register delay is 10.654 ns
        Info: 1: + IC(0.000 ns) + CELL(1.959 ns) = 1.959 ns; Loc. = PIN_2; Fanout = 3; PIN Node = 'AD_Dout'
        Info: 2: + IC(8.534 ns) + CELL(0.161 ns) = 10.654 ns; Loc. = LC4_5_A1; Fanout = 1; REG Node = 'iADATA[0]'
        Info: Total cell delay = 2.120 ns ( 19.90 % )
        Info: Total interconnect delay = 8.534 ns ( 80.10 % )
Info: Minimum tco from clock "CLK20" to destination pin "ADATA[10]" through register "lpm_ff:adata_ff|dffs[10]" is 6.755 ns
    Info: + Shortest clock path from clock "CLK20" to source register is 3.374 ns
        Info: 1: + IC(0.000 ns) + CELL(1.586 ns) = 1.586 ns; Loc. = PIN_154; Fanout = 44; CLK Node = 'CLK20'
        Info: 2: + IC(1.788 ns) + CELL(0.000 ns) = 3.374 ns; Loc. = LC1_1_A1; Fanout = 1; REG Node = 'lpm_ff:adata_ff|dffs[10]'
        Info: Total cell delay = 1.586 ns ( 47.01 % )
        Info: Total interconnect delay = 1.788 ns ( 52.99 % )
    Info: + Micro clock to output delay of source is 0.384 ns
    Info: + Shortest register to pin delay is 2.997 ns
        Info: 1: + IC(0.000 ns) + CELL(0.194 ns) = 0.194 ns; Loc. = LC1_1_A1; Fanout = 1; REG Node = 'lpm_ff:adata_ff|dffs[10]'
        Info: 2: + IC(0.237 ns) + CELL(2.566 ns) = 2.997 ns; Loc. = PIN_178; Fanout = 0; PIN Node = 'ADATA[10]'
        Info: Total cell delay = 2.760 ns ( 92.09 % )
        Info: Total interconnect delay = 0.237 ns ( 7.91 % )
Info: All timing requirements were met. See Report window for more details.
Info: Quartus II Timing Analyzer was successful. 0 errors, 1 warning
    Info: Processing ended: Mon Mar 27 09:15:59 2006
    Info: Elapsed time: 00:00:03


