Flow report for ltc1595
Mon Mar 27 11:59:39 2006
Version 5.1 Build 216 03/06/2006 Service Pack 2 SJ Full Version


---------------------
; Table of Contents ;
---------------------
  1. Legal Notice
  2. Flow Summary
  3. Flow Settings
  4. Flow Elapsed Time
  5. Flow Log



----------------
; Legal Notice ;
----------------
Copyright (C) 1991-2006 Altera Corporation
Your use of Altera Corporation's design tools, logic functions 
and other software and tools, and its AMPP partner logic 
functions, and any output files any of the foregoing 
(including device programming or simulation files), and any 
associated documentation or information are expressly subject 
to the terms and conditions of the Altera Program License 
Subscription Agreement, Altera MegaCore Function License 
Agreement, or other applicable license agreement, including, 
without limitation, that your use is for the sole purpose of 
programming logic devices manufactured by Altera and sold by 
Altera or its authorized distributors.  Please refer to the 
applicable agreement for further details.



+-------------------------------------------------------------------------+
; Flow Summary                                                            ;
+-------------------------+-----------------------------------------------+
; Flow Status             ; Successful - Mon Mar 27 11:59:39 2006         ;
; Quartus II Version      ; 5.1 Build 216 03/06/2006 SP 2 SJ Full Version ;
; Revision Name           ; ltc1595                                       ;
; Top-level Entity Name   ; ltc1595                                       ;
; Family                  ; APEX20KE                                      ;
; Device                  ; EP20K300EQC240-2X                             ;
; Timing Models           ; Final                                         ;
; Met timing requirements ; Yes                                           ;
; Total logic elements    ; 51 / 11,520 ( < 1 % )                         ;
; Total pins              ; 22 / 152 ( 14 % )                             ;
; Total virtual pins      ; 0                                             ;
; Total memory bits       ; 0 / 147,456 ( 0 % )                           ;
; Total PLLs              ; 0 / 4 ( 0 % )                                 ;
+-------------------------+-----------------------------------------------+


+-----------------------------------------+
; Flow Settings                           ;
+-------------------+---------------------+
; Option            ; Setting             ;
+-------------------+---------------------+
; Start date & time ; 03/27/2006 11:59:18 ;
; Main task         ; Compilation         ;
; Revision Name     ; ltc1595             ;
+-------------------+---------------------+


+-------------------------------------+
; Flow Elapsed Time                   ;
+----------------------+--------------+
; Module Name          ; Elapsed Time ;
+----------------------+--------------+
; Analysis & Synthesis ; 00:00:03     ;
; Fitter               ; 00:00:10     ;
; Assembler            ; 00:00:03     ;
; Timing Analyzer      ; 00:00:03     ;
; Total                ; 00:00:19     ;
+----------------------+--------------+


------------
; Flow Log ;
------------
quartus_map --read_settings_files=on --write_settings_files=off ltc1595 -c ltc1595
quartus_fit --read_settings_files=off --write_settings_files=off ltc1595 -c ltc1595
quartus_asm --read_settings_files=off --write_settings_files=off ltc1595 -c ltc1595
quartus_tan --read_settings_files=off --write_settings_files=off ltc1595 -c ltc1595



