Assembler report for ltc1595
Mon Mar 27 11:59:35 2006
Version 5.1 Build 216 03/06/2006 Service Pack 2 SJ Full Version


---------------------
; Table of Contents ;
---------------------
  1. Legal Notice
  2. Assembler Summary
  3. Assembler Settings
  4. Assembler Generated Files
  5. Assembler Device Options: H:/Projects/DPP-II/p19700-1/Software/ep99840/ltc1595/ltc1595.sof
  6. Assembler Device Options: H:/Projects/DPP-II/p19700-1/Software/ep99840/ltc1595/ltc1595.pof
  7. Assembler Device Options: H:/Projects/DPP-II/p19700-1/Software/ep99840/ltc1595/ltc1595_1.pof
  8. Assembler Messages



----------------
; Legal Notice ;
----------------
Copyright (C) 1991-2006 Altera Corporation
Your use of Altera Corporation's design tools, logic functions 
and other software and tools, and its AMPP partner logic 
functions, and any output files any of the foregoing 
(including device programming or simulation files), and any 
associated documentation or information are expressly subject 
to the terms and conditions of the Altera Program License 
Subscription Agreement, Altera MegaCore Function License 
Agreement, or other applicable license agreement, including, 
without limitation, that your use is for the sole purpose of 
programming logic devices manufactured by Altera and sold by 
Altera or its authorized distributors.  Please refer to the 
applicable agreement for further details.



+---------------------------------------------------------------+
; Assembler Summary                                             ;
+-----------------------+---------------------------------------+
; Assembler Status      ; Successful - Mon Mar 27 11:59:35 2006 ;
; Revision Name         ; ltc1595                               ;
; Top-level Entity Name ; ltc1595                               ;
; Family                ; APEX20KE                              ;
; Device                ; EP20K300EQC240-2X                     ;
+-----------------------+---------------------------------------+


+-----------------------------------------------------------------------------------------------------------+
; Assembler Settings                                                                                        ;
+--------------------------------------------------------------------------------+----------+---------------+
; Option                                                                         ; Setting  ; Default Value ;
+--------------------------------------------------------------------------------+----------+---------------+
; Auto-restart configuration after error                                         ; Off      ; On            ;
; Use smart compilation                                                          ; Off      ; Off           ;
; Generate Serial Vector Format File (.svf) for Target Device                    ; Off      ; Off           ;
; Generate a JEDEC STAPL Format File (.jam) for Target Device                    ; Off      ; Off           ;
; Generate an uncompressed Jam STAPL Byte Code 2.0 File (.jbc) for Target Device ; Off      ; Off           ;
; Generate a compressed Jam STAPL Byte Code 2.0 File (.jbc) for Target Device    ; On       ; On            ;
; Compression mode                                                               ; Off      ; Off           ;
; Clock source for configuration device                                          ; Internal ; Internal      ;
; Clock frequency of the configuration device                                    ; 10 MHZ   ; 10 MHz        ;
; Divide clock frequency by                                                      ; 1        ; 1             ;
; Low-voltage mode                                                               ; On       ; On            ;
; JTAG user code for target device                                               ; Ffffffff ; Ffffffff      ;
; Auto user code                                                                 ; Off      ; Off           ;
; Use configuration device                                                       ; On       ; On            ;
; Configuration device                                                           ; Auto     ; Auto          ;
; JTAG user code for configuration device                                        ; Ffffffff ; Ffffffff      ;
; Configuration device auto user code                                            ; Off      ; Off           ;
; Auto-increment JTAG user code for multiple configuration devices               ; On       ; On            ;
; Disable CONF_DONE and nSTATUS pull-ups on configuration device                 ; Off      ; Off           ;
; Generate Tabular Text File (.ttf) For Target Device                            ; Off      ; Off           ;
; Generate Raw Binary File (.rbf) For Target Device                              ; Off      ; Off           ;
; Generate Hexadecimal (Intel-Format) Output File (.hexout) for Target Device    ; Off      ; Off           ;
; Hexadecimal Output File start address                                          ; 0        ; 0             ;
; Hexadecimal Output File count direction                                        ; Up       ; Up            ;
; Release clears before tri-states                                               ; Off      ; Off           ;
+--------------------------------------------------------------------------------+----------+---------------+


+--------------------------------------------------------------------+
; Assembler Generated Files                                          ;
+--------------------------------------------------------------------+
; File Name                                                          ;
+--------------------------------------------------------------------+
; H:/Projects/DPP-II/p19700-1/Software/ep99840/ltc1595/ltc1595.sof   ;
; H:/Projects/DPP-II/p19700-1/Software/ep99840/ltc1595/ltc1595.pof   ;
; H:/Projects/DPP-II/p19700-1/Software/ep99840/ltc1595/ltc1595_1.pof ;
+--------------------------------------------------------------------+


+--------------------------------------------------------------------------------------------+
; Assembler Device Options: H:/Projects/DPP-II/p19700-1/Software/ep99840/ltc1595/ltc1595.sof ;
+----------------+---------------------------------------------------------------------------+
; Option         ; Setting                                                                   ;
+----------------+---------------------------------------------------------------------------+
; Device         ; EP20K300EQC240-2X                                                         ;
; JTAG usercode  ; 0xFFFFFFFF                                                                ;
; Checksum       ; 0x000247C1                                                                ;
+----------------+---------------------------------------------------------------------------+


+--------------------------------------------------------------------------------------------+
; Assembler Device Options: H:/Projects/DPP-II/p19700-1/Software/ep99840/ltc1595/ltc1595.pof ;
+----------------+---------------------------------------------------------------------------+
; Option         ; Setting                                                                   ;
+----------------+---------------------------------------------------------------------------+
; Device         ; EPC2                                                                      ;
; JTAG usercode  ; 0x00000000                                                                ;
; Checksum       ; 0x000E3F3B                                                                ;
+----------------+---------------------------------------------------------------------------+


+----------------------------------------------------------------------------------------------+
; Assembler Device Options: H:/Projects/DPP-II/p19700-1/Software/ep99840/ltc1595/ltc1595_1.pof ;
+----------------+-----------------------------------------------------------------------------+
; Option         ; Setting                                                                     ;
+----------------+-----------------------------------------------------------------------------+
; Device         ; EPC2                                                                        ;
; JTAG usercode  ; 0x00000000                                                                  ;
; Checksum       ; 0x01449587                                                                  ;
+----------------+-----------------------------------------------------------------------------+


+--------------------+
; Assembler Messages ;
+--------------------+
Info: *******************************************************************
Info: Running Quartus II Assembler
    Info: Version 5.1 Build 216 03/06/2006 Service Pack 2 SJ Full Version
    Info: Processing started: Mon Mar 27 11:59:33 2006
Info: Command: quartus_asm --read_settings_files=off --write_settings_files=off ltc1595 -c ltc1595
Info: Quartus II Assembler was successful. 0 errors, 0 warnings
    Info: Processing ended: Mon Mar 27 11:59:35 2006
    Info: Elapsed time: 00:00:03


