Analysis & Synthesis report for pcictrl
Wed Jan 04 11:12:41 2006
Version 5.1 Build 176 10/26/2005 Service Pack 0.15 SJ Full Version


---------------------
; Table of Contents ;
---------------------
  1. Legal Notice
  2. Analysis & Synthesis Summary
  3. Analysis & Synthesis Settings
  4. Analysis & Synthesis Source Files Read
  5. Analysis & Synthesis Resource Usage Summary
  6. Analysis & Synthesis Resource Utilization by Entity
  7. State Machine - |PCICTRL|PCI_STATE
  8. General Register Statistics
  9. Parameter Settings for User Entity Instance: LPM_FF:Data_FF
 10. Analysis & Synthesis Equations
 11. Analysis & Synthesis Messages



----------------
; Legal Notice ;
----------------
Copyright (C) 1991-2005 Altera Corporation
Your use of Altera Corporation's design tools, logic functions 
and other software and tools, and its AMPP partner logic 
functions, and any output files any of the foregoing 
(including device programming or simulation files), and any 
associated documentation or information are expressly subject 
to the terms and conditions of the Altera Program License 
Subscription Agreement, Altera MegaCore Function License 
Agreement, or other applicable license agreement, including, 
without limitation, that your use is for the sole purpose of 
programming logic devices manufactured by Altera and sold by 
Altera or its authorized distributors.  Please refer to the 
applicable agreement for further details.



+--------------------------------------------------------------------------------+
; Analysis & Synthesis Summary                                                   ;
+-----------------------------+--------------------------------------------------+
; Analysis & Synthesis Status ; Successful - Wed Jan 04 11:12:41 2006            ;
; Quartus II Version          ; 5.1 Build 176 10/26/2005 SP 0.15 SJ Full Version ;
; Revision Name               ; pcictrl                                          ;
; Top-level Entity Name       ; PCICTRL                                          ;
; Family                      ; APEX20KE                                         ;
; Total logic elements        ; 134                                              ;
; Total pins                  ; 87                                               ;
; Total virtual pins          ; 0                                                ;
; Total memory bits           ; 0                                                ;
; Total PLLs                  ; 0                                                ;
+-----------------------------+--------------------------------------------------+


+-------------------------------------------------------------------------------------------------------------------------------+
; Analysis & Synthesis Settings                                                                                                 ;
+--------------------------------------------------------------------------------------------+------------------+---------------+
; Option                                                                                     ; Setting          ; Default Value ;
+--------------------------------------------------------------------------------------------+------------------+---------------+
; Device                                                                                     ; EP20K30ETC144-2X ;               ;
; Top-level entity name                                                                      ; Pcictrl          ; pcictrl       ;
; Family name                                                                                ; APEX20KE         ; Stratix       ;
; VHDL Show LMF Mapping Messages                                                             ; Off              ;               ;
; Optimization Technique -- APEX 20K/APEX 20KE/APEX 20KC/APEX II/ARM-based Excalibur         ; Speed            ; Balanced      ;
; Perform WYSIWYG Primitive Resynthesis                                                      ; On               ; Off           ;
; Perform gate-level register retiming                                                       ; On               ; Off           ;
; Use smart compilation                                                                      ; Off              ; Off           ;
; Create Debugging Nodes for IP Cores                                                        ; Off              ; Off           ;
; Preserve fewer node names                                                                  ; On               ; On            ;
; Disable OpenCore Plus hardware evaluation                                                  ; Off              ; Off           ;
; Verilog Version                                                                            ; Verilog_2001     ; Verilog_2001  ;
; VHDL Version                                                                               ; VHDL93           ; VHDL93        ;
; State Machine Processing                                                                   ; Auto             ; Auto          ;
; Extract Verilog State Machines                                                             ; On               ; On            ;
; Extract VHDL State Machines                                                                ; On               ; On            ;
; Add Pass-Through Logic to Inferred RAMs                                                    ; On               ; On            ;
; NOT Gate Push-Back                                                                         ; On               ; On            ;
; Power-Up Don't Care                                                                        ; On               ; On            ;
; Remove Redundant Logic Cells                                                               ; Off              ; Off           ;
; Remove Duplicate Registers                                                                 ; On               ; On            ;
; Ignore CARRY Buffers                                                                       ; Off              ; Off           ;
; Ignore CASCADE Buffers                                                                     ; Off              ; Off           ;
; Ignore GLOBAL Buffers                                                                      ; Off              ; Off           ;
; Ignore ROW GLOBAL Buffers                                                                  ; Off              ; Off           ;
; Ignore LCELL Buffers                                                                       ; Off              ; Off           ;
; Ignore SOFT Buffers                                                                        ; On               ; On            ;
; Limit AHDL Integers to 32 Bits                                                             ; Off              ; Off           ;
; Auto Implement in ROM                                                                      ; Off              ; Off           ;
; Technology Mapper -- APEX 20K/APEX 20KE/APEX 20KC/APEX II/ARM-based Excalibur              ; LUT              ; LUT           ;
; Allow XOR Gate Usage                                                                       ; On               ; On            ;
; Carry Chain Length                                                                         ; 48               ; 48            ;
; Cascade Chain Length                                                                       ; 2                ; 2             ;
; Parallel Expander Chain Length -- APEX 20K/APEX 20KE/APEX 20KC/APEX II/ARM-based Excalibur ; 16               ; 16            ;
; Auto Carry Chains                                                                          ; On               ; On            ;
; Auto Parallel Expanders                                                                    ; On               ; On            ;
; Auto Open-Drain Pins                                                                       ; On               ; On            ;
; Remove Duplicate Logic                                                                     ; On               ; On            ;
; Allow register retiming to trade off Tsu/Tco with Fmax                                     ; On               ; On            ;
; Auto ROM Replacement                                                                       ; On               ; On            ;
; Auto RAM Replacement                                                                       ; On               ; On            ;
; Auto Shift Register Replacement                                                            ; On               ; On            ;
; Auto Clock Enable Replacement                                                              ; On               ; On            ;
; Auto Resource Sharing                                                                      ; Off              ; Off           ;
; Allow Any RAM Size For Recognition                                                         ; Off              ; Off           ;
; Allow Any ROM Size For Recognition                                                         ; Off              ; Off           ;
; Allow Any Shift Register Size For Recognition                                              ; Off              ; Off           ;
; Ignore translate_off and translate_on Synthesis Directives                                 ; Off              ; Off           ;
; Show Parameter Settings Tables in Synthesis Report                                         ; On               ; On            ;
; Ignore Maximum Fan-Out Assignments                                                         ; Off              ; Off           ;
; Retiming Meta-Stability Register Sequence Length                                           ; 2                ; 2             ;
; HDL message level                                                                          ; Level2           ; Level2        ;
+--------------------------------------------------------------------------------------------+------------------+---------------+


+-----------------------------------------------------------------------------------------------------------------------------------------+
; Analysis & Synthesis Source Files Read                                                                                                  ;
+----------------------------------+-----------------+-----------------+------------------------------------------------------------------+
; File Name with User-Entered Path ; Used in Netlist ; File Type       ; File Name with Absolute Path                                     ;
+----------------------------------+-----------------+-----------------+------------------------------------------------------------------+
; Pcictrl.vhd                      ; yes             ; User VHDL File  ; F:/Projects/DPP-II/p19700-1/Software/ep99980/pcictrl/Pcictrl.vhd ;
; LPM_FF.tdf                       ; yes             ; Megafunction    ; c:/altera/quartus51/libraries/megafunctions/LPM_FF.tdf           ;
; lpm_constant.inc                 ; yes             ; Other           ; c:/altera/quartus51/libraries/megafunctions/lpm_constant.inc     ;
; aglobal51.inc                    ; yes             ; Other           ; c:/altera/quartus51/libraries/megafunctions/aglobal51.inc        ;
+----------------------------------+-----------------+-----------------+------------------------------------------------------------------+


+---------------------------------------------+
; Analysis & Synthesis Resource Usage Summary ;
+-----------------------------------+---------+
; Resource                          ; Usage   ;
+-----------------------------------+---------+
; Total logic elements              ; 134     ;
; Total combinational functions     ; 85      ;
;     -- Total 4-input functions    ; 43      ;
;     -- Total 3-input functions    ; 12      ;
;     -- Total 2-input functions    ; 8       ;
;     -- Total 1-input functions    ; 22      ;
;     -- Total 0-input functions    ; 0       ;
; Combinational cells for routing   ; 0       ;
; Total registers                   ; 79      ;
; Total logic cells in carry chains ; 22      ;
; I/O pins                          ; 87      ;
; Maximum fan-out node              ; IMR     ;
; Maximum fan-out                   ; 54      ;
; Total fan-out                     ; 572     ;
; Average fan-out                   ; 2.59    ;
+-----------------------------------+---------+


+------------------------------------------------------------------------------------------------------------------------------------------------------------------------------------------------------------+
; Analysis & Synthesis Resource Utilization by Entity                                                                                                                                                        ;
+----------------------------+-------------+--------------+-------------+------+--------------+--------------+-------------------+------------------+-----------------+------------+-------------------------+
; Compilation Hierarchy Node ; Logic Cells ; LC Registers ; Memory Bits ; Pins ; Virtual Pins ; LUT-Only LCs ; Register-Only LCs ; LUT/Register LCs ; Carry Chain LCs ; Packed LCs ; Full Hierarchy Name     ;
+----------------------------+-------------+--------------+-------------+------+--------------+--------------+-------------------+------------------+-----------------+------------+-------------------------+
; |PCICTRL                   ; 134 (118)   ; 79           ; 0           ; 87   ; 0            ; 55 (55)      ; 49 (33)           ; 30 (30)          ; 22 (22)         ; 0 (0)      ; |PCICTRL                ;
;    |lpm_ff:Data_FF|        ; 16 (16)     ; 16           ; 0           ; 0    ; 0            ; 0 (0)        ; 16 (16)           ; 0 (0)            ; 0 (0)           ; 0 (0)      ; |PCICTRL|lpm_ff:Data_FF ;
+----------------------------+-------------+--------------+-------------+------+--------------+--------------+-------------------+------------------+-----------------+------------+-------------------------+
Note: For table entries with two numbers listed, the numbers in parentheses indicate the number of resources of the given type used by the specific entity alone. The numbers listed outside of parentheses indicate the total resources of the given type used by the specific entity and all of its sub-entities in the hierarchy.


+---------------------------------------------------------------------------+
; State Machine - |PCICTRL|PCI_STATE                                        ;
+------------------+------------------+------------------+------------------+
; Name             ; PCI_STATE.st_mr2 ; PCI_STATE.st_mr1 ; PCI_STATE.st_mr0 ;
+------------------+------------------+------------------+------------------+
; PCI_STATE.st_mr0 ; 0                ; 0                ; 0                ;
; PCI_STATE.st_mr1 ; 0                ; 1                ; 1                ;
; PCI_STATE.st_mr2 ; 1                ; 0                ; 1                ;
+------------------+------------------+------------------+------------------+


+------------------------------------------------------+
; General Register Statistics                          ;
+----------------------------------------------+-------+
; Statistic                                    ; Value ;
+----------------------------------------------+-------+
; Total registers                              ; 79    ;
; Number of registers using Synchronous Clear  ; 0     ;
; Number of registers using Synchronous Load   ; 0     ;
; Number of registers using Asynchronous Clear ; 79    ;
; Number of registers using Asynchronous Load  ; 0     ;
; Number of registers using Clock Enable       ; 34    ;
; Number of registers using Preset             ; 0     ;
+----------------------------------------------+-------+


+-------------------------------------------------------------+
; Parameter Settings for User Entity Instance: LPM_FF:Data_FF ;
+------------------------+----------+-------------------------+
; Parameter Name         ; Value    ; Type                    ;
+------------------------+----------+-------------------------+
; LPM_WIDTH              ; 16       ; Integer                 ;
; LPM_AVALUE             ; UNUSED   ; Untyped                 ;
; LPM_SVALUE             ; UNUSED   ; Untyped                 ;
; LPM_FFTYPE             ; DFF      ; Untyped                 ;
; DEVICE_FAMILY          ; APEX20KE ; Untyped                 ;
; CBXI_PARAMETER         ; NOTHING  ; Untyped                 ;
; AUTO_CARRY_CHAINS      ; ON       ; AUTO_CARRY              ;
; IGNORE_CARRY_BUFFERS   ; OFF      ; IGNORE_CARRY            ;
; AUTO_CASCADE_CHAINS    ; ON       ; AUTO_CASCADE            ;
; IGNORE_CASCADE_BUFFERS ; OFF      ; IGNORE_CASCADE          ;
+------------------------+----------+-------------------------+
Note: In order to hide this table in the UI and the text report file, please set the "Show Parameter Settings Tables in Synthesis Report" option in "Analysis and Synthesis Settings -> More Settings" to "Off".


+--------------------------------+
; Analysis & Synthesis Equations ;
+--------------------------------+
The equations can be found in F:/Projects/DPP-II/p19700-1/Software/ep99980/pcictrl/pcictrl.map.eqn.


+-------------------------------+
; Analysis & Synthesis Messages ;
+-------------------------------+
Info: *******************************************************************
Info: Running Quartus II Analysis & Synthesis
    Info: Version 5.1 Build 176 10/26/2005 Service Pack 0.15 SJ Full Version
    Info: Processing started: Wed Jan 04 11:12:38 2006
Info: Command: quartus_map --read_settings_files=on --write_settings_files=off Pcictrl -c pcictrl
Info: Found 2 design units, including 1 entities, in source file Pcictrl.vhd
    Info: Found design unit 1: PCICTRL-behavioral
    Info: Found entity 1: PCICTRL
Info: Found 2 design units, including 1 entities, in source file simulation/modelsim/tb.vhd
    Info: Found design unit 1: tb-test_bench
    Info: Found entity 1: tb
Info: Elaborating entity "Pcictrl" for the top level hierarchy
Warning (10036): Verilog HDL or VHDL warning at Pcictrl.vhd(86): object "PCI_DCD" assigned a value but never read
Info (10425): VHDL Case Statement information at Pcictrl.vhd(277): OTHERS choice is never selected
Info: Found 1 design units, including 1 entities, in source file c:/altera/quartus51/libraries/megafunctions/LPM_FF.tdf
    Info: Found entity 1: lpm_ff
Info: Elaborating entity "LPM_FF" for hierarchy "LPM_FF:Data_FF"
Info: State machine "|PCICTRL|PCI_STATE" contains 3 states
Info: Selected Auto state machine encoding method for state machine "|PCICTRL|PCI_STATE"
Info: Encoding result for state machine "|PCICTRL|PCI_STATE"
    Info: Completed encoding using 3 state bits
        Info: Encoded state bit "PCI_STATE.st_mr2"
        Info: Encoded state bit "PCI_STATE.st_mr1"
        Info: Encoded state bit "PCI_STATE.st_mr0"
    Info: State "|PCICTRL|PCI_STATE.st_mr0" uses code string "000"
    Info: State "|PCICTRL|PCI_STATE.st_mr1" uses code string "011"
    Info: State "|PCICTRL|PCI_STATE.st_mr2" uses code string "101"
Info: Resynthesizing 0 WYSIWYG logic cells and I/Os using "speed" technology mapper which leaves 22 WYSIWYG logic cells and I/Os untouched
Info: Performing gate-level register retiming
Info: Not allowed to move 54 registers
    Info: Not allowed to move 34 registers because they are directly fed by input pins
    Info: Not allowed to move 2 registers because they feed output pins directly
    Info: Not allowed to move 18 registers because they are fed by registers in a different clock domain
Info: Quartus II software applied gate-level register retiming to 0 clock domains
Info: Implemented 221 device resources after synthesis - the final resource count might be different
    Info: Implemented 30 input pins
    Info: Implemented 57 output pins
    Info: Implemented 134 logic cells
Info: Quartus II Analysis & Synthesis was successful. 0 errors, 1 warning
    Info: Processing ended: Wed Jan 04 11:12:41 2006
    Info: Elapsed time: 00:00:04


