Timing Analyzer report for fir_disccnts
Mon Mar 27 10:03:41 2006
Version 5.1 Build 216 03/06/2006 Service Pack 2 SJ Full Version


---------------------
; Table of Contents ;
---------------------
  1. Legal Notice
  2. Timing Analyzer Summary
  3. Timing Analyzer Settings
  4. Clock Settings Summary
  5. Clock Setup: 'CLK'
  6. Clock Hold: 'CLK'
  7. tsu
  8. tco
  9. th
 10. Minimum tco
 11. Timing Analyzer Messages



----------------
; Legal Notice ;
----------------
Copyright (C) 1991-2006 Altera Corporation
Your use of Altera Corporation's design tools, logic functions 
and other software and tools, and its AMPP partner logic 
functions, and any output files any of the foregoing 
(including device programming or simulation files), and any 
associated documentation or information are expressly subject 
to the terms and conditions of the Altera Program License 
Subscription Agreement, Altera MegaCore Function License 
Agreement, or other applicable license agreement, including, 
without limitation, that your use is for the sole purpose of 
programming logic devices manufactured by Altera and sold by 
Altera or its authorized distributors.  Please refer to the 
applicable agreement for further details.



+-----------------------------------------------------------------------------------------------------------------------------------------------------------------------------------------+
; Timing Analyzer Summary                                                                                                                                                                 ;
+------------------------------+-----------+----------------------------------+----------------------------------+----------------+----------------+------------+----------+--------------+
; Type                         ; Slack     ; Required Time                    ; Actual Time                      ; From           ; To             ; From Clock ; To Clock ; Failed Paths ;
+------------------------------+-----------+----------------------------------+----------------------------------+----------------+----------------+------------+----------+--------------+
; Worst-case tsu               ; 7.196 ns  ; 15.000 ns                        ; 7.804 ns                         ; TimeEnable     ; Cnts[7]~reg0   ; --         ; CLK      ; 0            ;
; Worst-case tco               ; 4.882 ns  ; 15.000 ns                        ; 10.118 ns                        ; Cnts[4]~reg0   ; Cnts[4]        ; CLK        ; --       ; 0            ;
; Worst-case th                ; N/A       ; None                             ; 0.047 ns                         ; TimeClr        ; Cnts[7]~reg0   ; --         ; CLK      ; 0            ;
; Worst-case Minimum tco       ; N/A       ; None                             ; 6.882 ns                         ; Cnts[5]~reg0   ; Cnts[5]        ; CLK        ; --       ; 0            ;
; Clock Setup: 'CLK'           ; 42.712 ns ; 20.00 MHz ( period = 50.000 ns ) ; 137.21 MHz ( period = 7.288 ns ) ; Cnts[7]~reg0   ; Cnts[7]~reg0   ; CLK        ; CLK      ; 0            ;
; Clock Hold: 'CLK'            ; 1.202 ns  ; 20.00 MHz ( period = 50.000 ns ) ; N/A                              ; Disc_In_Vec[0] ; Disc_In_Vec[1] ; CLK        ; CLK      ; 0            ;
; Total number of failed paths ;           ;                                  ;                                  ;                ;                ;            ;          ; 0            ;
+------------------------------+-----------+----------------------------------+----------------------------------+----------------+----------------+------------+----------+--------------+


+------------------------------------------------------------------------------------------------------+
; Timing Analyzer Settings                                                                             ;
+-------------------------------------------------------+--------------------+------+----+-------------+
; Option                                                ; Setting            ; From ; To ; Entity Name ;
+-------------------------------------------------------+--------------------+------+----+-------------+
; Device Name                                           ; EP20K300EQC240-2X  ;      ;    ;             ;
; Timing Models                                         ; Final              ;      ;    ;             ;
; Number of source nodes to report per destination node ; 10                 ;      ;    ;             ;
; Number of destination nodes to report                 ; 10                 ;      ;    ;             ;
; Number of paths to report                             ; 200                ;      ;    ;             ;
; Report Minimum Timing Checks                          ; On                 ;      ;    ;             ;
; Use Fast Timing Models                                ; Off                ;      ;    ;             ;
; Report IO Paths Separately                            ; Off                ;      ;    ;             ;
; Default hold multicycle                               ; Same As Multicycle ;      ;    ;             ;
; Cut paths between unrelated clock domains             ; On                 ;      ;    ;             ;
; Cut off read during write signal paths                ; On                 ;      ;    ;             ;
; Cut off feedback from I/O pins                        ; On                 ;      ;    ;             ;
; Report Combined Fast/Slow Timing                      ; Off                ;      ;    ;             ;
; tpd Requirement                                       ; 15 ns              ;      ;    ;             ;
; tsu Requirement                                       ; 15 ns              ;      ;    ;             ;
; tco Requirement                                       ; 15 ns              ;      ;    ;             ;
; fmax Requirement                                      ; 20 MHz             ;      ;    ;             ;
; Ignore Clock Settings                                 ; On                 ;      ;    ;             ;
; Analyze latches as synchronous elements               ; Off                ;      ;    ;             ;
; Enable Recovery/Removal analysis                      ; Off                ;      ;    ;             ;
; Enable Clock Latency                                  ; Off                ;      ;    ;             ;
+-------------------------------------------------------+--------------------+------+----+-------------+


+------------------------------------------------------------------------------------------------------------------------------------------------------------------------------------+
; Clock Settings Summary                                                                                                                                                             ;
+-----------------+--------------------+----------+------------------+---------------+--------------+----------+-----------------------+---------------------+--------+--------------+
; Clock Node Name ; Clock Setting Name ; Type     ; Fmax Requirement ; Early Latency ; Late Latency ; Based on ; Multiply Base Fmax by ; Divide Base Fmax by ; Offset ; Phase offset ;
+-----------------+--------------------+----------+------------------+---------------+--------------+----------+-----------------------+---------------------+--------+--------------+
; CLK             ;                    ; User Pin ; 20.0 MHz         ; 0.000 ns      ; 0.000 ns     ; --       ; N/A                   ; N/A                 ; N/A    ;              ;
+-----------------+--------------------+----------+------------------+---------------+--------------+----------+-----------------------+---------------------+--------+--------------+


+---------------------------------------------------------------------------------------------------------------------------------------------------------------------------------------------------------+
; Clock Setup: 'CLK'                                                                                                                                                                                      ;
+-----------+-----------------------------------------------+----------------+----------------+------------+----------+-----------------------------+---------------------------+-------------------------+
; Slack     ; Actual fmax (period)                          ; From           ; To             ; From Clock ; To Clock ; Required Setup Relationship ; Required Longest P2P Time ; Actual Longest P2P Time ;
+-----------+-----------------------------------------------+----------------+----------------+------------+----------+-----------------------------+---------------------------+-------------------------+
; 42.712 ns ; 137.21 MHz ( period = 7.288 ns )              ; Cnts[7]~reg0   ; Cnts[7]~reg0   ; CLK        ; CLK      ; 50.000 ns                   ; 49.453 ns                 ; 6.741 ns                ;
; 42.851 ns ; 139.88 MHz ( period = 7.149 ns )              ; Cnts[7]~reg0   ; Cnts[6]~reg0   ; CLK        ; CLK      ; 50.000 ns                   ; 49.453 ns                 ; 6.602 ns                ;
; 42.910 ns ; 141.04 MHz ( period = 7.090 ns )              ; Cnts[3]~reg0   ; Cnts[7]~reg0   ; CLK        ; CLK      ; 50.000 ns                   ; 49.453 ns                 ; 6.543 ns                ;
; 42.937 ns ; 141.58 MHz ( period = 7.063 ns )              ; Cnts[2]~reg0   ; Cnts[7]~reg0   ; CLK        ; CLK      ; 50.000 ns                   ; 49.453 ns                 ; 6.516 ns                ;
; 42.990 ns ; 142.65 MHz ( period = 7.010 ns )              ; Cnts[7]~reg0   ; Cnts[5]~reg0   ; CLK        ; CLK      ; 50.000 ns                   ; 49.453 ns                 ; 6.463 ns                ;
; 43.042 ns ; 143.72 MHz ( period = 6.958 ns )              ; Cnts[0]~reg0   ; Cnts[7]~reg0   ; CLK        ; CLK      ; 50.000 ns                   ; 49.453 ns                 ; 6.411 ns                ;
; 43.049 ns ; 143.86 MHz ( period = 6.951 ns )              ; Cnts[3]~reg0   ; Cnts[6]~reg0   ; CLK        ; CLK      ; 50.000 ns                   ; 49.453 ns                 ; 6.404 ns                ;
; 43.076 ns ; 144.43 MHz ( period = 6.924 ns )              ; Cnts[2]~reg0   ; Cnts[6]~reg0   ; CLK        ; CLK      ; 50.000 ns                   ; 49.453 ns                 ; 6.377 ns                ;
; 43.129 ns ; 145.54 MHz ( period = 6.871 ns )              ; Cnts[7]~reg0   ; Cnts[4]~reg0   ; CLK        ; CLK      ; 50.000 ns                   ; 49.453 ns                 ; 6.324 ns                ;
; 43.181 ns ; 146.65 MHz ( period = 6.819 ns )              ; Cnts[0]~reg0   ; Cnts[6]~reg0   ; CLK        ; CLK      ; 50.000 ns                   ; 49.453 ns                 ; 6.272 ns                ;
; 43.188 ns ; 146.80 MHz ( period = 6.812 ns )              ; Cnts[3]~reg0   ; Cnts[5]~reg0   ; CLK        ; CLK      ; 50.000 ns                   ; 49.453 ns                 ; 6.265 ns                ;
; 43.215 ns ; 147.38 MHz ( period = 6.785 ns )              ; Cnts[2]~reg0   ; Cnts[5]~reg0   ; CLK        ; CLK      ; 50.000 ns                   ; 49.453 ns                 ; 6.238 ns                ;
; 43.268 ns ; 148.54 MHz ( period = 6.732 ns )              ; Cnts[7]~reg0   ; Cnts[3]~reg0   ; CLK        ; CLK      ; 50.000 ns                   ; 49.453 ns                 ; 6.185 ns                ;
; 43.313 ns ; 149.54 MHz ( period = 6.687 ns )              ; Cnts[4]~reg0   ; Cnts[7]~reg0   ; CLK        ; CLK      ; 50.000 ns                   ; 49.453 ns                 ; 6.140 ns                ;
; 43.320 ns ; 149.70 MHz ( period = 6.680 ns )              ; Cnts[0]~reg0   ; Cnts[5]~reg0   ; CLK        ; CLK      ; 50.000 ns                   ; 49.453 ns                 ; 6.133 ns                ;
; 43.327 ns ; 149.86 MHz ( period = 6.673 ns )              ; Cnts[3]~reg0   ; Cnts[4]~reg0   ; CLK        ; CLK      ; 50.000 ns                   ; 49.453 ns                 ; 6.126 ns                ;
; 43.344 ns ; 150.24 MHz ( period = 6.656 ns )              ; Cnts[6]~reg0   ; Cnts[7]~reg0   ; CLK        ; CLK      ; 50.000 ns                   ; 49.453 ns                 ; 6.109 ns                ;
; 43.354 ns ; 150.47 MHz ( period = 6.646 ns )              ; Cnts[2]~reg0   ; Cnts[4]~reg0   ; CLK        ; CLK      ; 50.000 ns                   ; 49.453 ns                 ; 6.099 ns                ;
; 43.407 ns ; 151.68 MHz ( period = 6.593 ns )              ; Cnts[7]~reg0   ; Cnts[2]~reg0   ; CLK        ; CLK      ; 50.000 ns                   ; 49.453 ns                 ; 6.046 ns                ;
; 43.452 ns ; 152.72 MHz ( period = 6.548 ns )              ; Cnts[4]~reg0   ; Cnts[6]~reg0   ; CLK        ; CLK      ; 50.000 ns                   ; 49.453 ns                 ; 6.001 ns                ;
; 43.459 ns ; 152.88 MHz ( period = 6.541 ns )              ; Cnts[0]~reg0   ; Cnts[4]~reg0   ; CLK        ; CLK      ; 50.000 ns                   ; 49.453 ns                 ; 5.994 ns                ;
; 43.466 ns ; 153.05 MHz ( period = 6.534 ns )              ; Cnts[3]~reg0   ; Cnts[3]~reg0   ; CLK        ; CLK      ; 50.000 ns                   ; 49.453 ns                 ; 5.987 ns                ;
; 43.483 ns ; 153.44 MHz ( period = 6.517 ns )              ; Cnts[6]~reg0   ; Cnts[6]~reg0   ; CLK        ; CLK      ; 50.000 ns                   ; 49.453 ns                 ; 5.970 ns                ;
; 43.493 ns ; 153.68 MHz ( period = 6.507 ns )              ; Cnts[2]~reg0   ; Cnts[3]~reg0   ; CLK        ; CLK      ; 50.000 ns                   ; 49.453 ns                 ; 5.960 ns                ;
; 43.546 ns ; 154.94 MHz ( period = 6.454 ns )              ; Cnts[7]~reg0   ; Cnts[1]~reg0   ; CLK        ; CLK      ; 50.000 ns                   ; 49.453 ns                 ; 5.907 ns                ;
; 43.561 ns ; 155.30 MHz ( period = 6.439 ns )              ; Cnts[1]~reg0   ; Cnts[7]~reg0   ; CLK        ; CLK      ; 50.000 ns                   ; 49.453 ns                 ; 5.892 ns                ;
; 43.591 ns ; 156.03 MHz ( period = 6.409 ns )              ; Cnts[4]~reg0   ; Cnts[5]~reg0   ; CLK        ; CLK      ; 50.000 ns                   ; 49.453 ns                 ; 5.862 ns                ;
; 43.598 ns ; 156.20 MHz ( period = 6.402 ns )              ; Cnts[0]~reg0   ; Cnts[3]~reg0   ; CLK        ; CLK      ; 50.000 ns                   ; 49.453 ns                 ; 5.855 ns                ;
; 43.605 ns ; 156.37 MHz ( period = 6.395 ns )              ; Cnts[3]~reg0   ; Cnts[2]~reg0   ; CLK        ; CLK      ; 50.000 ns                   ; 49.453 ns                 ; 5.848 ns                ;
; 43.622 ns ; 156.79 MHz ( period = 6.378 ns )              ; Cnts[6]~reg0   ; Cnts[5]~reg0   ; CLK        ; CLK      ; 50.000 ns                   ; 49.453 ns                 ; 5.831 ns                ;
; 43.632 ns ; 157.04 MHz ( period = 6.368 ns )              ; Cnts[2]~reg0   ; Cnts[2]~reg0   ; CLK        ; CLK      ; 50.000 ns                   ; 49.453 ns                 ; 5.821 ns                ;
; 43.700 ns ; 158.73 MHz ( period = 6.300 ns )              ; Cnts[1]~reg0   ; Cnts[6]~reg0   ; CLK        ; CLK      ; 50.000 ns                   ; 49.453 ns                 ; 5.753 ns                ;
; 43.730 ns ; 159.49 MHz ( period = 6.270 ns )              ; Cnts[4]~reg0   ; Cnts[4]~reg0   ; CLK        ; CLK      ; 50.000 ns                   ; 49.453 ns                 ; 5.723 ns                ;
; 43.737 ns ; 159.67 MHz ( period = 6.263 ns )              ; Cnts[0]~reg0   ; Cnts[2]~reg0   ; CLK        ; CLK      ; 50.000 ns                   ; 49.453 ns                 ; 5.716 ns                ;
; 43.744 ns ; 159.85 MHz ( period = 6.256 ns )              ; Cnts[3]~reg0   ; Cnts[1]~reg0   ; CLK        ; CLK      ; 50.000 ns                   ; 49.453 ns                 ; 5.709 ns                ;
; 43.761 ns ; 160.28 MHz ( period = 6.239 ns )              ; Cnts[6]~reg0   ; Cnts[4]~reg0   ; CLK        ; CLK      ; 50.000 ns                   ; 49.453 ns                 ; 5.692 ns                ;
; 43.771 ns ; 160.54 MHz ( period = 6.229 ns )              ; Cnts[2]~reg0   ; Cnts[1]~reg0   ; CLK        ; CLK      ; 50.000 ns                   ; 49.453 ns                 ; 5.682 ns                ;
; 43.839 ns ; 162.31 MHz ( period = 6.161 ns )              ; Cnts[1]~reg0   ; Cnts[5]~reg0   ; CLK        ; CLK      ; 50.000 ns                   ; 49.453 ns                 ; 5.614 ns                ;
; 43.869 ns ; 163.11 MHz ( period = 6.131 ns )              ; Cnts[4]~reg0   ; Cnts[3]~reg0   ; CLK        ; CLK      ; 50.000 ns                   ; 49.453 ns                 ; 5.584 ns                ;
; 43.876 ns ; 163.29 MHz ( period = 6.124 ns )              ; Cnts[0]~reg0   ; Cnts[1]~reg0   ; CLK        ; CLK      ; 50.000 ns                   ; 49.453 ns                 ; 5.577 ns                ;
; 43.900 ns ; 163.93 MHz ( period = 6.100 ns )              ; Cnts[6]~reg0   ; Cnts[3]~reg0   ; CLK        ; CLK      ; 50.000 ns                   ; 49.453 ns                 ; 5.553 ns                ;
; 43.943 ns ; 165.10 MHz ( period = 6.057 ns )              ; Cnts[5]~reg0   ; Cnts[7]~reg0   ; CLK        ; CLK      ; 50.000 ns                   ; 49.453 ns                 ; 5.510 ns                ;
; 43.978 ns ; 166.06 MHz ( period = 6.022 ns )              ; Cnts[1]~reg0   ; Cnts[4]~reg0   ; CLK        ; CLK      ; 50.000 ns                   ; 49.453 ns                 ; 5.475 ns                ;
; 44.008 ns ; 166.89 MHz ( period = 5.992 ns )              ; Cnts[4]~reg0   ; Cnts[2]~reg0   ; CLK        ; CLK      ; 50.000 ns                   ; 49.453 ns                 ; 5.445 ns                ;
; 44.039 ns ; 167.76 MHz ( period = 5.961 ns )              ; Cnts[6]~reg0   ; Cnts[2]~reg0   ; CLK        ; CLK      ; 50.000 ns                   ; 49.453 ns                 ; 5.414 ns                ;
; 44.082 ns ; 168.98 MHz ( period = 5.918 ns )              ; Cnts[5]~reg0   ; Cnts[6]~reg0   ; CLK        ; CLK      ; 50.000 ns                   ; 49.453 ns                 ; 5.371 ns                ;
; 44.117 ns ; 169.98 MHz ( period = 5.883 ns )              ; Cnts[1]~reg0   ; Cnts[3]~reg0   ; CLK        ; CLK      ; 50.000 ns                   ; 49.453 ns                 ; 5.336 ns                ;
; 44.147 ns ; 170.85 MHz ( period = 5.853 ns )              ; Cnts[4]~reg0   ; Cnts[1]~reg0   ; CLK        ; CLK      ; 50.000 ns                   ; 49.453 ns                 ; 5.306 ns                ;
; 44.178 ns ; 171.76 MHz ( period = 5.822 ns )              ; Cnts[6]~reg0   ; Cnts[1]~reg0   ; CLK        ; CLK      ; 50.000 ns                   ; 49.453 ns                 ; 5.275 ns                ;
; 44.221 ns ; 173.04 MHz ( period = 5.779 ns )              ; Cnts[5]~reg0   ; Cnts[5]~reg0   ; CLK        ; CLK      ; 50.000 ns                   ; 49.453 ns                 ; 5.232 ns                ;
; 44.256 ns ; 174.09 MHz ( period = 5.744 ns )              ; Cnts[1]~reg0   ; Cnts[2]~reg0   ; CLK        ; CLK      ; 50.000 ns                   ; 49.453 ns                 ; 5.197 ns                ;
; 44.360 ns ; 177.30 MHz ( period = 5.640 ns )              ; Cnts[5]~reg0   ; Cnts[4]~reg0   ; CLK        ; CLK      ; 50.000 ns                   ; 49.453 ns                 ; 5.093 ns                ;
; 44.395 ns ; 178.41 MHz ( period = 5.605 ns )              ; Cnts[1]~reg0   ; Cnts[1]~reg0   ; CLK        ; CLK      ; 50.000 ns                   ; 49.453 ns                 ; 5.058 ns                ;
; 44.499 ns ; 181.79 MHz ( period = 5.501 ns )              ; Cnts[5]~reg0   ; Cnts[3]~reg0   ; CLK        ; CLK      ; 50.000 ns                   ; 49.453 ns                 ; 4.954 ns                ;
; 44.636 ns ; 186.43 MHz ( period = 5.364 ns )              ; Disc_In_Vec[0] ; Cnts[7]~reg0   ; CLK        ; CLK      ; 50.000 ns                   ; 49.453 ns                 ; 4.817 ns                ;
; 44.638 ns ; 186.50 MHz ( period = 5.362 ns )              ; Cnts[5]~reg0   ; Cnts[2]~reg0   ; CLK        ; CLK      ; 50.000 ns                   ; 49.453 ns                 ; 4.815 ns                ;
; 44.756 ns ; 190.69 MHz ( period = 5.244 ns )              ; Disc_In_Vec[1] ; Cnts[7]~reg0   ; CLK        ; CLK      ; 50.000 ns                   ; 49.453 ns                 ; 4.697 ns                ;
; 44.775 ns ; 191.39 MHz ( period = 5.225 ns )              ; Disc_In_Vec[0] ; Cnts[6]~reg0   ; CLK        ; CLK      ; 50.000 ns                   ; 49.453 ns                 ; 4.678 ns                ;
; 44.777 ns ; 191.46 MHz ( period = 5.223 ns )              ; Cnts[5]~reg0   ; Cnts[1]~reg0   ; CLK        ; CLK      ; 50.000 ns                   ; 49.453 ns                 ; 4.676 ns                ;
; 44.895 ns ; 195.89 MHz ( period = 5.105 ns )              ; Disc_In_Vec[1] ; Cnts[6]~reg0   ; CLK        ; CLK      ; 50.000 ns                   ; 49.453 ns                 ; 4.558 ns                ;
; 44.914 ns ; 196.62 MHz ( period = 5.086 ns )              ; Disc_In_Vec[0] ; Cnts[5]~reg0   ; CLK        ; CLK      ; 50.000 ns                   ; 49.453 ns                 ; 4.539 ns                ;
; 44.939 ns ; 197.59 MHz ( period = 5.061 ns )              ; Cnts[7]~reg0   ; Cnts[0]~reg0   ; CLK        ; CLK      ; 50.000 ns                   ; 49.453 ns                 ; 4.514 ns                ;
; 45.034 ns ; 201.37 MHz ( period = 4.966 ns )              ; Disc_In_Vec[1] ; Cnts[5]~reg0   ; CLK        ; CLK      ; 50.000 ns                   ; 49.453 ns                 ; 4.419 ns                ;
; 45.053 ns ; 202.14 MHz ( period = 4.947 ns )              ; Disc_In_Vec[0] ; Cnts[4]~reg0   ; CLK        ; CLK      ; 50.000 ns                   ; 49.453 ns                 ; 4.400 ns                ;
; 45.137 ns ; 205.63 MHz ( period = 4.863 ns )              ; Cnts[3]~reg0   ; Cnts[0]~reg0   ; CLK        ; CLK      ; 50.000 ns                   ; 49.453 ns                 ; 4.316 ns                ;
; 45.164 ns ; 206.78 MHz ( period = 4.836 ns )              ; Cnts[2]~reg0   ; Cnts[0]~reg0   ; CLK        ; CLK      ; 50.000 ns                   ; 49.453 ns                 ; 4.289 ns                ;
; 45.173 ns ; 207.17 MHz ( period = 4.827 ns )              ; Disc_In_Vec[1] ; Cnts[4]~reg0   ; CLK        ; CLK      ; 50.000 ns                   ; 49.453 ns                 ; 4.280 ns                ;
; 45.192 ns ; 207.99 MHz ( period = 4.808 ns )              ; Disc_In_Vec[0] ; Cnts[3]~reg0   ; CLK        ; CLK      ; 50.000 ns                   ; 49.453 ns                 ; 4.261 ns                ;
; 45.269 ns ; 211.37 MHz ( period = 4.731 ns )              ; Cnts[0]~reg0   ; Cnts[0]~reg0   ; CLK        ; CLK      ; 50.000 ns                   ; 49.453 ns                 ; 4.184 ns                ;
; 45.312 ns ; 213.31 MHz ( period = 4.688 ns )              ; Disc_In_Vec[1] ; Cnts[3]~reg0   ; CLK        ; CLK      ; 50.000 ns                   ; 49.453 ns                 ; 4.141 ns                ;
; 45.331 ns ; 214.18 MHz ( period = 4.669 ns )              ; Disc_In_Vec[0] ; Cnts[2]~reg0   ; CLK        ; CLK      ; 50.000 ns                   ; 49.453 ns                 ; 4.122 ns                ;
; 45.451 ns ; 219.83 MHz ( period = 4.549 ns )              ; Disc_In_Vec[1] ; Cnts[2]~reg0   ; CLK        ; CLK      ; 50.000 ns                   ; 49.453 ns                 ; 4.002 ns                ;
; 45.470 ns ; 220.75 MHz ( period = 4.530 ns )              ; Disc_In_Vec[0] ; Cnts[1]~reg0   ; CLK        ; CLK      ; 50.000 ns                   ; 49.453 ns                 ; 3.983 ns                ;
; 45.540 ns ; 224.22 MHz ( period = 4.460 ns )              ; Cnts[4]~reg0   ; Cnts[0]~reg0   ; CLK        ; CLK      ; 50.000 ns                   ; 49.453 ns                 ; 3.913 ns                ;
; 45.571 ns ; 225.78 MHz ( period = 4.429 ns )              ; Cnts[6]~reg0   ; Cnts[0]~reg0   ; CLK        ; CLK      ; 50.000 ns                   ; 49.453 ns                 ; 3.882 ns                ;
; 45.590 ns ; 226.76 MHz ( period = 4.410 ns )              ; Disc_In_Vec[1] ; Cnts[1]~reg0   ; CLK        ; CLK      ; 50.000 ns                   ; 49.453 ns                 ; 3.863 ns                ;
; 45.788 ns ; Restricted to 233.64 MHz ( period = 4.28 ns ) ; Cnts[1]~reg0   ; Cnts[0]~reg0   ; CLK        ; CLK      ; 50.000 ns                   ; 49.453 ns                 ; 3.665 ns                ;
; 46.170 ns ; Restricted to 233.64 MHz ( period = 4.28 ns ) ; Cnts[5]~reg0   ; Cnts[0]~reg0   ; CLK        ; CLK      ; 50.000 ns                   ; 49.453 ns                 ; 3.283 ns                ;
; 46.863 ns ; Restricted to 233.64 MHz ( period = 4.28 ns ) ; Disc_In_Vec[0] ; Cnts[0]~reg0   ; CLK        ; CLK      ; 50.000 ns                   ; 49.453 ns                 ; 2.590 ns                ;
; 46.983 ns ; Restricted to 233.64 MHz ( period = 4.28 ns ) ; Disc_In_Vec[1] ; Cnts[0]~reg0   ; CLK        ; CLK      ; 50.000 ns                   ; 49.453 ns                 ; 2.470 ns                ;
; 48.303 ns ; Restricted to 233.64 MHz ( period = 4.28 ns ) ; Disc_In_Vec[0] ; Disc_In_Vec[1] ; CLK        ; CLK      ; 50.000 ns                   ; 49.453 ns                 ; 1.150 ns                ;
+-----------+-----------------------------------------------+----------------+----------------+------------+----------+-----------------------------+---------------------------+-------------------------+


+--------------------------------------------------------------------------------------------------------------------------------------------------------------+
; Clock Hold: 'CLK'                                                                                                                                            ;
+---------------+----------------+----------------+------------+----------+----------------------------+----------------------------+--------------------------+
; Minimum Slack ; From           ; To             ; From Clock ; To Clock ; Required Hold Relationship ; Required Shortest P2P Time ; Actual Shortest P2P Time ;
+---------------+----------------+----------------+------------+----------+----------------------------+----------------------------+--------------------------+
; 1.202 ns      ; Disc_In_Vec[0] ; Disc_In_Vec[1] ; CLK        ; CLK      ; 0.000 ns                   ; -0.052 ns                  ; 1.150 ns                 ;
; 1.282 ns      ; Cnts[0]~reg0   ; Cnts[0]~reg0   ; CLK        ; CLK      ; 0.000 ns                   ; -0.052 ns                  ; 1.230 ns                 ;
; 1.285 ns      ; Cnts[6]~reg0   ; Cnts[6]~reg0   ; CLK        ; CLK      ; 0.000 ns                   ; -0.052 ns                  ; 1.233 ns                 ;
; 1.291 ns      ; Cnts[1]~reg0   ; Cnts[1]~reg0   ; CLK        ; CLK      ; 0.000 ns                   ; -0.052 ns                  ; 1.239 ns                 ;
; 1.303 ns      ; Cnts[2]~reg0   ; Cnts[2]~reg0   ; CLK        ; CLK      ; 0.000 ns                   ; -0.052 ns                  ; 1.251 ns                 ;
; 1.312 ns      ; Cnts[5]~reg0   ; Cnts[5]~reg0   ; CLK        ; CLK      ; 0.000 ns                   ; -0.052 ns                  ; 1.260 ns                 ;
; 1.342 ns      ; Cnts[3]~reg0   ; Cnts[3]~reg0   ; CLK        ; CLK      ; 0.000 ns                   ; -0.052 ns                  ; 1.290 ns                 ;
; 1.342 ns      ; Cnts[4]~reg0   ; Cnts[4]~reg0   ; CLK        ; CLK      ; 0.000 ns                   ; -0.052 ns                  ; 1.290 ns                 ;
; 2.027 ns      ; Cnts[7]~reg0   ; Cnts[7]~reg0   ; CLK        ; CLK      ; 0.000 ns                   ; -0.052 ns                  ; 1.975 ns                 ;
; 2.172 ns      ; Cnts[0]~reg0   ; Cnts[1]~reg0   ; CLK        ; CLK      ; 0.000 ns                   ; -0.052 ns                  ; 2.120 ns                 ;
; 2.175 ns      ; Cnts[6]~reg0   ; Cnts[7]~reg0   ; CLK        ; CLK      ; 0.000 ns                   ; -0.052 ns                  ; 2.123 ns                 ;
; 2.181 ns      ; Cnts[1]~reg0   ; Cnts[2]~reg0   ; CLK        ; CLK      ; 0.000 ns                   ; -0.052 ns                  ; 2.129 ns                 ;
; 2.193 ns      ; Cnts[2]~reg0   ; Cnts[3]~reg0   ; CLK        ; CLK      ; 0.000 ns                   ; -0.052 ns                  ; 2.141 ns                 ;
; 2.202 ns      ; Cnts[5]~reg0   ; Cnts[6]~reg0   ; CLK        ; CLK      ; 0.000 ns                   ; -0.052 ns                  ; 2.150 ns                 ;
; 2.311 ns      ; Cnts[0]~reg0   ; Cnts[2]~reg0   ; CLK        ; CLK      ; 0.000 ns                   ; -0.052 ns                  ; 2.259 ns                 ;
; 2.320 ns      ; Cnts[1]~reg0   ; Cnts[3]~reg0   ; CLK        ; CLK      ; 0.000 ns                   ; -0.052 ns                  ; 2.268 ns                 ;
; 2.332 ns      ; Cnts[2]~reg0   ; Cnts[4]~reg0   ; CLK        ; CLK      ; 0.000 ns                   ; -0.052 ns                  ; 2.280 ns                 ;
; 2.341 ns      ; Cnts[5]~reg0   ; Cnts[7]~reg0   ; CLK        ; CLK      ; 0.000 ns                   ; -0.052 ns                  ; 2.289 ns                 ;
; 2.450 ns      ; Cnts[0]~reg0   ; Cnts[3]~reg0   ; CLK        ; CLK      ; 0.000 ns                   ; -0.052 ns                  ; 2.398 ns                 ;
; 2.459 ns      ; Cnts[1]~reg0   ; Cnts[4]~reg0   ; CLK        ; CLK      ; 0.000 ns                   ; -0.052 ns                  ; 2.407 ns                 ;
; 2.471 ns      ; Cnts[2]~reg0   ; Cnts[5]~reg0   ; CLK        ; CLK      ; 0.000 ns                   ; -0.052 ns                  ; 2.419 ns                 ;
; 2.522 ns      ; Disc_In_Vec[1] ; Cnts[0]~reg0   ; CLK        ; CLK      ; 0.000 ns                   ; -0.052 ns                  ; 2.470 ns                 ;
; 2.589 ns      ; Cnts[0]~reg0   ; Cnts[4]~reg0   ; CLK        ; CLK      ; 0.000 ns                   ; -0.052 ns                  ; 2.537 ns                 ;
; 2.598 ns      ; Cnts[1]~reg0   ; Cnts[5]~reg0   ; CLK        ; CLK      ; 0.000 ns                   ; -0.052 ns                  ; 2.546 ns                 ;
; 2.610 ns      ; Cnts[2]~reg0   ; Cnts[6]~reg0   ; CLK        ; CLK      ; 0.000 ns                   ; -0.052 ns                  ; 2.558 ns                 ;
; 2.642 ns      ; Disc_In_Vec[0] ; Cnts[0]~reg0   ; CLK        ; CLK      ; 0.000 ns                   ; -0.052 ns                  ; 2.590 ns                 ;
; 2.728 ns      ; Cnts[0]~reg0   ; Cnts[5]~reg0   ; CLK        ; CLK      ; 0.000 ns                   ; -0.052 ns                  ; 2.676 ns                 ;
; 2.735 ns      ; Cnts[3]~reg0   ; Cnts[4]~reg0   ; CLK        ; CLK      ; 0.000 ns                   ; -0.052 ns                  ; 2.683 ns                 ;
; 2.735 ns      ; Cnts[4]~reg0   ; Cnts[5]~reg0   ; CLK        ; CLK      ; 0.000 ns                   ; -0.052 ns                  ; 2.683 ns                 ;
; 2.737 ns      ; Cnts[1]~reg0   ; Cnts[6]~reg0   ; CLK        ; CLK      ; 0.000 ns                   ; -0.052 ns                  ; 2.685 ns                 ;
; 2.749 ns      ; Cnts[2]~reg0   ; Cnts[7]~reg0   ; CLK        ; CLK      ; 0.000 ns                   ; -0.052 ns                  ; 2.697 ns                 ;
; 2.867 ns      ; Cnts[0]~reg0   ; Cnts[6]~reg0   ; CLK        ; CLK      ; 0.000 ns                   ; -0.052 ns                  ; 2.815 ns                 ;
; 2.874 ns      ; Cnts[3]~reg0   ; Cnts[5]~reg0   ; CLK        ; CLK      ; 0.000 ns                   ; -0.052 ns                  ; 2.822 ns                 ;
; 2.874 ns      ; Cnts[4]~reg0   ; Cnts[6]~reg0   ; CLK        ; CLK      ; 0.000 ns                   ; -0.052 ns                  ; 2.822 ns                 ;
; 2.876 ns      ; Cnts[1]~reg0   ; Cnts[7]~reg0   ; CLK        ; CLK      ; 0.000 ns                   ; -0.052 ns                  ; 2.824 ns                 ;
; 3.006 ns      ; Cnts[0]~reg0   ; Cnts[7]~reg0   ; CLK        ; CLK      ; 0.000 ns                   ; -0.052 ns                  ; 2.954 ns                 ;
; 3.013 ns      ; Cnts[3]~reg0   ; Cnts[6]~reg0   ; CLK        ; CLK      ; 0.000 ns                   ; -0.052 ns                  ; 2.961 ns                 ;
; 3.013 ns      ; Cnts[4]~reg0   ; Cnts[7]~reg0   ; CLK        ; CLK      ; 0.000 ns                   ; -0.052 ns                  ; 2.961 ns                 ;
; 3.152 ns      ; Cnts[3]~reg0   ; Cnts[7]~reg0   ; CLK        ; CLK      ; 0.000 ns                   ; -0.052 ns                  ; 3.100 ns                 ;
; 3.335 ns      ; Cnts[5]~reg0   ; Cnts[0]~reg0   ; CLK        ; CLK      ; 0.000 ns                   ; -0.052 ns                  ; 3.283 ns                 ;
; 3.717 ns      ; Cnts[1]~reg0   ; Cnts[0]~reg0   ; CLK        ; CLK      ; 0.000 ns                   ; -0.052 ns                  ; 3.665 ns                 ;
; 3.915 ns      ; Disc_In_Vec[1] ; Cnts[1]~reg0   ; CLK        ; CLK      ; 0.000 ns                   ; -0.052 ns                  ; 3.863 ns                 ;
; 3.934 ns      ; Cnts[6]~reg0   ; Cnts[0]~reg0   ; CLK        ; CLK      ; 0.000 ns                   ; -0.052 ns                  ; 3.882 ns                 ;
; 3.965 ns      ; Cnts[4]~reg0   ; Cnts[0]~reg0   ; CLK        ; CLK      ; 0.000 ns                   ; -0.052 ns                  ; 3.913 ns                 ;
; 4.035 ns      ; Disc_In_Vec[0] ; Cnts[1]~reg0   ; CLK        ; CLK      ; 0.000 ns                   ; -0.052 ns                  ; 3.983 ns                 ;
; 4.054 ns      ; Disc_In_Vec[1] ; Cnts[2]~reg0   ; CLK        ; CLK      ; 0.000 ns                   ; -0.052 ns                  ; 4.002 ns                 ;
; 4.174 ns      ; Disc_In_Vec[0] ; Cnts[2]~reg0   ; CLK        ; CLK      ; 0.000 ns                   ; -0.052 ns                  ; 4.122 ns                 ;
; 4.193 ns      ; Disc_In_Vec[1] ; Cnts[3]~reg0   ; CLK        ; CLK      ; 0.000 ns                   ; -0.052 ns                  ; 4.141 ns                 ;
; 4.313 ns      ; Disc_In_Vec[0] ; Cnts[3]~reg0   ; CLK        ; CLK      ; 0.000 ns                   ; -0.052 ns                  ; 4.261 ns                 ;
; 4.332 ns      ; Disc_In_Vec[1] ; Cnts[4]~reg0   ; CLK        ; CLK      ; 0.000 ns                   ; -0.052 ns                  ; 4.280 ns                 ;
; 4.341 ns      ; Cnts[2]~reg0   ; Cnts[0]~reg0   ; CLK        ; CLK      ; 0.000 ns                   ; -0.052 ns                  ; 4.289 ns                 ;
; 4.368 ns      ; Cnts[3]~reg0   ; Cnts[0]~reg0   ; CLK        ; CLK      ; 0.000 ns                   ; -0.052 ns                  ; 4.316 ns                 ;
; 4.452 ns      ; Disc_In_Vec[0] ; Cnts[4]~reg0   ; CLK        ; CLK      ; 0.000 ns                   ; -0.052 ns                  ; 4.400 ns                 ;
; 4.471 ns      ; Disc_In_Vec[1] ; Cnts[5]~reg0   ; CLK        ; CLK      ; 0.000 ns                   ; -0.052 ns                  ; 4.419 ns                 ;
; 4.566 ns      ; Cnts[7]~reg0   ; Cnts[0]~reg0   ; CLK        ; CLK      ; 0.000 ns                   ; -0.052 ns                  ; 4.514 ns                 ;
; 4.591 ns      ; Disc_In_Vec[0] ; Cnts[5]~reg0   ; CLK        ; CLK      ; 0.000 ns                   ; -0.052 ns                  ; 4.539 ns                 ;
; 4.610 ns      ; Disc_In_Vec[1] ; Cnts[6]~reg0   ; CLK        ; CLK      ; 0.000 ns                   ; -0.052 ns                  ; 4.558 ns                 ;
; 4.728 ns      ; Cnts[5]~reg0   ; Cnts[1]~reg0   ; CLK        ; CLK      ; 0.000 ns                   ; -0.052 ns                  ; 4.676 ns                 ;
; 4.730 ns      ; Disc_In_Vec[0] ; Cnts[6]~reg0   ; CLK        ; CLK      ; 0.000 ns                   ; -0.052 ns                  ; 4.678 ns                 ;
; 4.749 ns      ; Disc_In_Vec[1] ; Cnts[7]~reg0   ; CLK        ; CLK      ; 0.000 ns                   ; -0.052 ns                  ; 4.697 ns                 ;
; 4.867 ns      ; Cnts[5]~reg0   ; Cnts[2]~reg0   ; CLK        ; CLK      ; 0.000 ns                   ; -0.052 ns                  ; 4.815 ns                 ;
; 4.869 ns      ; Disc_In_Vec[0] ; Cnts[7]~reg0   ; CLK        ; CLK      ; 0.000 ns                   ; -0.052 ns                  ; 4.817 ns                 ;
; 5.006 ns      ; Cnts[5]~reg0   ; Cnts[3]~reg0   ; CLK        ; CLK      ; 0.000 ns                   ; -0.052 ns                  ; 4.954 ns                 ;
; 5.145 ns      ; Cnts[5]~reg0   ; Cnts[4]~reg0   ; CLK        ; CLK      ; 0.000 ns                   ; -0.052 ns                  ; 5.093 ns                 ;
; 5.327 ns      ; Cnts[6]~reg0   ; Cnts[1]~reg0   ; CLK        ; CLK      ; 0.000 ns                   ; -0.052 ns                  ; 5.275 ns                 ;
; 5.358 ns      ; Cnts[4]~reg0   ; Cnts[1]~reg0   ; CLK        ; CLK      ; 0.000 ns                   ; -0.052 ns                  ; 5.306 ns                 ;
; 5.466 ns      ; Cnts[6]~reg0   ; Cnts[2]~reg0   ; CLK        ; CLK      ; 0.000 ns                   ; -0.052 ns                  ; 5.414 ns                 ;
; 5.497 ns      ; Cnts[4]~reg0   ; Cnts[2]~reg0   ; CLK        ; CLK      ; 0.000 ns                   ; -0.052 ns                  ; 5.445 ns                 ;
; 5.605 ns      ; Cnts[6]~reg0   ; Cnts[3]~reg0   ; CLK        ; CLK      ; 0.000 ns                   ; -0.052 ns                  ; 5.553 ns                 ;
; 5.636 ns      ; Cnts[4]~reg0   ; Cnts[3]~reg0   ; CLK        ; CLK      ; 0.000 ns                   ; -0.052 ns                  ; 5.584 ns                 ;
; 5.734 ns      ; Cnts[2]~reg0   ; Cnts[1]~reg0   ; CLK        ; CLK      ; 0.000 ns                   ; -0.052 ns                  ; 5.682 ns                 ;
; 5.744 ns      ; Cnts[6]~reg0   ; Cnts[4]~reg0   ; CLK        ; CLK      ; 0.000 ns                   ; -0.052 ns                  ; 5.692 ns                 ;
; 5.761 ns      ; Cnts[3]~reg0   ; Cnts[1]~reg0   ; CLK        ; CLK      ; 0.000 ns                   ; -0.052 ns                  ; 5.709 ns                 ;
; 5.883 ns      ; Cnts[6]~reg0   ; Cnts[5]~reg0   ; CLK        ; CLK      ; 0.000 ns                   ; -0.052 ns                  ; 5.831 ns                 ;
; 5.900 ns      ; Cnts[3]~reg0   ; Cnts[2]~reg0   ; CLK        ; CLK      ; 0.000 ns                   ; -0.052 ns                  ; 5.848 ns                 ;
; 5.959 ns      ; Cnts[7]~reg0   ; Cnts[1]~reg0   ; CLK        ; CLK      ; 0.000 ns                   ; -0.052 ns                  ; 5.907 ns                 ;
; 6.098 ns      ; Cnts[7]~reg0   ; Cnts[2]~reg0   ; CLK        ; CLK      ; 0.000 ns                   ; -0.052 ns                  ; 6.046 ns                 ;
; 6.237 ns      ; Cnts[7]~reg0   ; Cnts[3]~reg0   ; CLK        ; CLK      ; 0.000 ns                   ; -0.052 ns                  ; 6.185 ns                 ;
; 6.376 ns      ; Cnts[7]~reg0   ; Cnts[4]~reg0   ; CLK        ; CLK      ; 0.000 ns                   ; -0.052 ns                  ; 6.324 ns                 ;
; 6.515 ns      ; Cnts[7]~reg0   ; Cnts[5]~reg0   ; CLK        ; CLK      ; 0.000 ns                   ; -0.052 ns                  ; 6.463 ns                 ;
; 6.654 ns      ; Cnts[7]~reg0   ; Cnts[6]~reg0   ; CLK        ; CLK      ; 0.000 ns                   ; -0.052 ns                  ; 6.602 ns                 ;
+---------------+----------------+----------------+------------+----------+----------------------------+----------------------------+--------------------------+


+--------------------------------------------------------------------------------+
; tsu                                                                            ;
+-----------+--------------+------------+------------+----------------+----------+
; Slack     ; Required tsu ; Actual tsu ; From       ; To             ; To Clock ;
+-----------+--------------+------------+------------+----------------+----------+
; 7.196 ns  ; 15.000 ns    ; 7.804 ns   ; TimeEnable ; Cnts[7]~reg0   ; CLK      ;
; 7.335 ns  ; 15.000 ns    ; 7.665 ns   ; TimeEnable ; Cnts[6]~reg0   ; CLK      ;
; 7.474 ns  ; 15.000 ns    ; 7.526 ns   ; TimeEnable ; Cnts[5]~reg0   ; CLK      ;
; 7.542 ns  ; 15.000 ns    ; 7.458 ns   ; Disc_In    ; Disc_In_Vec[0] ; CLK      ;
; 7.613 ns  ; 15.000 ns    ; 7.387 ns   ; TimeEnable ; Cnts[4]~reg0   ; CLK      ;
; 7.752 ns  ; 15.000 ns    ; 7.248 ns   ; TimeEnable ; Cnts[3]~reg0   ; CLK      ;
; 7.891 ns  ; 15.000 ns    ; 7.109 ns   ; TimeEnable ; Cnts[2]~reg0   ; CLK      ;
; 8.030 ns  ; 15.000 ns    ; 6.970 ns   ; TimeEnable ; Cnts[1]~reg0   ; CLK      ;
; 8.102 ns  ; 15.000 ns    ; 6.898 ns   ; PA_Reset   ; Cnts[7]~reg0   ; CLK      ;
; 8.241 ns  ; 15.000 ns    ; 6.759 ns   ; PA_Reset   ; Cnts[6]~reg0   ; CLK      ;
; 8.380 ns  ; 15.000 ns    ; 6.620 ns   ; PA_Reset   ; Cnts[5]~reg0   ; CLK      ;
; 8.519 ns  ; 15.000 ns    ; 6.481 ns   ; PA_Reset   ; Cnts[4]~reg0   ; CLK      ;
; 8.658 ns  ; 15.000 ns    ; 6.342 ns   ; PA_Reset   ; Cnts[3]~reg0   ; CLK      ;
; 8.797 ns  ; 15.000 ns    ; 6.203 ns   ; PA_Reset   ; Cnts[2]~reg0   ; CLK      ;
; 8.936 ns  ; 15.000 ns    ; 6.064 ns   ; PA_Reset   ; Cnts[1]~reg0   ; CLK      ;
; 9.423 ns  ; 15.000 ns    ; 5.577 ns   ; TimeEnable ; Cnts[0]~reg0   ; CLK      ;
; 10.329 ns ; 15.000 ns    ; 4.671 ns   ; PA_Reset   ; Cnts[0]~reg0   ; CLK      ;
; 14.552 ns ; 15.000 ns    ; 0.448 ns   ; TimeClr    ; Cnts[7]~reg0   ; CLK      ;
; 14.552 ns ; 15.000 ns    ; 0.448 ns   ; TimeClr    ; Cnts[6]~reg0   ; CLK      ;
; 14.552 ns ; 15.000 ns    ; 0.448 ns   ; TimeClr    ; Cnts[5]~reg0   ; CLK      ;
; 14.552 ns ; 15.000 ns    ; 0.448 ns   ; TimeClr    ; Cnts[4]~reg0   ; CLK      ;
; 14.552 ns ; 15.000 ns    ; 0.448 ns   ; TimeClr    ; Cnts[3]~reg0   ; CLK      ;
; 14.552 ns ; 15.000 ns    ; 0.448 ns   ; TimeClr    ; Cnts[2]~reg0   ; CLK      ;
; 14.552 ns ; 15.000 ns    ; 0.448 ns   ; TimeClr    ; Cnts[1]~reg0   ; CLK      ;
; 14.552 ns ; 15.000 ns    ; 0.448 ns   ; TimeClr    ; Cnts[0]~reg0   ; CLK      ;
+-----------+--------------+------------+------------+----------------+----------+


+----------------------------------------------------------------------------+
; tco                                                                        ;
+----------+--------------+------------+--------------+---------+------------+
; Slack    ; Required tco ; Actual tco ; From         ; To      ; From Clock ;
+----------+--------------+------------+--------------+---------+------------+
; 4.882 ns ; 15.000 ns    ; 10.118 ns  ; Cnts[4]~reg0 ; Cnts[4] ; CLK        ;
; 4.915 ns ; 15.000 ns    ; 10.085 ns  ; Cnts[6]~reg0 ; Cnts[6] ; CLK        ;
; 6.616 ns ; 15.000 ns    ; 8.384 ns   ; Cnts[3]~reg0 ; Cnts[3] ; CLK        ;
; 6.709 ns ; 15.000 ns    ; 8.291 ns   ; Cnts[0]~reg0 ; Cnts[0] ; CLK        ;
; 7.082 ns ; 15.000 ns    ; 7.918 ns   ; Cnts[7]~reg0 ; Cnts[7] ; CLK        ;
; 7.272 ns ; 15.000 ns    ; 7.728 ns   ; Cnts[2]~reg0 ; Cnts[2] ; CLK        ;
; 7.509 ns ; 15.000 ns    ; 7.491 ns   ; Cnts[1]~reg0 ; Cnts[1] ; CLK        ;
; 8.118 ns ; 15.000 ns    ; 6.882 ns   ; Cnts[5]~reg0 ; Cnts[5] ; CLK        ;
+----------+--------------+------------+--------------+---------+------------+


+----------------------------------------------------------------------------------+
; th                                                                               ;
+---------------+-------------+-----------+------------+----------------+----------+
; Minimum Slack ; Required th ; Actual th ; From       ; To             ; To Clock ;
+---------------+-------------+-----------+------------+----------------+----------+
; N/A           ; None        ; 0.047 ns  ; TimeClr    ; Cnts[0]~reg0   ; CLK      ;
; N/A           ; None        ; 0.047 ns  ; TimeClr    ; Cnts[1]~reg0   ; CLK      ;
; N/A           ; None        ; 0.047 ns  ; TimeClr    ; Cnts[2]~reg0   ; CLK      ;
; N/A           ; None        ; 0.047 ns  ; TimeClr    ; Cnts[3]~reg0   ; CLK      ;
; N/A           ; None        ; 0.047 ns  ; TimeClr    ; Cnts[4]~reg0   ; CLK      ;
; N/A           ; None        ; 0.047 ns  ; TimeClr    ; Cnts[5]~reg0   ; CLK      ;
; N/A           ; None        ; 0.047 ns  ; TimeClr    ; Cnts[6]~reg0   ; CLK      ;
; N/A           ; None        ; 0.047 ns  ; TimeClr    ; Cnts[7]~reg0   ; CLK      ;
; N/A           ; None        ; -4.176 ns ; PA_Reset   ; Cnts[0]~reg0   ; CLK      ;
; N/A           ; None        ; -5.082 ns ; TimeEnable ; Cnts[0]~reg0   ; CLK      ;
; N/A           ; None        ; -5.569 ns ; PA_Reset   ; Cnts[1]~reg0   ; CLK      ;
; N/A           ; None        ; -5.708 ns ; PA_Reset   ; Cnts[2]~reg0   ; CLK      ;
; N/A           ; None        ; -5.847 ns ; PA_Reset   ; Cnts[3]~reg0   ; CLK      ;
; N/A           ; None        ; -5.986 ns ; PA_Reset   ; Cnts[4]~reg0   ; CLK      ;
; N/A           ; None        ; -6.125 ns ; PA_Reset   ; Cnts[5]~reg0   ; CLK      ;
; N/A           ; None        ; -6.264 ns ; PA_Reset   ; Cnts[6]~reg0   ; CLK      ;
; N/A           ; None        ; -6.403 ns ; PA_Reset   ; Cnts[7]~reg0   ; CLK      ;
; N/A           ; None        ; -6.475 ns ; TimeEnable ; Cnts[1]~reg0   ; CLK      ;
; N/A           ; None        ; -6.614 ns ; TimeEnable ; Cnts[2]~reg0   ; CLK      ;
; N/A           ; None        ; -6.753 ns ; TimeEnable ; Cnts[3]~reg0   ; CLK      ;
; N/A           ; None        ; -6.892 ns ; TimeEnable ; Cnts[4]~reg0   ; CLK      ;
; N/A           ; None        ; -6.963 ns ; Disc_In    ; Disc_In_Vec[0] ; CLK      ;
; N/A           ; None        ; -7.031 ns ; TimeEnable ; Cnts[5]~reg0   ; CLK      ;
; N/A           ; None        ; -7.170 ns ; TimeEnable ; Cnts[6]~reg0   ; CLK      ;
; N/A           ; None        ; -7.309 ns ; TimeEnable ; Cnts[7]~reg0   ; CLK      ;
+---------------+-------------+-----------+------------+----------------+----------+


+-----------------------------------------------------------------------------------------+
; Minimum tco                                                                             ;
+---------------+------------------+----------------+--------------+---------+------------+
; Minimum Slack ; Required Min tco ; Actual Min tco ; From         ; To      ; From Clock ;
+---------------+------------------+----------------+--------------+---------+------------+
; N/A           ; None             ; 6.882 ns       ; Cnts[5]~reg0 ; Cnts[5] ; CLK        ;
; N/A           ; None             ; 7.491 ns       ; Cnts[1]~reg0 ; Cnts[1] ; CLK        ;
; N/A           ; None             ; 7.728 ns       ; Cnts[2]~reg0 ; Cnts[2] ; CLK        ;
; N/A           ; None             ; 7.918 ns       ; Cnts[7]~reg0 ; Cnts[7] ; CLK        ;
; N/A           ; None             ; 8.291 ns       ; Cnts[0]~reg0 ; Cnts[0] ; CLK        ;
; N/A           ; None             ; 8.384 ns       ; Cnts[3]~reg0 ; Cnts[3] ; CLK        ;
; N/A           ; None             ; 10.085 ns      ; Cnts[6]~reg0 ; Cnts[6] ; CLK        ;
; N/A           ; None             ; 10.118 ns      ; Cnts[4]~reg0 ; Cnts[4] ; CLK        ;
+---------------+------------------+----------------+--------------+---------+------------+


+--------------------------+
; Timing Analyzer Messages ;
+--------------------------+
Info: *******************************************************************
Info: Running Quartus II Timing Analyzer
    Info: Version 5.1 Build 216 03/06/2006 Service Pack 2 SJ Full Version
    Info: Processing started: Mon Mar 27 10:03:38 2006
Info: Command: quartus_tan --read_settings_files=off --write_settings_files=off fir_DiscCnts -c fir_disccnts
Info: Started post-fitting delay annotation
Info: Delay annotation completed successfully
Warning: Found pins functioning as undefined clocks and/or memory enables
    Info: Assuming node "CLK" is an undefined clock
Info: Slack time is 42.712 ns for clock "CLK" between source register "Cnts[7]~reg0" and destination register "Cnts[7]~reg0"
    Info: Fmax is 137.21 MHz (period= 7.288 ns)
    Info: + Largest register to register requirement is 49.453 ns
        Info: + Setup relationship between source and destination is 50.000 ns
            Info: + Latch edge is 50.000 ns
                Info: Clock period of Destination clock "CLK" is 50.000 ns with  offset of 0.000 ns and duty cycle of 50
                Info: Multicycle Setup factor for Destination register is 1
            Info: - Launch edge is 0.000 ns
                Info: Clock period of Source clock "CLK" is 50.000 ns with  offset of 0.000 ns and duty cycle of 50
                Info: Multicycle Setup factor for Source register is 1
        Info: + Largest clock skew is 0.000 ns
            Info: + Shortest clock path from clock "CLK" to destination register is 3.374 ns
                Info: 1: + IC(0.000 ns) + CELL(1.586 ns) = 1.586 ns; Loc. = PIN_154; Fanout = 10; CLK Node = 'CLK'
                Info: 2: + IC(1.788 ns) + CELL(0.000 ns) = 3.374 ns; Loc. = LC10_2_A1; Fanout = 3; REG Node = 'Cnts[7]~reg0'
                Info: Total cell delay = 1.586 ns ( 47.01 % )
                Info: Total interconnect delay = 1.788 ns ( 52.99 % )
            Info: - Longest clock path from clock "CLK" to source register is 3.374 ns
                Info: 1: + IC(0.000 ns) + CELL(1.586 ns) = 1.586 ns; Loc. = PIN_154; Fanout = 10; CLK Node = 'CLK'
                Info: 2: + IC(1.788 ns) + CELL(0.000 ns) = 3.374 ns; Loc. = LC10_2_A1; Fanout = 3; REG Node = 'Cnts[7]~reg0'
                Info: Total cell delay = 1.586 ns ( 47.01 % )
                Info: Total interconnect delay = 1.788 ns ( 52.99 % )
        Info: - Micro clock to output delay of source is 0.384 ns
        Info: - Micro setup delay of destination is 0.163 ns
    Info: - Longest register to register delay is 6.741 ns
        Info: 1: + IC(0.000 ns) + CELL(0.194 ns) = 0.194 ns; Loc. = LC10_2_A1; Fanout = 3; REG Node = 'Cnts[7]~reg0'
        Info: 2: + IC(0.982 ns) + CELL(0.958 ns) = 2.134 ns; Loc. = LC2_2_A1; Fanout = 1; COMB Node = 'Equal~80'
        Info: 3: + IC(0.249 ns) + CELL(1.056 ns) = 3.439 ns; Loc. = LC4_1_A1; Fanout = 2; COMB Node = 'clock_proc~2'
        Info: 4: + IC(0.249 ns) + CELL(1.348 ns) = 5.036 ns; Loc. = LC3_2_A1; Fanout = 2; COMB Node = 'Cnts[0]~73'
        Info: 5: + IC(0.000 ns) + CELL(0.139 ns) = 5.175 ns; Loc. = LC4_2_A1; Fanout = 2; COMB Node = 'Cnts[1]~76'
        Info: 6: + IC(0.000 ns) + CELL(0.139 ns) = 5.314 ns; Loc. = LC5_2_A1; Fanout = 2; COMB Node = 'Cnts[2]~79'
        Info: 7: + IC(0.000 ns) + CELL(0.139 ns) = 5.453 ns; Loc. = LC6_2_A1; Fanout = 2; COMB Node = 'Cnts[3]~82'
        Info: 8: + IC(0.000 ns) + CELL(0.139 ns) = 5.592 ns; Loc. = LC7_2_A1; Fanout = 2; COMB Node = 'Cnts[4]~85'
        Info: 9: + IC(0.000 ns) + CELL(0.139 ns) = 5.731 ns; Loc. = LC8_2_A1; Fanout = 2; COMB Node = 'Cnts[5]~88'
        Info: 10: + IC(0.000 ns) + CELL(0.139 ns) = 5.870 ns; Loc. = LC9_2_A1; Fanout = 1; COMB Node = 'Cnts[6]~91'
        Info: 11: + IC(0.000 ns) + CELL(0.871 ns) = 6.741 ns; Loc. = LC10_2_A1; Fanout = 3; REG Node = 'Cnts[7]~reg0'
        Info: Total cell delay = 5.261 ns ( 78.04 % )
        Info: Total interconnect delay = 1.480 ns ( 21.96 % )
Info: Minimum slack time is 1.202 ns for clock "CLK" between source register "Disc_In_Vec[0]" and destination register "Disc_In_Vec[1]"
    Info: + Shortest register to register delay is 1.150 ns
        Info: 1: + IC(0.000 ns) + CELL(0.194 ns) = 0.194 ns; Loc. = LC3_1_A1; Fanout = 2; REG Node = 'Disc_In_Vec[0]'
        Info: 2: + IC(0.252 ns) + CELL(0.704 ns) = 1.150 ns; Loc. = LC7_1_A1; Fanout = 1; REG Node = 'Disc_In_Vec[1]'
        Info: Total cell delay = 0.898 ns ( 78.09 % )
        Info: Total interconnect delay = 0.252 ns ( 21.91 % )
    Info: - Smallest register to register requirement is -0.052 ns
        Info: + Hold relationship between source and destination is 0.000 ns
            Info: + Latch edge is 0.000 ns
                Info: Clock period of Destination clock "CLK" is 50.000 ns with  offset of 0.000 ns and duty cycle of 50
                Info: Multicycle Setup factor for Destination register is 1
                Info: Multicycle Hold factor for Destination register is 1
            Info: - Launch edge is 0.000 ns
                Info: Clock period of Source clock "CLK" is 50.000 ns with  offset of 0.000 ns and duty cycle of 50
                Info: Multicycle Setup factor for Source register is 1
                Info: Multicycle Hold factor for Source register is 1
        Info: + Smallest clock skew is 0.000 ns
            Info: + Longest clock path from clock "CLK" to destination register is 3.374 ns
                Info: 1: + IC(0.000 ns) + CELL(1.586 ns) = 1.586 ns; Loc. = PIN_154; Fanout = 10; CLK Node = 'CLK'
                Info: 2: + IC(1.788 ns) + CELL(0.000 ns) = 3.374 ns; Loc. = LC7_1_A1; Fanout = 1; REG Node = 'Disc_In_Vec[1]'
                Info: Total cell delay = 1.586 ns ( 47.01 % )
                Info: Total interconnect delay = 1.788 ns ( 52.99 % )
            Info: - Shortest clock path from clock "CLK" to source register is 3.374 ns
                Info: 1: + IC(0.000 ns) + CELL(1.586 ns) = 1.586 ns; Loc. = PIN_154; Fanout = 10; CLK Node = 'CLK'
                Info: 2: + IC(1.788 ns) + CELL(0.000 ns) = 3.374 ns; Loc. = LC3_1_A1; Fanout = 2; REG Node = 'Disc_In_Vec[0]'
                Info: Total cell delay = 1.586 ns ( 47.01 % )
                Info: Total interconnect delay = 1.788 ns ( 52.99 % )
        Info: - Micro clock to output delay of source is 0.384 ns
        Info: + Micro hold delay of destination is 0.332 ns
Info: Slack time is 7.196 ns for clock "CLK" between source pin "TimeEnable" and destination register "Cnts[7]~reg0"
    Info: + tsu requirement for source pin and destination register is 15.000 ns
    Info: - tsu from clock to input pin is 7.804 ns
        Info: + Longest pin to register delay is 11.015 ns
            Info: 1: + IC(0.000 ns) + CELL(1.959 ns) = 1.959 ns; Loc. = PIN_173; Fanout = 1; PIN Node = 'TimeEnable'
            Info: 2: + IC(4.633 ns) + CELL(0.430 ns) = 7.022 ns; Loc. = LC5_1_A1; Fanout = 1; COMB Node = 'clock_proc~29'
            Info: 3: + IC(0.261 ns) + CELL(0.430 ns) = 7.713 ns; Loc. = LC4_1_A1; Fanout = 2; COMB Node = 'clock_proc~2'
            Info: 4: + IC(0.249 ns) + CELL(1.348 ns) = 9.310 ns; Loc. = LC3_2_A1; Fanout = 2; COMB Node = 'Cnts[0]~73'
            Info: 5: + IC(0.000 ns) + CELL(0.139 ns) = 9.449 ns; Loc. = LC4_2_A1; Fanout = 2; COMB Node = 'Cnts[1]~76'
            Info: 6: + IC(0.000 ns) + CELL(0.139 ns) = 9.588 ns; Loc. = LC5_2_A1; Fanout = 2; COMB Node = 'Cnts[2]~79'
            Info: 7: + IC(0.000 ns) + CELL(0.139 ns) = 9.727 ns; Loc. = LC6_2_A1; Fanout = 2; COMB Node = 'Cnts[3]~82'
            Info: 8: + IC(0.000 ns) + CELL(0.139 ns) = 9.866 ns; Loc. = LC7_2_A1; Fanout = 2; COMB Node = 'Cnts[4]~85'
            Info: 9: + IC(0.000 ns) + CELL(0.139 ns) = 10.005 ns; Loc. = LC8_2_A1; Fanout = 2; COMB Node = 'Cnts[5]~88'
            Info: 10: + IC(0.000 ns) + CELL(0.139 ns) = 10.144 ns; Loc. = LC9_2_A1; Fanout = 1; COMB Node = 'Cnts[6]~91'
            Info: 11: + IC(0.000 ns) + CELL(0.871 ns) = 11.015 ns; Loc. = LC10_2_A1; Fanout = 3; REG Node = 'Cnts[7]~reg0'
            Info: Total cell delay = 5.872 ns ( 53.31 % )
            Info: Total interconnect delay = 5.143 ns ( 46.69 % )
        Info: + Micro setup delay of destination is 0.163 ns
        Info: - Shortest clock path from clock "CLK" to destination register is 3.374 ns
            Info: 1: + IC(0.000 ns) + CELL(1.586 ns) = 1.586 ns; Loc. = PIN_154; Fanout = 10; CLK Node = 'CLK'
            Info: 2: + IC(1.788 ns) + CELL(0.000 ns) = 3.374 ns; Loc. = LC10_2_A1; Fanout = 3; REG Node = 'Cnts[7]~reg0'
            Info: Total cell delay = 1.586 ns ( 47.01 % )
            Info: Total interconnect delay = 1.788 ns ( 52.99 % )
Info: Slack time is 4.882 ns for clock "CLK" between source register "Cnts[4]~reg0" and destination pin "Cnts[4]"
    Info: + tco requirement for source register and destination pin is 15.000 ns
    Info: - tco from clock to output pin is 10.118 ns
        Info: + Longest clock path from clock "CLK" to source register is 3.374 ns
            Info: 1: + IC(0.000 ns) + CELL(1.586 ns) = 1.586 ns; Loc. = PIN_154; Fanout = 10; CLK Node = 'CLK'
            Info: 2: + IC(1.788 ns) + CELL(0.000 ns) = 3.374 ns; Loc. = LC7_2_A1; Fanout = 4; REG Node = 'Cnts[4]~reg0'
            Info: Total cell delay = 1.586 ns ( 47.01 % )
            Info: Total interconnect delay = 1.788 ns ( 52.99 % )
        Info: + Micro clock to output delay of source is 0.384 ns
        Info: + Longest register to pin delay is 6.360 ns
            Info: 1: + IC(0.000 ns) + CELL(0.194 ns) = 0.194 ns; Loc. = LC7_2_A1; Fanout = 4; REG Node = 'Cnts[4]~reg0'
            Info: 2: + IC(3.515 ns) + CELL(2.651 ns) = 6.360 ns; Loc. = PIN_204; Fanout = 0; PIN Node = 'Cnts[4]'
            Info: Total cell delay = 2.845 ns ( 44.73 % )
            Info: Total interconnect delay = 3.515 ns ( 55.27 % )
Info: th for register "Cnts[0]~reg0" (data pin = "TimeClr", clock pin = "CLK") is 0.047 ns
    Info: + Longest clock path from clock "CLK" to destination register is 3.374 ns
        Info: 1: + IC(0.000 ns) + CELL(1.586 ns) = 1.586 ns; Loc. = PIN_154; Fanout = 10; CLK Node = 'CLK'
        Info: 2: + IC(1.788 ns) + CELL(0.000 ns) = 3.374 ns; Loc. = LC3_2_A1; Fanout = 4; REG Node = 'Cnts[0]~reg0'
        Info: Total cell delay = 1.586 ns ( 47.01 % )
        Info: Total interconnect delay = 1.788 ns ( 52.99 % )
    Info: + Micro hold delay of destination is 0.332 ns
    Info: - Shortest pin to register delay is 3.659 ns
        Info: 1: + IC(0.000 ns) + CELL(1.661 ns) = 1.661 ns; Loc. = PIN_209; Fanout = 8; PIN Node = 'TimeClr'
        Info: 2: + IC(1.401 ns) + CELL(0.597 ns) = 3.659 ns; Loc. = LC3_2_A1; Fanout = 4; REG Node = 'Cnts[0]~reg0'
        Info: Total cell delay = 2.258 ns ( 61.71 % )
        Info: Total interconnect delay = 1.401 ns ( 38.29 % )
Info: Minimum tco from clock "CLK" to destination pin "Cnts[5]" through register "Cnts[5]~reg0" is 6.882 ns
    Info: + Shortest clock path from clock "CLK" to source register is 3.374 ns
        Info: 1: + IC(0.000 ns) + CELL(1.586 ns) = 1.586 ns; Loc. = PIN_154; Fanout = 10; CLK Node = 'CLK'
        Info: 2: + IC(1.788 ns) + CELL(0.000 ns) = 3.374 ns; Loc. = LC8_2_A1; Fanout = 4; REG Node = 'Cnts[5]~reg0'
        Info: Total cell delay = 1.586 ns ( 47.01 % )
        Info: Total interconnect delay = 1.788 ns ( 52.99 % )
    Info: + Micro clock to output delay of source is 0.384 ns
    Info: + Shortest register to pin delay is 3.124 ns
        Info: 1: + IC(0.000 ns) + CELL(0.194 ns) = 0.194 ns; Loc. = LC8_2_A1; Fanout = 4; REG Node = 'Cnts[5]~reg0'
        Info: 2: + IC(0.279 ns) + CELL(2.651 ns) = 3.124 ns; Loc. = PIN_182; Fanout = 0; PIN Node = 'Cnts[5]'
        Info: Total cell delay = 2.845 ns ( 91.07 % )
        Info: Total interconnect delay = 0.279 ns ( 8.93 % )
Info: All timing requirements were met. See Report window for more details.
Info: Quartus II Timing Analyzer was successful. 0 errors, 1 warning
    Info: Processing ended: Mon Mar 27 10:03:41 2006
    Info: Elapsed time: 00:00:04


