EDA Netlist Writer report for fir_disccnts
Mon Mar 27 10:03:44 2006
Version 5.1 Build 216 03/06/2006 Service Pack 2 SJ Full Version


---------------------
; Table of Contents ;
---------------------
  1. Legal Notice
  2. EDA Netlist Writer Summary
  3. Simulation Tool Settings
  4. Simulation Tool Generated Files
  5. EDA Netlist Writer Messages



----------------
; Legal Notice ;
----------------
Copyright (C) 1991-2006 Altera Corporation
Your use of Altera Corporation's design tools, logic functions 
and other software and tools, and its AMPP partner logic 
functions, and any output files any of the foregoing 
(including device programming or simulation files), and any 
associated documentation or information are expressly subject 
to the terms and conditions of the Altera Program License 
Subscription Agreement, Altera MegaCore Function License 
Agreement, or other applicable license agreement, including, 
without limitation, that your use is for the sole purpose of 
programming logic devices manufactured by Altera and sold by 
Altera or its authorized distributors.  Please refer to the 
applicable agreement for further details.



+-------------------------------------------------------------------+
; EDA Netlist Writer Summary                                        ;
+---------------------------+---------------------------------------+
; EDA Netlist Writer Status ; Successful - Mon Mar 27 10:03:44 2006 ;
; Revision Name             ; fir_disccnts                          ;
; Top-level Entity Name     ; fir_disccnts                          ;
; Family                    ; APEX20KE                              ;
; Simulation Tool Writer    ; Successful                            ;
+---------------------------+---------------------------------------+


+------------------------------------------------------------------------------------------------------+
; Simulation Tool Settings                                                                             ;
+------------------------------------------------------+-----------------------------------------------+
; Option                                               ; Setting                                       ;
+------------------------------------------------------+-----------------------------------------------+
; Tool Name                                            ; ModelSim-Altera (VHDL output from Quartus II) ;
; Generate Netlist for Functional Simulation Only      ; Off                                           ;
; Time scale                                           ; 1 ps                                          ;
; Truncate long hierarchy paths                        ; Off                                           ;
; Map illegal HDL characters                           ; On                                            ;
; Flatten buses into individual nodes                  ; Off                                           ;
; Maintain hierarchy                                   ; Off                                           ;
; Bring out device-wide set/reset signals as ports     ; Off                                           ;
; Output Excalibur stripe as a single module or entity ; Off                                           ;
; Enable glitch filtering                              ; Off                                           ;
+------------------------------------------------------+-----------------------------------------------+


+----------------------------------------------------------------------------------------------------+
; Simulation Tool Generated Files                                                                    ;
+----------------------------------------------------------------------------------------------------+
; Generated Files                                                                                    ;
+----------------------------------------------------------------------------------------------------+
; H:/Projects/DPP-II/p19700-1/Software/ep99840/fir_discCnts/simulation/modelsim/fir_disccnts.vho     ;
; H:/Projects/DPP-II/p19700-1/Software/ep99840/fir_discCnts/simulation/modelsim/fir_disccnts_vhd.sdo ;
+----------------------------------------------------------------------------------------------------+


+-----------------------------+
; EDA Netlist Writer Messages ;
+-----------------------------+
Info: *******************************************************************
Info: Running Quartus II EDA Netlist Writer
    Info: Version 5.1 Build 216 03/06/2006 Service Pack 2 SJ Full Version
    Info: Processing started: Mon Mar 27 10:03:43 2006
Info: Command: quartus_eda --read_settings_files=off --write_settings_files=off fir_DiscCnts -c fir_disccnts
Info: Generated files "fir_disccnts.vho" and "fir_disccnts_vhd.sdo" in directory "H:/Projects/DPP-II/p19700-1/Software/ep99840/fir_discCnts/simulation/modelsim/" for EDA simulation tool
Info: Quartus II EDA Netlist Writer was successful. 0 errors, 0 warnings
    Info: Processing ended: Mon Mar 27 10:03:44 2006
    Info: Elapsed time: 00:00:02


