Fitter report for dpram
Wed Jan 04 10:58:08 2006
Version 5.1 Build 176 10/26/2005 Service Pack 0.15 SJ Full Version


---------------------
; Table of Contents ;
---------------------
  1. Legal Notice
  2. Fitter Summary
  3. Fitter Settings
  4. Fitter Device Options
  5. Fitter Equations
  6. Input Pins
  7. Output Pins
  8. All Package Pins
  9. Control Signals
 10. Global & Other Fast Signals
 11. Cascade Chains
 12. Embedded Cells
 13. Non-Global High Fan-Out Signals
 14. Local Routing Interconnect
 15. MegaLAB Interconnect
 16. LAB External Interconnect
 17. MegaLAB Usage Summary
 18. Row Interconnect
 19. LAB Column Interconnect
 20. ESB Column Interconnect
 21. Fitter Resource Usage Summary
 22. Fitter Resource Utilization by Entity
 23. LogicLock Region Resource Usage
 24. Delay Chain Summary
 25. I/O Bank Usage
 26. Fitter RAM Summary
 27. Pin-Out File
 28. Fitter Messages



----------------
; Legal Notice ;
----------------
Copyright (C) 1991-2005 Altera Corporation
Your use of Altera Corporation's design tools, logic functions 
and other software and tools, and its AMPP partner logic 
functions, and any output files any of the foregoing 
(including device programming or simulation files), and any 
associated documentation or information are expressly subject 
to the terms and conditions of the Altera Program License 
Subscription Agreement, Altera MegaCore Function License 
Agreement, or other applicable license agreement, including, 
without limitation, that your use is for the sole purpose of 
programming logic devices manufactured by Altera and sold by 
Altera or its authorized distributors.  Please refer to the 
applicable agreement for further details.



+--------------------------------------------------------------------------+
; Fitter Summary                                                           ;
+-----------------------+--------------------------------------------------+
; Fitter Status         ; Successful - Wed Jan 04 10:58:08 2006            ;
; Quartus II Version    ; 5.1 Build 176 10/26/2005 SP 0.15 SJ Full Version ;
; Revision Name         ; dpram                                            ;
; Top-level Entity Name ; DPRAM                                            ;
; Family                ; APEX20KE                                         ;
; Device                ; EP20K30ETC144-2X                                 ;
; Timing Models         ; Final                                            ;
; Total logic elements  ; 102 / 1,200 ( 9 % )                              ;
; Total pins            ; 92 / 92 ( 100 % )                                ;
; Total virtual pins    ; 0                                                ;
; Total memory bits     ; 16,384 / 24,576 ( 67 % )                         ;
; Total PLLs            ; 0 / 2 ( 0 % )                                    ;
+-----------------------+--------------------------------------------------+


+------------------------------------------------------------------------------------------------+
; Fitter Settings                                                                                ;
+------------------------------------------------------+--------------------+--------------------+
; Option                                               ; Setting            ; Default Value      ;
+------------------------------------------------------+--------------------+--------------------+
; Device                                               ; EP20K30ETC144-2X   ;                    ;
; Optimize IOC Register Placement for Timing           ; Off                ; On                 ;
; Fitter Effort                                        ; Fast Fit           ; Auto Fit           ;
; SignalProbe signals routed during normal compilation ; Off                ; Off                ;
; Use smart compilation                                ; Off                ; Off                ;
; Router Timing Optimization Level                     ; Normal             ; Normal             ;
; Placement Effort Multiplier                          ; 1.0                ; 1.0                ;
; Router Effort Multiplier                             ; 1.0                ; 1.0                ;
; Optimize Timing                                      ; Normal compilation ; Normal compilation ;
; Limit to One Fitting Attempt                         ; Off                ; Off                ;
; Final Placement Optimizations                        ; Automatically      ; Automatically      ;
; Fitter Aggressive Routability Optimizations          ; Automatically      ; Automatically      ;
; Fitter Initial Placement Seed                        ; 1                  ; 1                  ;
; Slow Slew Rate                                       ; Off                ; Off                ;
; PCI I/O                                              ; Off                ; Off                ;
; Turbo Bit                                            ; On                 ; On                 ;
; Auto Global Memory Control Signals                   ; Off                ; Off                ;
; Auto Global Clock                                    ; On                 ; On                 ;
; Auto Global Output Enable                            ; On                 ; On                 ;
; Auto Global Register Control Signals                 ; On                 ; On                 ;
+------------------------------------------------------+--------------------+--------------------+


+-------------------------------------------------------------------------+
; Fitter Device Options                                                   ;
+----------------------------------------------+--------------------------+
; Option                                       ; Setting                  ;
+----------------------------------------------+--------------------------+
; Enable user-supplied start-up clock (CLKUSR) ; Off                      ;
; Enable device-wide reset (DEV_CLRn)          ; Off                      ;
; Enable device-wide output enable (DEV_OE)    ; Off                      ;
; Enable INIT_DONE output                      ; Off                      ;
; Configuration scheme                         ; Passive Serial           ;
; Reserve all unused pins                      ; As output driving ground ;
; Base pin-out file on sameframe device        ; Off                      ;
+----------------------------------------------+--------------------------+


+------------------+
; Fitter Equations ;
+------------------+
The equations can be found in F:/Projects/DPP-II/p19700-1/Software/ep99980/dpram/dpram.fit.eqn.


+------------------------------------------------------------------------------------------------------------------------------------------------------------------------------------------------------------+
; Input Pins                                                                                                                                                                                                 ;
+------------+-------+-------------+--------------+------+---------+--------+--------------+-------------------------+---------------+-----------------+---------------+----------------------+--------------+
; Name       ; Pin # ; MegaLAB Row ; MegaLAB Col. ; Col. ; Fan-Out ; Global ; I/O Register ; Use Local Routing Input ; Power Up High ; PCI I/O Enabled ; Single-Pin CE ; FastRow Interconnect ; I/O Standard ;
+------------+-------+-------------+--------------+------+---------+--------+--------------+-------------------------+---------------+-----------------+---------------+----------------------+--------------+
; clk_a      ; 95    ; --          ; --           ; --   ; 97      ; yes    ; no           ; no                      ; no            ; no              ; no            ; no                   ; LVTTL        ;
; clk_b      ; 23    ; --          ; --           ; --   ; 33      ; yes    ; no           ; no                      ; no            ; no              ; no            ; no                   ; LVTTL        ;
; addr_a[0]  ; 124   ; --          ; --           ; --   ; 17      ; no     ; no           ; no                      ; no            ; no              ; no            ; no                   ; LVTTL        ;
; addr_a[1]  ; 53    ; --          ; --           ; --   ; 17      ; no     ; no           ; no                      ; no            ; no              ; no            ; no                   ; LVTTL        ;
; addr_a[2]  ; 56    ; --          ; --           ; --   ; 17      ; no     ; no           ; no                      ; no            ; no              ; no            ; no                   ; LVTTL        ;
; addr_a[3]  ; 64    ; --          ; 1            ; 7    ; 17      ; no     ; no           ; no                      ; no            ; no              ; no            ; no                   ; LVTTL        ;
; addr_a[4]  ; 38    ; --          ; 2            ; 2    ; 17      ; no     ; no           ; no                      ; no            ; no              ; no            ; no                   ; LVTTL        ;
; addr_a[5]  ; 62    ; --          ; 1            ; 8    ; 17      ; no     ; no           ; no                      ; no            ; no              ; no            ; no                   ; LVTTL        ;
; addr_a[6]  ; 136   ; --          ; 2            ; 6    ; 17      ; no     ; no           ; no                      ; no            ; no              ; no            ; no                   ; LVTTL        ;
; addr_a[7]  ; 143   ; --          ; 2            ; 1    ; 17      ; no     ; no           ; no                      ; no            ; no              ; no            ; no                   ; LVTTL        ;
; addr_a[8]  ; 66    ; --          ; 1            ; 5    ; 17      ; no     ; no           ; no                      ; no            ; no              ; no            ; no                   ; LVTTL        ;
; addr_b[0]  ; 109   ; --          ; 1            ; 1    ; 17      ; no     ; no           ; no                      ; no            ; no              ; no            ; no                   ; LVTTL        ;
; addr_b[1]  ; 118   ; --          ; 1            ; 8    ; 17      ; no     ; no           ; no                      ; no            ; no              ; no            ; no                   ; LVTTL        ;
; addr_b[2]  ; 63    ; --          ; 1            ; 7    ; 17      ; no     ; no           ; no                      ; no            ; no              ; no            ; no                   ; LVTTL        ;
; addr_b[3]  ; 113   ; --          ; 1            ; 5    ; 17      ; no     ; no           ; no                      ; no            ; no              ; no            ; no                   ; LVTTL        ;
; addr_b[4]  ; 135   ; --          ; 2            ; 6    ; 17      ; no     ; no           ; no                      ; no            ; no              ; no            ; no                   ; LVTTL        ;
; addr_b[5]  ; 115   ; --          ; 1            ; 6    ; 17      ; no     ; no           ; no                      ; no            ; no              ; no            ; no                   ; LVTTL        ;
; addr_b[6]  ; 137   ; --          ; 2            ; 5    ; 17      ; no     ; no           ; no                      ; no            ; no              ; no            ; no                   ; LVTTL        ;
; addr_b[7]  ; 111   ; --          ; 1            ; 3    ; 17      ; no     ; no           ; no                      ; no            ; no              ; no            ; no                   ; LVTTL        ;
; addr_b[8]  ; 139   ; --          ; 2            ; 3    ; 17      ; no     ; no           ; no                      ; no            ; no              ; no            ; no                   ; LVTTL        ;
; IMR        ; 127   ; --          ; --           ; --   ; 66      ; yes    ; no           ; no                      ; no            ; no              ; no            ; no                   ; LVTTL        ;
; data_b[0]  ; 26    ;  E          ; --           ; --   ; 1       ; no     ; no           ; no                      ; no            ; no              ; no            ; no                   ; LVTTL        ;
; wren_b     ; 92    ; --          ; --           ; --   ; 26      ; no     ; no           ; no                      ; no            ; no              ; no            ; no                   ; LVTTL        ;
; data_a[0]  ; 79    ;  E          ; --           ; --   ; 1       ; no     ; no           ; no                      ; no            ; no              ; no            ; no                   ; LVTTL        ;
; wren_a     ; 20    ; --          ; --           ; --   ; 26      ; no     ; no           ; no                      ; no            ; no              ; no            ; no                   ; LVTTL        ;
; data_b[1]  ; 133   ; --          ; 2            ; 7    ; 1       ; no     ; no           ; no                      ; no            ; no              ; no            ; no                   ; LVTTL        ;
; data_a[1]  ; 80    ;  E          ; --           ; --   ; 1       ; no     ; no           ; no                      ; no            ; no              ; no            ; no                   ; LVTTL        ;
; data_b[2]  ; 43    ; --          ; 2            ; 5    ; 1       ; no     ; no           ; no                      ; no            ; no              ; no            ; no                   ; LVTTL        ;
; data_a[2]  ; 10    ;  B          ; --           ; --   ; 1       ; no     ; no           ; no                      ; no            ; no              ; no            ; no                   ; LVTTL        ;
; data_b[3]  ; 65    ; --          ; 1            ; 6    ; 1       ; no     ; no           ; no                      ; no            ; no              ; no            ; no                   ; LVTTL        ;
; data_a[3]  ; 97    ;  B          ; --           ; --   ; 1       ; no     ; no           ; no                      ; no            ; no              ; no            ; no                   ; LVTTL        ;
; data_b[4]  ; 9     ;  B          ; --           ; --   ; 1       ; no     ; no           ; no                      ; no            ; no              ; no            ; no                   ; LVTTL        ;
; data_a[4]  ; 8     ;  B          ; --           ; --   ; 1       ; no     ; no           ; no                      ; no            ; no              ; no            ; no                   ; LVTTL        ;
; data_b[5]  ; 35    ;  F          ; --           ; --   ; 1       ; no     ; no           ; no                      ; no            ; no              ; no            ; no                   ; LVTTL        ;
; data_a[5]  ; 7     ;  A          ; --           ; --   ; 1       ; no     ; no           ; no                      ; no            ; no              ; no            ; no                   ; LVTTL        ;
; data_b[6]  ; 138   ; --          ; 2            ; 4    ; 1       ; no     ; no           ; no                      ; no            ; no              ; no            ; no                   ; LVTTL        ;
; data_a[6]  ; 110   ; --          ; 1            ; 2    ; 1       ; no     ; no           ; no                      ; no            ; no              ; no            ; no                   ; LVTTL        ;
; data_b[7]  ; 68    ; --          ; 1            ; 3    ; 1       ; no     ; no           ; no                      ; no            ; no              ; no            ; no                   ; LVTTL        ;
; data_a[7]  ; 104   ;  A          ; --           ; --   ; 1       ; no     ; no           ; no                      ; no            ; no              ; no            ; no                   ; LVTTL        ;
; data_b[8]  ; 3     ;  A          ; --           ; --   ; 1       ; no     ; no           ; no                      ; no            ; no              ; no            ; no                   ; LVTTL        ;
; data_a[8]  ; 14    ;  C          ; --           ; --   ; 1       ; no     ; no           ; no                      ; no            ; no              ; no            ; no                   ; LVTTL        ;
; data_b[9]  ; 105   ;  A          ; --           ; --   ; 1       ; no     ; no           ; no                      ; no            ; no              ; no            ; no                   ; LVTTL        ;
; data_a[9]  ; 71    ; --          ; 1            ; 1    ; 1       ; no     ; no           ; no                      ; no            ; no              ; no            ; no                   ; LVTTL        ;
; data_b[10] ; 70    ; --          ; 1            ; 2    ; 1       ; no     ; no           ; no                      ; no            ; no              ; no            ; no                   ; LVTTL        ;
; data_a[10] ; 142   ; --          ; 2            ; 2    ; 1       ; no     ; no           ; no                      ; no            ; no              ; no            ; no                   ; LVTTL        ;
; data_b[11] ; 11    ;  C          ; --           ; --   ; 1       ; no     ; no           ; no                      ; no            ; no              ; no            ; no                   ; LVTTL        ;
; data_a[11] ; 25    ;  D          ; --           ; --   ; 1       ; no     ; no           ; no                      ; no            ; no              ; no            ; no                   ; LVTTL        ;
; data_b[12] ; 122   ; --          ; 1            ; 10   ; 1       ; no     ; no           ; no                      ; no            ; no              ; no            ; no                   ; LVTTL        ;
; data_a[12] ; 15    ;  C          ; --           ; --   ; 1       ; no     ; no           ; no                      ; no            ; no              ; no            ; no                   ; LVTTL        ;
; data_b[13] ; 13    ;  C          ; --           ; --   ; 1       ; no     ; no           ; no                      ; no            ; no              ; no            ; no                   ; LVTTL        ;
; data_a[13] ; 27    ;  E          ; --           ; --   ; 1       ; no     ; no           ; no                      ; no            ; no              ; no            ; no                   ; LVTTL        ;
; data_b[14] ; 102   ;  A          ; --           ; --   ; 1       ; no     ; no           ; no                      ; no            ; no              ; no            ; no                   ; LVTTL        ;
; data_a[14] ; 6     ;  A          ; --           ; --   ; 1       ; no     ; no           ; no                      ; no            ; no              ; no            ; no                   ; LVTTL        ;
; data_b[15] ; 2     ;  A          ; --           ; --   ; 1       ; no     ; no           ; no                      ; no            ; no              ; no            ; no                   ; LVTTL        ;
; data_a[15] ; 41    ; --          ; 2            ; 4    ; 1       ; no     ; no           ; no                      ; no            ; no              ; no            ; no                   ; LVTTL        ;
+------------+-------+-------------+--------------+------+---------+--------+--------------+-------------------------+---------------+-----------------+---------------+----------------------+--------------+


+-----------------------------------------------------------------------------------------------------------------------------------------------------------------------------------------------------------------------------------+
; Output Pins                                                                                                                                                                                                                       ;
+--------------+-------+-------------+--------------+------+--------------+--------------------------+---------------+----------------+-----------------+---------------+---------------+------------+---------------+--------------+
; Name         ; Pin # ; MegaLAB Row ; MegaLAB Col. ; Col. ; I/O Register ; Use Local Routing Output ; Power Up High ; Slow Slew Rate ; PCI I/O Enabled ; Single-Pin OE ; Single-Pin CE ; Open Drain ; TRI Primitive ; I/O Standard ;
+--------------+-------+-------------+--------------+------+--------------+--------------------------+---------------+----------------+-----------------+---------------+---------------+------------+---------------+--------------+
; q_a[0]       ; 40    ; --          ; 2            ; 3    ; no           ; no                       ; no            ; no             ; no              ; no            ; no            ; no         ; no            ; LVTTL        ;
; q_a[1]       ; 31    ;  F          ; --           ; --   ; no           ; no                       ; no            ; no             ; no              ; no            ; no            ; no         ; no            ; LVTTL        ;
; q_a[2]       ; 24    ;  D          ; --           ; --   ; no           ; no                       ; no            ; no             ; no              ; no            ; no            ; no         ; no            ; LVTTL        ;
; q_a[3]       ; 76    ;  E          ; --           ; --   ; no           ; no                       ; no            ; no             ; no              ; no            ; no            ; no         ; no            ; LVTTL        ;
; q_a[4]       ; 75    ;  E          ; --           ; --   ; no           ; no                       ; no            ; no             ; no              ; no            ; no            ; no         ; no            ; LVTTL        ;
; q_a[5]       ; 140   ; --          ; 2            ; 3    ; no           ; no                       ; no            ; no             ; no              ; no            ; no            ; no         ; no            ; LVTTL        ;
; q_a[6]       ; 119   ; --          ; 1            ; 8    ; no           ; no                       ; no            ; no             ; no              ; no            ; no            ; no         ; no            ; LVTTL        ;
; q_a[7]       ; 130   ; --          ; 2            ; 10   ; no           ; no                       ; no            ; no             ; no              ; no            ; no            ; no         ; no            ; LVTTL        ;
; q_a[8]       ; 78    ;  E          ; --           ; --   ; no           ; no                       ; no            ; no             ; no              ; no            ; no            ; no         ; no            ; LVTTL        ;
; q_a[9]       ; 141   ; --          ; 2            ; 2    ; no           ; no                       ; no            ; no             ; no              ; no            ; no            ; no         ; no            ; LVTTL        ;
; q_a[10]      ; 67    ; --          ; 1            ; 4    ; no           ; no                       ; no            ; no             ; no              ; no            ; no            ; no         ; no            ; LVTTL        ;
; q_a[11]      ; 84    ;  D          ; --           ; --   ; no           ; no                       ; no            ; no             ; no              ; no            ; no            ; no         ; no            ; LVTTL        ;
; q_a[12]      ; 60    ; --          ; 1            ; 9    ; no           ; no                       ; no            ; no             ; no              ; no            ; no            ; no         ; no            ; LVTTL        ;
; q_a[13]      ; 59    ; --          ; 1            ; 10   ; no           ; no                       ; no            ; no             ; no              ; no            ; no            ; no         ; no            ; LVTTL        ;
; q_a[14]      ; 132   ; --          ; 2            ; 8    ; no           ; no                       ; no            ; no             ; no              ; no            ; no            ; no         ; no            ; LVTTL        ;
; q_a[15]      ; 131   ; --          ; 2            ; 9    ; no           ; no                       ; no            ; no             ; no              ; no            ; no            ; no         ; no            ; LVTTL        ;
; q_b[0]       ; 44    ; --          ; 2            ; 6    ; no           ; no                       ; no            ; no             ; no              ; no            ; no            ; no         ; no            ; LVTTL        ;
; q_b[1]       ; 32    ;  F          ; --           ; --   ; no           ; no                       ; no            ; no             ; no              ; no            ; no            ; no         ; no            ; LVTTL        ;
; q_b[2]       ; 39    ; --          ; 2            ; 2    ; no           ; no                       ; no            ; no             ; no              ; no            ; no            ; no         ; no            ; LVTTL        ;
; q_b[3]       ; 103   ;  A          ; --           ; --   ; no           ; no                       ; no            ; no             ; no              ; no            ; no            ; no         ; no            ; LVTTL        ;
; q_b[4]       ; 101   ;  B          ; --           ; --   ; no           ; no                       ; no            ; no             ; no              ; no            ; no            ; no         ; no            ; LVTTL        ;
; q_b[5]       ; 114   ; --          ; 1            ; 5    ; no           ; no                       ; no            ; no             ; no              ; no            ; no            ; no         ; no            ; LVTTL        ;
; q_b[6]       ; 98    ;  B          ; --           ; --   ; no           ; no                       ; no            ; no             ; no              ; no            ; no            ; no         ; no            ; LVTTL        ;
; q_b[7]       ; 120   ; --          ; 1            ; 9    ; no           ; no                       ; no            ; no             ; no              ; no            ; no            ; no         ; no            ; LVTTL        ;
; q_b[8]       ; 121   ; --          ; 1            ; 9    ; no           ; no                       ; no            ; no             ; no              ; no            ; no            ; no         ; no            ; LVTTL        ;
; q_b[9]       ; 112   ; --          ; 1            ; 4    ; no           ; no                       ; no            ; no             ; no              ; no            ; no            ; no         ; no            ; LVTTL        ;
; q_b[10]      ; 33    ;  F          ; --           ; --   ; no           ; no                       ; no            ; no             ; no              ; no            ; no            ; no         ; no            ; LVTTL        ;
; q_b[11]      ; 46    ; --          ; 2            ; 7    ; no           ; no                       ; no            ; no             ; no              ; no            ; no            ; no         ; no            ; LVTTL        ;
; q_b[12]      ; 30    ;  E          ; --           ; --   ; no           ; no                       ; no            ; no             ; no              ; no            ; no            ; no         ; no            ; LVTTL        ;
; q_b[13]      ; 29    ;  E          ; --           ; --   ; no           ; no                       ; no            ; no             ; no              ; no            ; no            ; no         ; no            ; LVTTL        ;
; q_b[14]      ; 117   ; --          ; 1            ; 7    ; no           ; no                       ; no            ; no             ; no              ; no            ; no            ; no         ; no            ; LVTTL        ;
; q_b[15]      ; 50    ; --          ; 2            ; 10   ; no           ; no                       ; no            ; no             ; no              ; no            ; no            ; no         ; no            ; LVTTL        ;
; state_str[0] ; 47    ; --          ; 2            ; 8    ; no           ; no                       ; no            ; no             ; no              ; no            ; no            ; no         ; no            ; LVTTL        ;
; state_str[1] ; 49    ; --          ; 2            ; 9    ; no           ; yes                      ; no            ; no             ; no              ; no            ; no            ; no         ; no            ; LVTTL        ;
; state_str[2] ; 48    ; --          ; 2            ; 8    ; no           ; yes                      ; no            ; no             ; no              ; no            ; no            ; no         ; no            ; LVTTL        ;
; OpCodeISR    ; 37    ; --          ; 2            ; 1    ; no           ; no                       ; no            ; no             ; no              ; no            ; no            ; no         ; no            ; LVTTL        ;
; state_str[3] ; 69    ; --          ; 1            ; 3    ; no           ; no                       ; no            ; no             ; no              ; no            ; no            ; no         ; no            ; LVTTL        ;
+--------------+-------+-------------+--------------+------+--------------+--------------------------+---------------+----------------+-----------------+---------------+---------------+------------+---------------+--------------+


+-------------------------------------+
; All Package Pins                    ;
+-------+--------------+--------------+
; Pin # ; Usage        ; I/O Standard ;
+-------+--------------+--------------+
; 1     ; VCC_INT      ;              ;
; 2     ; data_b[15]   ; LVTTL        ;
; 3     ; data_b[8]    ; LVTTL        ;
; 4     ; GND          ;              ;
; 5     ; VCC_IO       ;              ;
; 6     ; data_a[14]   ; LVTTL        ;
; 7     ; data_a[5]    ; LVTTL        ;
; 8     ; data_a[4]    ; LVTTL        ;
; 9     ; data_b[4]    ; LVTTL        ;
; 10    ; data_a[2]    ; LVTTL        ;
; 11    ; data_b[11]   ; LVTTL        ;
; 12    ; GND_IO       ;              ;
; 13    ; data_b[13]   ; LVTTL        ;
; 14    ; data_a[8]    ; LVTTL        ;
; 15    ; data_a[12]   ; LVTTL        ;
; 16    ; VCC_INT      ;              ;
; 17    ; GND          ;              ;
; 18    ; ^MSEL0       ;              ;
; 19    ; ^MSEL1       ;              ;
; 20    ; wren_a       ; LVTTL        ;
; 21    ; VCC_INT      ;              ;
; 22    ; ^NCONFIG     ;              ;
; 23    ; clk_b        ; LVTTL        ;
; 24    ; q_a[2]       ; LVTTL        ;
; 25    ; data_a[11]   ; LVTTL        ;
; 26    ; data_b[0]    ; LVTTL        ;
; 27    ; data_a[13]   ; LVTTL        ;
; 28    ; VCC_IO       ;              ;
; 29    ; q_b[13]      ; LVTTL        ;
; 30    ; q_b[12]      ; LVTTL        ;
; 31    ; q_a[1]       ; LVTTL        ;
; 32    ; q_b[1]       ; LVTTL        ;
; 33    ; q_b[10]      ; LVTTL        ;
; 34    ; GND          ;              ;
; 35    ; data_b[5]    ; LVTTL        ;
; 36    ; VCC_INT      ;              ;
; 37    ; OpCodeISR    ; LVTTL        ;
; 38    ; addr_a[4]    ; LVTTL        ;
; 39    ; q_b[2]       ; LVTTL        ;
; 40    ; q_a[0]       ; LVTTL        ;
; 41    ; data_a[15]   ; LVTTL        ;
; 42    ; GND_IO       ;              ;
; 43    ; data_b[2]    ; LVTTL        ;
; 44    ; q_b[0]       ; LVTTL        ;
; 45    ; VCC_IO       ;              ;
; 46    ; q_b[11]      ; LVTTL        ;
; 47    ; state_str[0] ; LVTTL        ;
; 48    ; state_str[2] ; LVTTL        ;
; 49    ; state_str[1] ; LVTTL        ;
; 50    ; q_b[15]      ; LVTTL        ;
; 51    ; #TMS         ;              ;
; 52    ; #TCK         ;              ;
; 53    ; addr_a[1]    ; LVTTL        ;
; 54    ; GND          ;              ;
; 55    ; VCC_INT      ;              ;
; 56    ; addr_a[2]    ; LVTTL        ;
; 57    ; ^NSTATUS     ;              ;
; 58    ; ^CONF_DONE   ;              ;
; 59    ; q_a[13]      ; LVTTL        ;
; 60    ; q_a[12]      ; LVTTL        ;
; 61    ; VCC_IO       ;              ;
; 62    ; addr_a[5]    ; LVTTL        ;
; 63    ; addr_b[2]    ; LVTTL        ;
; 64    ; addr_a[3]    ; LVTTL        ;
; 65    ; data_b[3]    ; LVTTL        ;
; 66    ; addr_a[8]    ; LVTTL        ;
; 67    ; q_a[10]      ; LVTTL        ;
; 68    ; data_b[7]    ; LVTTL        ;
; 69    ; state_str[3] ; LVTTL        ;
; 70    ; data_b[10]   ; LVTTL        ;
; 71    ; data_a[9]    ; LVTTL        ;
; 72    ; GND_IO       ;              ;
; 73    ; VCC_INT      ;              ;
; 74    ; GND          ;              ;
; 75    ; q_a[4]       ; LVTTL        ;
; 76    ; q_a[3]       ; LVTTL        ;
; 77    ; GND          ;              ;
; 78    ; q_a[8]       ; LVTTL        ;
; 79    ; data_a[0]    ; LVTTL        ;
; 80    ; data_a[1]    ; LVTTL        ;
; 81    ; GND*         ;              ;
; 82    ; GND_CKOUT2   ;              ;
; 83    ; VCC_CKOUT2   ;              ;
; 84    ; q_a[11]      ; LVTTL        ;
; 85    ; VCC_CKLK2    ;              ;
; 86    ; VCC_INT      ;              ;
; 87    ; GND          ;              ;
; 88    ; GND_CKLK2    ;              ;
; 89    ; VCC_IO       ;              ;
; 90    ; #TDI         ;              ;
; 91    ; ^nCE         ;              ;
; 92    ; wren_b       ; LVTTL        ;
; 93    ; ^DCLK        ;              ;
; 94    ; ^DATA0       ;              ;
; 95    ; clk_a        ; LVTTL        ;
; 96    ; GND+         ;              ;
; 97    ; data_a[3]    ; LVTTL        ;
; 98    ; q_b[6]       ; LVTTL        ;
; 99    ; GND_CKLK4    ;              ;
; 100   ; VCC_CKLK4    ;              ;
; 101   ; q_b[4]       ; LVTTL        ;
; 102   ; data_b[14]   ; LVTTL        ;
; 103   ; q_b[3]       ; LVTTL        ;
; 104   ; data_a[7]    ; LVTTL        ;
; 105   ; data_b[9]    ; LVTTL        ;
; 106   ; GND_IO       ;              ;
; 107   ; VCC_IO       ;              ;
; 108   ; VCC_INT      ;              ;
; 109   ; addr_b[0]    ; LVTTL        ;
; 110   ; data_a[6]    ; LVTTL        ;
; 111   ; addr_b[7]    ; LVTTL        ;
; 112   ; q_b[9]       ; LVTTL        ;
; 113   ; addr_b[3]    ; LVTTL        ;
; 114   ; q_b[5]       ; LVTTL        ;
; 115   ; addr_b[5]    ; LVTTL        ;
; 116   ; VCC_IO       ;              ;
; 117   ; q_b[14]      ; LVTTL        ;
; 118   ; addr_b[1]    ; LVTTL        ;
; 119   ; q_a[6]       ; LVTTL        ;
; 120   ; q_b[7]       ; LVTTL        ;
; 121   ; q_b[8]       ; LVTTL        ;
; 122   ; data_b[12]   ; LVTTL        ;
; 123   ; #TDO         ;              ;
; 124   ; addr_a[0]    ; LVTTL        ;
; 125   ; VCC_INT      ;              ;
; 126   ; GND          ;              ;
; 127   ; IMR          ; LVTTL        ;
; 128   ; ^nCEO        ;              ;
; 129   ; #TRST        ;              ;
; 130   ; q_a[7]       ; LVTTL        ;
; 131   ; q_a[15]      ; LVTTL        ;
; 132   ; q_a[14]      ; LVTTL        ;
; 133   ; data_b[1]    ; LVTTL        ;
; 134   ; GND_IO       ;              ;
; 135   ; addr_b[4]    ; LVTTL        ;
; 136   ; addr_a[6]    ; LVTTL        ;
; 137   ; addr_b[6]    ; LVTTL        ;
; 138   ; data_b[6]    ; LVTTL        ;
; 139   ; addr_b[8]    ; LVTTL        ;
; 140   ; q_a[5]       ; LVTTL        ;
; 141   ; q_a[9]       ; LVTTL        ;
; 142   ; data_a[10]   ; LVTTL        ;
; 143   ; addr_a[7]    ; LVTTL        ;
; 144   ; VCC_IO       ;              ;
+-------+--------------+--------------+


+----------------------------------------------------------------+
; Control Signals                                                ;
+------------+-----------+---------+--------------+--------------+
; Name       ; Pin #     ; Fan-Out ; Usage        ; Global Usage ;
+------------+-----------+---------+--------------+--------------+
; clk_a      ; 95        ; 97      ; Clock        ; Pin          ;
; clk_b      ; 23        ; 33      ; Clock        ; Pin          ;
; IMR        ; 127       ; 66      ; Async. clear ; Pin          ;
; wren_b     ; 92        ; 26      ; Clock enable ; Non-global   ;
; wren_a     ; 20        ; 26      ; Clock enable ; Non-global   ;
; Write_En~0 ; LC2_10_F2 ; 32      ; Write enable ; Non-global   ;
+------------+-----------+---------+--------------+--------------+


+--------------------------------------+
; Global & Other Fast Signals          ;
+-----------+-------+---------+--------+
; Name      ; Pin # ; Fan-Out ; Global ;
+-----------+-------+---------+--------+
; clk_a     ; 95    ; 97      ; yes    ;
; clk_b     ; 23    ; 33      ; yes    ;
; addr_a[0] ; 124   ; 17      ; no     ;
; addr_a[1] ; 53    ; 17      ; no     ;
; addr_a[2] ; 56    ; 17      ; no     ;
; IMR       ; 127   ; 66      ; yes    ;
; wren_b    ; 92    ; 26      ; no     ;
; wren_a    ; 20    ; 26      ; no     ;
+-----------+-------+---------+--------+


+----------------+
; Cascade Chains ;
+--------+-------+
; Length ; Count ;
+--------+-------+
; 2      ; 2     ;
+--------+-------+


+----------------------------------------------------------------------+
; Embedded Cells                                                       ;
+----------+--------------------------------------------+------+-------+
; Cell #   ; Name                                       ; Mode ; Turbo ;
+----------+--------------------------------------------+------+-------+
; EC2_1_D2 ; lpm_ram_dp:dpram_ram_a|altdpram:sram|q[0]  ; RAM  ; On    ;
; EC4_1_D2 ; lpm_ram_dp:dpram_ram_a|altdpram:sram|q[1]  ; RAM  ; On    ;
; EC1_1_D2 ; lpm_ram_dp:dpram_ram_a|altdpram:sram|q[2]  ; RAM  ; On    ;
; EC1_1_E1 ; lpm_ram_dp:dpram_ram_a|altdpram:sram|q[3]  ; RAM  ; On    ;
; EC2_1_E1 ; lpm_ram_dp:dpram_ram_a|altdpram:sram|q[4]  ; RAM  ; On    ;
; EC2_1_A2 ; lpm_ram_dp:dpram_ram_a|altdpram:sram|q[5]  ; RAM  ; On    ;
; EC3_1_E1 ; lpm_ram_dp:dpram_ram_a|altdpram:sram|q[6]  ; RAM  ; On    ;
; EC1_1_A2 ; lpm_ram_dp:dpram_ram_a|altdpram:sram|q[7]  ; RAM  ; On    ;
; EC4_1_E1 ; lpm_ram_dp:dpram_ram_a|altdpram:sram|q[8]  ; RAM  ; On    ;
; EC3_1_A2 ; lpm_ram_dp:dpram_ram_a|altdpram:sram|q[9]  ; RAM  ; On    ;
; EC3_1_D1 ; lpm_ram_dp:dpram_ram_a|altdpram:sram|q[10] ; RAM  ; On    ;
; EC1_1_D1 ; lpm_ram_dp:dpram_ram_a|altdpram:sram|q[11] ; RAM  ; On    ;
; EC4_1_D1 ; lpm_ram_dp:dpram_ram_a|altdpram:sram|q[12] ; RAM  ; On    ;
; EC2_1_D1 ; lpm_ram_dp:dpram_ram_a|altdpram:sram|q[13] ; RAM  ; On    ;
; EC4_1_A2 ; lpm_ram_dp:dpram_ram_a|altdpram:sram|q[14] ; RAM  ; On    ;
; EC3_1_D2 ; lpm_ram_dp:dpram_ram_a|altdpram:sram|q[15] ; RAM  ; On    ;
; EC2_1_F2 ; lpm_ram_dp:dpram_ram_b|altdpram:sram|q[0]  ; RAM  ; On    ;
; EC3_1_F2 ; lpm_ram_dp:dpram_ram_b|altdpram:sram|q[1]  ; RAM  ; On    ;
; EC4_1_F2 ; lpm_ram_dp:dpram_ram_b|altdpram:sram|q[2]  ; RAM  ; On    ;
; EC3_1_B1 ; lpm_ram_dp:dpram_ram_b|altdpram:sram|q[3]  ; RAM  ; On    ;
; EC2_1_B1 ; lpm_ram_dp:dpram_ram_b|altdpram:sram|q[4]  ; RAM  ; On    ;
; EC4_1_A1 ; lpm_ram_dp:dpram_ram_b|altdpram:sram|q[5]  ; RAM  ; On    ;
; EC1_1_B1 ; lpm_ram_dp:dpram_ram_b|altdpram:sram|q[6]  ; RAM  ; On    ;
; EC1_1_A1 ; lpm_ram_dp:dpram_ram_b|altdpram:sram|q[7]  ; RAM  ; On    ;
; EC4_1_B1 ; lpm_ram_dp:dpram_ram_b|altdpram:sram|q[8]  ; RAM  ; On    ;
; EC3_1_A1 ; lpm_ram_dp:dpram_ram_b|altdpram:sram|q[9]  ; RAM  ; On    ;
; EC3_1_E2 ; lpm_ram_dp:dpram_ram_b|altdpram:sram|q[10] ; RAM  ; On    ;
; EC4_1_E2 ; lpm_ram_dp:dpram_ram_b|altdpram:sram|q[11] ; RAM  ; On    ;
; EC1_1_E2 ; lpm_ram_dp:dpram_ram_b|altdpram:sram|q[12] ; RAM  ; On    ;
; EC2_1_E2 ; lpm_ram_dp:dpram_ram_b|altdpram:sram|q[13] ; RAM  ; On    ;
; EC2_1_A1 ; lpm_ram_dp:dpram_ram_b|altdpram:sram|q[14] ; RAM  ; On    ;
; EC1_1_F2 ; lpm_ram_dp:dpram_ram_b|altdpram:sram|q[15] ; RAM  ; On    ;
+----------+--------------------------------------------+------+-------+


+-------------------------------------+
; Non-Global High Fan-Out Signals     ;
+---------------------------+---------+
; Name                      ; Fan-Out ;
+---------------------------+---------+
; addr_mux[3]~66            ; 32      ;
; addr_mux[8]~71            ; 32      ;
; addr_mux[2]~65            ; 32      ;
; addr_mux[1]~64            ; 32      ;
; addr_mux[5]~68            ; 32      ;
; addr_mux[7]~70            ; 32      ;
; Write_En~0                ; 32      ;
; addr_mux[0]~63            ; 32      ;
; addr_mux[4]~67            ; 32      ;
; addr_mux[6]~69            ; 32      ;
; state.st_wrb              ; 31      ;
; wren_b                    ; 26      ;
; wren_a                    ; 26      ;
; addr_a[0]                 ; 17      ;
; addr_b[1]                 ; 17      ;
; addr_b[2]                 ; 17      ;
; addr_b[5]                 ; 17      ;
; addr_b[7]                 ; 17      ;
; addr_b[8]                 ; 17      ;
; addr_b[6]                 ; 17      ;
; addr_b[3]                 ; 17      ;
; addr_b[4]                 ; 17      ;
; addr_a[1]                 ; 17      ;
; addr_a[2]                 ; 17      ;
; addr_a[6]                 ; 17      ;
; addr_a[8]                 ; 17      ;
; addr_b[0]                 ; 17      ;
; addr_a[7]                 ; 17      ;
; addr_a[3]                 ; 17      ;
; addr_a[4]                 ; 17      ;
; addr_a[5]                 ; 17      ;
; state.st_wra              ; 7       ;
; state.st_wra_op0~16       ; 6       ;
; state.st_idle~36          ; 4       ;
; state.st_wra_op1          ; 4       ;
; wren_b_lat                ; 4       ;
; wren_a_lat                ; 4       ;
; state.st_idle~35          ; 4       ;
; state.st_wra_op2          ; 3       ;
; state.st_wra_op3          ; 3       ;
; last                      ; 3       ;
; Select~185                ; 3       ;
; data_mux[6]~118           ; 2       ;
; data_mux[14]~126          ; 2       ;
; data_mux[7]~119           ; 2       ;
; data_mux[1]~113           ; 2       ;
; data_mux[15]~127          ; 2       ;
; data_mux[10]~122          ; 2       ;
; lpm_ff:reg_ff_a_a|dffs[7] ; 2       ;
; wren_b_cb                 ; 2       ;
+---------------------------+---------+


+--------------------------------------------------+
; Local Routing Interconnect                       ;
+-----------------------------+--------------------+
; Local Routing Interconnects ; Number of MegaLABs ;
+-----------------------------+--------------------+
; 0                           ; 6                  ;
; 1                           ; 0                  ;
; 2                           ; 0                  ;
; 3                           ; 0                  ;
; 4                           ; 0                  ;
; 5                           ; 0                  ;
; 6                           ; 1                  ;
; 7                           ; 0                  ;
; 8                           ; 0                  ;
; 9                           ; 1                  ;
; 10                          ; 0                  ;
; 11                          ; 0                  ;
; 12                          ; 1                  ;
; 13                          ; 1                  ;
; 14                          ; 1                  ;
; 15                          ; 0                  ;
; 16                          ; 0                  ;
; 17                          ; 1                  ;
+-----------------------------+--------------------+


+--------------------------------------------+
; MegaLAB Interconnect                       ;
+-----------------------+--------------------+
; MegaLAB Interconnects ; Number of MegaLABs ;
+-----------------------+--------------------+
; 0 - 3                 ; 2                  ;
; 4 - 7                 ; 1                  ;
; 8 - 11                ; 0                  ;
; 12 - 15               ; 1                  ;
; 16 - 19               ; 0                  ;
; 20 - 23               ; 2                  ;
; 24 - 27               ; 1                  ;
; 28 - 31               ; 1                  ;
; 32 - 35               ; 2                  ;
; 36 - 39               ; 2                  ;
+-----------------------+--------------------+


+----------------------------------------------+
; LAB External Interconnect                    ;
+----------------------------+-----------------+
; LAB External Interconnects ; Number MegaLABs ;
+----------------------------+-----------------+
; 0 - 2                      ; 1               ;
; 3 - 5                      ; 1               ;
; 6 - 8                      ; 1               ;
; 9 - 11                     ; 1               ;
; 12 - 14                    ; 2               ;
; 15 - 17                    ; 1               ;
; 18 - 20                    ; 1               ;
; 21 - 23                    ; 1               ;
; 24 - 26                    ; 2               ;
; 27 - 29                    ; 1               ;
+----------------------------+-----------------+


+----------------------------------------------------------------------------------------------------------------------------------------------------------------------------------------------------------------------------------------------------------------------------------------------------+
; MegaLAB Usage Summary                                                                                                                                                                                                                                                                              ;
+--------------+--------------------+----------------------+-------------------------------------+--------------------------------------+----------------------------------+-----------------------------------+--------+---------+--------------------+---------------------------+-----------------+
; MegaLAB Name ; Total Cells        ; MegaLAB Interconnect ; Column Fast Interconnect Driving In ; Column Fast Interconnect Driving Out ; Row Fast Interconnect Driving In ; Row Fast Interconnect Driving Out ; Fan-In ; Fan-Out ; Local Interconnect ; LAB External Interconnect ; Control Signals ;
+--------------+--------------------+----------------------+-------------------------------------+--------------------------------------+----------------------------------+-----------------------------------+--------+---------+--------------------+---------------------------+-----------------+
;  A1          ;  4 / 100 ( 4 % )   ; 30                   ; 10                                  ; 0                                    ; 14                               ; 0                                 ; 25     ; 4       ; 0                  ; 15                        ; 4               ;
;  A2          ;  23 / 100 ( 23 % ) ; 37                   ; 10                                  ; 3                                    ; 16                               ; 4                                 ; 40     ; 17      ; 14                 ; 28                        ; 7               ;
;  B1          ;  4 / 100 ( 4 % )   ; 25                   ; 9                                   ; 0                                    ; 13                               ; 0                                 ; 25     ; 4       ; 0                  ; 10                        ; 4               ;
;  B2          ;  20 / 100 ( 20 % ) ; 14                   ; 7                                   ; 8                                    ; 5                                ; 4                                 ; 18     ; 138     ; 13                 ; 19                        ; 4               ;
;  C1          ;  0 / 100 ( 0 % )   ; 0                    ; 0                                   ; 0                                    ; 0                                ; 0                                 ; 0      ; 0       ; 0                  ; 0                         ; 0               ;
;  C2          ;  13 / 100 ( 13 % ) ; 6                    ; 3                                   ; 6                                    ; 3                                ; 0                                 ; 16     ; 101     ; 9                  ; 12                        ; 5               ;
;  D1          ;  4 / 100 ( 4 % )   ; 21                   ; 4                                   ; 0                                    ; 15                               ; 0                                 ; 25     ; 4       ; 0                  ; 8                         ; 4               ;
;  D2          ;  23 / 100 ( 23 % ) ; 35                   ; 20                                  ; 9                                    ; 12                               ; 5                                 ; 45     ; 80      ; 12                 ; 25                        ; 7               ;
;  E1          ;  4 / 100 ( 4 % )   ; 23                   ; 3                                   ; 0                                    ; 16                               ; 0                                 ; 25     ; 4       ; 0                  ; 12                        ; 4               ;
;  E2          ;  15 / 100 ( 15 % ) ; 33                   ; 13                                  ; 5                                    ; 17                               ; 0                                 ; 38     ; 15      ; 6                  ; 21                        ; 7               ;
;  F1          ;  0 / 100 ( 0 % )   ; 3                    ; 1                                   ; 0                                    ; 0                                ; 0                                 ; 0      ; 0       ; 0                  ; 3                         ; 0               ;
;  F2          ;  24 / 100 ( 24 % ) ; 37                   ; 20                                  ; 4                                    ; 6                                ; 0                                 ; 30     ; 63      ; 17                 ; 24                        ; 5               ;
+--------------+--------------------+----------------------+-------------------------------------+--------------------------------------+----------------------------------+-----------------------------------+--------+---------+--------------------+---------------------------+-----------------+


+------------------------------------------------------------------------------+
; Row Interconnect                                                             ;
+-------+------------------------+--------------------+------------------------+
; Row   ; Interconnect Available ; Interconnect Used  ; Half Interconnect Used ;
+-------+------------------------+--------------------+------------------------+
;  A    ; 100                    ;  23 / 100 ( 23 % ) ;  0 / 200 ( 0 % )       ;
;  B    ; 100                    ;  18 / 100 ( 18 % ) ;  0 / 200 ( 0 % )       ;
;  C    ; 100                    ;  3 / 100 ( 3 % )   ;  0 / 200 ( 0 % )       ;
;  D    ; 100                    ;  20 / 100 ( 20 % ) ;  0 / 200 ( 0 % )       ;
;  E    ; 100                    ;  24 / 100 ( 24 % ) ;  0 / 200 ( 0 % )       ;
;  F    ; 100                    ;  6 / 100 ( 6 % )   ;  0 / 200 ( 0 % )       ;
; Total ; 600                    ;  94 / 600 ( 16 % ) ;  0 / 1200 ( 0 % )      ;
+-------+------------------------+--------------------+------------------------+


+-------------------------------------------------------------------------------------------+
; LAB Column Interconnect                                                                   ;
+--------------+------+------------------------+-------------------+------------------------+
; MegaLAB Col. ; Col. ; Interconnect Available ; Interconnect Used ; Half Interconnect Used ;
+--------------+------+------------------------+-------------------+------------------------+
; 1            ; 1    ; 80                     ;  0 / 80 ( 0 % )   ;  2 / 160 ( 1 % )       ;
; 1            ; 2    ; 80                     ;  0 / 80 ( 0 % )   ;  2 / 160 ( 1 % )       ;
; 1            ; 3    ; 80                     ;  0 / 80 ( 0 % )   ;  2 / 160 ( 1 % )       ;
; 1            ; 4    ; 80                     ;  0 / 80 ( 0 % )   ;  0 / 160 ( 0 % )       ;
; 1            ; 5    ; 80                     ;  0 / 80 ( 0 % )   ;  2 / 160 ( 1 % )       ;
; 1            ; 6    ; 80                     ;  0 / 80 ( 0 % )   ;  3 / 160 ( 2 % )       ;
; 1            ; 7    ; 80                     ;  0 / 80 ( 0 % )   ;  2 / 160 ( 1 % )       ;
; 1            ; 8    ; 80                     ;  0 / 80 ( 0 % )   ;  2 / 160 ( 1 % )       ;
; 1            ; 9    ; 80                     ;  0 / 80 ( 0 % )   ;  0 / 160 ( 0 % )       ;
; 1            ; 10   ; 80                     ;  0 / 80 ( 0 % )   ;  1 / 160 ( < 1 % )     ;
; 1            ; 11   ; 80                     ;  0 / 80 ( 0 % )   ;  5 / 160 ( 3 % )       ;
; 2            ; 1    ; 80                     ;  0 / 80 ( 0 % )   ;  8 / 160 ( 5 % )       ;
; 2            ; 2    ; 80                     ;  0 / 80 ( 0 % )   ;  2 / 160 ( 1 % )       ;
; 2            ; 3    ; 80                     ;  0 / 80 ( 0 % )   ;  1 / 160 ( < 1 % )     ;
; 2            ; 4    ; 80                     ;  0 / 80 ( 0 % )   ;  2 / 160 ( 1 % )       ;
; 2            ; 5    ; 80                     ;  0 / 80 ( 0 % )   ;  2 / 160 ( 1 % )       ;
; 2            ; 6    ; 80                     ;  0 / 80 ( 0 % )   ;  2 / 160 ( 1 % )       ;
; 2            ; 7    ; 80                     ;  0 / 80 ( 0 % )   ;  1 / 160 ( < 1 % )     ;
; 2            ; 8    ; 80                     ;  0 / 80 ( 0 % )   ;  0 / 160 ( 0 % )       ;
; 2            ; 9    ; 80                     ;  0 / 80 ( 0 % )   ;  5 / 160 ( 3 % )       ;
; 2            ; 10   ; 80                     ;  0 / 80 ( 0 % )   ;  18 / 160 ( 11 % )     ;
; 2            ; 11   ; 80                     ;  0 / 80 ( 0 % )   ;  12 / 160 ( 8 % )      ;
; Total        ;      ; 1760                   ;  0 / 1760 ( 0 % ) ;  74 / 3520 ( 2 % )     ;
+--------------+------+------------------------+-------------------+------------------------+


+-----------------------------------------------------------------------------+
; ESB Column Interconnect                                                     ;
+-------+------------------------+-------------------+------------------------+
; Col.  ; Interconnect Available ; Interconnect Used ; Half Interconnect Used ;
+-------+------------------------+-------------------+------------------------+
; 0     ; 128                    ;  0 / 128 ( 0 % )  ;  5 / 256 ( 2 % )       ;
; 1     ; 128                    ;  0 / 128 ( 0 % )  ;  5 / 256 ( 2 % )       ;
; Total ; 256                    ;  0 / 256 ( 0 % )  ;  10 / 512 ( 2 % )      ;
+-------+------------------------+-------------------+------------------------+


+--------------------------------------------------------------+
; Fitter Resource Usage Summary                                ;
+-----------------------------------+--------------------------+
; Resource                          ; Usage                    ;
+-----------------------------------+--------------------------+
; Registers                         ; 66 / 1,200 ( 6 % )       ;
; Logic elements in carry chains    ; 0                        ;
; User inserted logic elements      ; 0                        ;
; Virtual pins                      ; 0                        ;
; I/O pins                          ; 92 / 92 ( 100 % )        ;
;     -- Clock pins                 ; 9 / 4 ( 225 % )          ;
;     -- Dedicated input pins       ; 9 / 4 ( 225 % )          ;
; Global signals                    ; 3                        ;
; ESBs                              ; 8 / 12 ( 67 % )          ;
; Macrocells                        ; 0 / 192 ( 0 % )          ;
; ESB pterm bits used               ; 0 / 24,576 ( 0 % )       ;
; ESB CAM bits used                 ; 0 / 24,576 ( 0 % )       ;
; Total memory bits                 ; 16,384 / 24,576 ( 67 % ) ;
; Total RAM block bits              ; 16,384 / 24,576 ( 67 % ) ;
; FastRow interconnects             ; 0 / 120 ( 0 % )          ;
; PLLs                              ; 0 / 2 ( 0 % )            ;
; Maximum fan-out node              ; clk_a                    ;
; Maximum fan-out                   ; 97                       ;
; Highest non-global fan-out signal ; Write_En~0               ;
; Highest non-global fan-out        ; 32                       ;
; Total fan-out                     ; 1123                     ;
; Average fan-out                   ; 4.97                     ;
+-----------------------------------+--------------------------+


+---------------------------------------------------------------------------------------------------------------------------------------------------------------------------------------------------------------------------------+
; Fitter Resource Utilization by Entity                                                                                                                                                                                           ;
+-----------------------------+-------------+--------------+-------------+------+--------------+--------------+-------------------+------------------+-----------------+------------+---------------------------------------------+
; Compilation Hierarchy Node  ; Logic Cells ; LC Registers ; Memory Bits ; Pins ; Virtual Pins ; LUT-Only LCs ; Register-Only LCs ; LUT/Register LCs ; Carry Chain LCs ; Packed LCs ; Full Hierarchy Name                         ;
+-----------------------------+-------------+--------------+-------------+------+--------------+--------------+-------------------+------------------+-----------------+------------+---------------------------------------------+
; |DPRAM                      ; 102 (52)    ; 66           ; 16384       ; 92   ; 0            ; 36 (36)      ; 55 (5)            ; 11 (11)          ; 0 (0)           ; 0 (0)      ; |DPRAM                                      ;
;    |lpm_ff:reg_ff_a_a|      ; 9 (9)       ; 9            ; 0           ; 0    ; 0            ; 0 (0)        ; 9 (9)             ; 0 (0)            ; 0 (0)           ; 0 (0)      ; |DPRAM|lpm_ff:reg_ff_a_a                    ;
;    |lpm_ff:reg_ff_a_d|      ; 16 (16)     ; 16           ; 0           ; 0    ; 0            ; 0 (0)        ; 16 (16)           ; 0 (0)            ; 0 (0)           ; 0 (0)      ; |DPRAM|lpm_ff:reg_ff_a_d                    ;
;    |lpm_ff:reg_ff_b_a|      ; 9 (9)       ; 9            ; 0           ; 0    ; 0            ; 0 (0)        ; 9 (9)             ; 0 (0)            ; 0 (0)           ; 0 (0)      ; |DPRAM|lpm_ff:reg_ff_b_a                    ;
;    |lpm_ff:reg_ff_b_d|      ; 16 (16)     ; 16           ; 0           ; 0    ; 0            ; 0 (0)        ; 16 (16)           ; 0 (0)            ; 0 (0)           ; 0 (0)      ; |DPRAM|lpm_ff:reg_ff_b_d                    ;
;    |lpm_ram_dp:dpram_ram_a| ; 0 (0)       ; 0            ; 8192        ; 0    ; 0            ; 0 (0)        ; 0 (0)             ; 0 (0)            ; 0 (0)           ; 0 (0)      ; |DPRAM|lpm_ram_dp:dpram_ram_a               ;
;       |altdpram:sram|       ; 0 (0)       ; 0            ; 8192        ; 0    ; 0            ; 0 (0)        ; 0 (0)             ; 0 (0)            ; 0 (0)           ; 0 (0)      ; |DPRAM|lpm_ram_dp:dpram_ram_a|altdpram:sram ;
;    |lpm_ram_dp:dpram_ram_b| ; 0 (0)       ; 0            ; 8192        ; 0    ; 0            ; 0 (0)        ; 0 (0)             ; 0 (0)            ; 0 (0)           ; 0 (0)      ; |DPRAM|lpm_ram_dp:dpram_ram_b               ;
;       |altdpram:sram|       ; 0 (0)       ; 0            ; 8192        ; 0    ; 0            ; 0 (0)        ; 0 (0)             ; 0 (0)            ; 0 (0)           ; 0 (0)      ; |DPRAM|lpm_ram_dp:dpram_ram_b|altdpram:sram ;
+-----------------------------+-------------+--------------+-------------+------+--------------+--------------+-------------------+------------------+-----------------+------------+---------------------------------------------+
Note: For table entries with two numbers listed, the numbers in parentheses indicate the number of resources of the given type used by the specific entity alone. The numbers listed outside of parentheses indicate the total resources of the given type used by the specific entity and all of its sub-entities in the hierarchy.


+-------------------------------------------------------------------------------------------------------------------------------------------------------------------------------------------------------+
; LogicLock Region Resource Usage                                                                                                                                                                       ;
+------------------+----------+-------+--------+-------------+--------------+---------------+-------+--------------+--------------+-------------------+------------------+-----------------+------------+
; LogicLock Region ; Origin   ; Width ; Height ; Logic Cells ; LC Registers ; Memory Bits   ; Pins  ; Virtual Pins ; LUT-Only LCs ; Register-Only LCs ; LUT/Register LCs ; Carry Chain LCs ; Packed LCs ;
+------------------+----------+-------+--------+-------------+--------------+---------------+-------+--------------+--------------+-------------------+------------------+-----------------+------------+
; DPRAM            ; ESB_1_A1 ; 4     ; 6      ; 102 (102)   ; 66 (66)      ; 16384 (16384) ; 0 (0) ; 0 (0)        ; 36 (36)      ; 55 (55)           ; 11 (11)          ; 0 (0)           ; 0 (0)      ;
+------------------+----------+-------+--------+-------------+--------------+---------------+-------+--------------+--------------+-------------------+------------------+-----------------+------------+


+---------------------------------------------------------------------------------------------------------------------+
; Delay Chain Summary                                                                                                 ;
+--------------+----------+-------------+-----------------------+-------------------------+---------------------+-----+
; Name         ; Pin Type ; Pad to Core ; Pad to Input Register ; Core to Output Register ; Core to CE Register ; TCO ;
+--------------+----------+-------------+-----------------------+-------------------------+---------------------+-----+
; clk_a        ; Input    ; OFF         ; OFF                   ; OFF                     ; OFF                 ; OFF ;
; clk_b        ; Input    ; OFF         ; OFF                   ; OFF                     ; OFF                 ; OFF ;
; addr_a[0]    ; Input    ; OFF         ; OFF                   ; OFF                     ; OFF                 ; OFF ;
; addr_a[1]    ; Input    ; OFF         ; OFF                   ; OFF                     ; OFF                 ; OFF ;
; addr_a[2]    ; Input    ; OFF         ; OFF                   ; OFF                     ; OFF                 ; OFF ;
; addr_a[3]    ; Input    ; ON          ; OFF                   ; OFF                     ; OFF                 ; OFF ;
; addr_a[4]    ; Input    ; ON          ; OFF                   ; OFF                     ; OFF                 ; OFF ;
; addr_a[5]    ; Input    ; ON          ; OFF                   ; OFF                     ; OFF                 ; OFF ;
; addr_a[6]    ; Input    ; ON          ; OFF                   ; OFF                     ; OFF                 ; OFF ;
; addr_a[7]    ; Input    ; ON          ; OFF                   ; OFF                     ; OFF                 ; OFF ;
; addr_a[8]    ; Input    ; ON          ; OFF                   ; OFF                     ; OFF                 ; OFF ;
; addr_b[0]    ; Input    ; ON          ; OFF                   ; OFF                     ; OFF                 ; OFF ;
; addr_b[1]    ; Input    ; ON          ; OFF                   ; OFF                     ; OFF                 ; OFF ;
; addr_b[2]    ; Input    ; ON          ; OFF                   ; OFF                     ; OFF                 ; OFF ;
; addr_b[3]    ; Input    ; ON          ; OFF                   ; OFF                     ; OFF                 ; OFF ;
; addr_b[4]    ; Input    ; ON          ; OFF                   ; OFF                     ; OFF                 ; OFF ;
; addr_b[5]    ; Input    ; ON          ; OFF                   ; OFF                     ; OFF                 ; OFF ;
; addr_b[6]    ; Input    ; ON          ; OFF                   ; OFF                     ; OFF                 ; OFF ;
; addr_b[7]    ; Input    ; ON          ; OFF                   ; OFF                     ; OFF                 ; OFF ;
; addr_b[8]    ; Input    ; ON          ; OFF                   ; OFF                     ; OFF                 ; OFF ;
; IMR          ; Input    ; OFF         ; OFF                   ; OFF                     ; OFF                 ; OFF ;
; data_b[0]    ; Input    ; ON          ; OFF                   ; OFF                     ; OFF                 ; OFF ;
; wren_b       ; Input    ; OFF         ; OFF                   ; OFF                     ; OFF                 ; OFF ;
; data_a[0]    ; Input    ; ON          ; OFF                   ; OFF                     ; OFF                 ; OFF ;
; wren_a       ; Input    ; OFF         ; OFF                   ; OFF                     ; OFF                 ; OFF ;
; data_b[1]    ; Input    ; ON          ; OFF                   ; OFF                     ; OFF                 ; OFF ;
; data_a[1]    ; Input    ; ON          ; OFF                   ; OFF                     ; OFF                 ; OFF ;
; data_b[2]    ; Input    ; ON          ; OFF                   ; OFF                     ; OFF                 ; OFF ;
; data_a[2]    ; Input    ; ON          ; OFF                   ; OFF                     ; OFF                 ; OFF ;
; data_b[3]    ; Input    ; ON          ; OFF                   ; OFF                     ; OFF                 ; OFF ;
; data_a[3]    ; Input    ; ON          ; OFF                   ; OFF                     ; OFF                 ; OFF ;
; data_b[4]    ; Input    ; ON          ; OFF                   ; OFF                     ; OFF                 ; OFF ;
; data_a[4]    ; Input    ; ON          ; OFF                   ; OFF                     ; OFF                 ; OFF ;
; data_b[5]    ; Input    ; ON          ; OFF                   ; OFF                     ; OFF                 ; OFF ;
; data_a[5]    ; Input    ; ON          ; OFF                   ; OFF                     ; OFF                 ; OFF ;
; data_b[6]    ; Input    ; ON          ; OFF                   ; OFF                     ; OFF                 ; OFF ;
; data_a[6]    ; Input    ; ON          ; OFF                   ; OFF                     ; OFF                 ; OFF ;
; data_b[7]    ; Input    ; ON          ; OFF                   ; OFF                     ; OFF                 ; OFF ;
; data_a[7]    ; Input    ; ON          ; OFF                   ; OFF                     ; OFF                 ; OFF ;
; data_b[8]    ; Input    ; ON          ; OFF                   ; OFF                     ; OFF                 ; OFF ;
; data_a[8]    ; Input    ; ON          ; OFF                   ; OFF                     ; OFF                 ; OFF ;
; data_b[9]    ; Input    ; ON          ; OFF                   ; OFF                     ; OFF                 ; OFF ;
; data_a[9]    ; Input    ; ON          ; OFF                   ; OFF                     ; OFF                 ; OFF ;
; data_b[10]   ; Input    ; ON          ; OFF                   ; OFF                     ; OFF                 ; OFF ;
; data_a[10]   ; Input    ; ON          ; OFF                   ; OFF                     ; OFF                 ; OFF ;
; data_b[11]   ; Input    ; ON          ; OFF                   ; OFF                     ; OFF                 ; OFF ;
; data_a[11]   ; Input    ; ON          ; OFF                   ; OFF                     ; OFF                 ; OFF ;
; data_b[12]   ; Input    ; ON          ; OFF                   ; OFF                     ; OFF                 ; OFF ;
; data_a[12]   ; Input    ; ON          ; OFF                   ; OFF                     ; OFF                 ; OFF ;
; data_b[13]   ; Input    ; ON          ; OFF                   ; OFF                     ; OFF                 ; OFF ;
; data_a[13]   ; Input    ; ON          ; OFF                   ; OFF                     ; OFF                 ; OFF ;
; data_b[14]   ; Input    ; ON          ; OFF                   ; OFF                     ; OFF                 ; OFF ;
; data_a[14]   ; Input    ; ON          ; OFF                   ; OFF                     ; OFF                 ; OFF ;
; data_b[15]   ; Input    ; ON          ; OFF                   ; OFF                     ; OFF                 ; OFF ;
; data_a[15]   ; Input    ; ON          ; OFF                   ; OFF                     ; OFF                 ; OFF ;
; q_a[0]       ; Output   ; OFF         ; OFF                   ; OFF                     ; OFF                 ; OFF ;
; q_a[1]       ; Output   ; OFF         ; OFF                   ; OFF                     ; OFF                 ; OFF ;
; q_a[2]       ; Output   ; OFF         ; OFF                   ; OFF                     ; OFF                 ; OFF ;
; q_a[3]       ; Output   ; OFF         ; OFF                   ; OFF                     ; OFF                 ; OFF ;
; q_a[4]       ; Output   ; OFF         ; OFF                   ; OFF                     ; OFF                 ; OFF ;
; q_a[5]       ; Output   ; OFF         ; OFF                   ; OFF                     ; OFF                 ; OFF ;
; q_a[6]       ; Output   ; OFF         ; OFF                   ; OFF                     ; OFF                 ; OFF ;
; q_a[7]       ; Output   ; OFF         ; OFF                   ; OFF                     ; OFF                 ; OFF ;
; q_a[8]       ; Output   ; OFF         ; OFF                   ; OFF                     ; OFF                 ; OFF ;
; q_a[9]       ; Output   ; OFF         ; OFF                   ; OFF                     ; OFF                 ; OFF ;
; q_a[10]      ; Output   ; OFF         ; OFF                   ; OFF                     ; OFF                 ; OFF ;
; q_a[11]      ; Output   ; OFF         ; OFF                   ; OFF                     ; OFF                 ; OFF ;
; q_a[12]      ; Output   ; OFF         ; OFF                   ; OFF                     ; OFF                 ; OFF ;
; q_a[13]      ; Output   ; OFF         ; OFF                   ; OFF                     ; OFF                 ; OFF ;
; q_a[14]      ; Output   ; OFF         ; OFF                   ; OFF                     ; OFF                 ; OFF ;
; q_a[15]      ; Output   ; OFF         ; OFF                   ; OFF                     ; OFF                 ; OFF ;
; q_b[0]       ; Output   ; OFF         ; OFF                   ; OFF                     ; OFF                 ; OFF ;
; q_b[1]       ; Output   ; OFF         ; OFF                   ; OFF                     ; OFF                 ; OFF ;
; q_b[2]       ; Output   ; OFF         ; OFF                   ; OFF                     ; OFF                 ; OFF ;
; q_b[3]       ; Output   ; OFF         ; OFF                   ; OFF                     ; OFF                 ; OFF ;
; q_b[4]       ; Output   ; OFF         ; OFF                   ; OFF                     ; OFF                 ; OFF ;
; q_b[5]       ; Output   ; OFF         ; OFF                   ; OFF                     ; OFF                 ; OFF ;
; q_b[6]       ; Output   ; OFF         ; OFF                   ; OFF                     ; OFF                 ; OFF ;
; q_b[7]       ; Output   ; OFF         ; OFF                   ; OFF                     ; OFF                 ; OFF ;
; q_b[8]       ; Output   ; OFF         ; OFF                   ; OFF                     ; OFF                 ; OFF ;
; q_b[9]       ; Output   ; OFF         ; OFF                   ; OFF                     ; OFF                 ; OFF ;
; q_b[10]      ; Output   ; OFF         ; OFF                   ; OFF                     ; OFF                 ; OFF ;
; q_b[11]      ; Output   ; OFF         ; OFF                   ; OFF                     ; OFF                 ; OFF ;
; q_b[12]      ; Output   ; OFF         ; OFF                   ; OFF                     ; OFF                 ; OFF ;
; q_b[13]      ; Output   ; OFF         ; OFF                   ; OFF                     ; OFF                 ; OFF ;
; q_b[14]      ; Output   ; OFF         ; OFF                   ; OFF                     ; OFF                 ; OFF ;
; q_b[15]      ; Output   ; OFF         ; OFF                   ; OFF                     ; OFF                 ; OFF ;
; state_str[0] ; Output   ; OFF         ; OFF                   ; OFF                     ; OFF                 ; OFF ;
; state_str[1] ; Output   ; OFF         ; OFF                   ; OFF                     ; OFF                 ; OFF ;
; state_str[2] ; Output   ; OFF         ; OFF                   ; OFF                     ; OFF                 ; OFF ;
; state_str[3] ; Output   ; OFF         ; OFF                   ; OFF                     ; OFF                 ; OFF ;
; OpCodeISR    ; Output   ; OFF         ; OFF                   ; OFF                     ; OFF                 ; OFF ;
+--------------+----------+-------------+-----------------------+-------------------------+---------------------+-----+


+------------------------------+
; I/O Bank Usage               ;
+----------+-------------------+
; I/O Bank ; Usage             ;
+----------+-------------------+
; 1        ; 15 / 15 ( 100 % ) ;
; 2        ; 13 / 13 ( 100 % ) ;
; 3        ; 11 / 11 ( 100 % ) ;
; 4        ; 12 / 12 ( 100 % ) ;
; 5        ; 14 / 14 ( 100 % ) ;
; 6        ; 12 / 12 ( 100 % ) ;
; 7        ; 6 / 6 ( 100 % )   ;
; 8        ; 9 / 9 ( 100 % )   ;
+----------+-------------------+


+----------------------------------------------------------------------------------------------------------------------------------------------------------------------------------------------------------------------------------------------------------------------------------------------+
; Fitter RAM Summary                                                                                                                                                                                                                                                                           ;
+----------------------------------------------+-----------+--------------+--------------+--------------+--------------+------------------------+-------------------------+------------------------+-------------------------+------+------+----------+----------------------------------------+
; Name                                         ; Mode      ; Port A Depth ; Port A Width ; Port B Depth ; Port B Width ; Port A Input Registers ; Port A Output Registers ; Port B Input Registers ; Port B Output Registers ; Size ; ESBs ; MIF      ; Location                               ;
+----------------------------------------------+-----------+--------------+--------------+--------------+--------------+------------------------+-------------------------+------------------------+-------------------------+------+------+----------+----------------------------------------+
; lpm_ram_dp:dpram_ram_a|altdpram:sram|content ; Dual Port ; 512          ; 16           ; 512          ; 16           ; no                     ; no                      ; no                     ; no                      ; 0    ; 4    ; INIT.MIF ; ESB_1_D2, ESB_1_E1, ESB_1_A2, ESB_1_D1 ;
; lpm_ram_dp:dpram_ram_b|altdpram:sram|content ; Dual Port ; 512          ; 16           ; 512          ; 16           ; no                     ; no                      ; no                     ; no                      ; 0    ; 4    ; INIT.MIF ; ESB_1_F2, ESB_1_B1, ESB_1_A1, ESB_1_E2 ;
+----------------------------------------------+-----------+--------------+--------------+--------------+--------------+------------------------+-------------------------+------------------------+-------------------------+------+------+----------+----------------------------------------+
Note: Fitter may spread logical memories into multiple blocks to improve timing. The actual required RAM blocks can be found in the Fitter Resource Usage section.


+--------------+
; Pin-Out File ;
+--------------+
The pin-out file can be found in F:/Projects/DPP-II/p19700-1/Software/ep99980/dpram/dpram.pin.


+-----------------+
; Fitter Messages ;
+-----------------+
Info: *******************************************************************
Info: Running Quartus II Fitter
    Info: Version 5.1 Build 176 10/26/2005 Service Pack 0.15 SJ Full Version
    Info: Processing started: Wed Jan 04 10:57:59 2006
Info: Command: quartus_fit --read_settings_files=off --write_settings_files=off DPRAM -c dpram
Info: Selected device EP20K30ETC144-2X for design "dpram"
Info: Compiling with the fast fit feature
Info: Detected fmax, tsu, tco, and/or tpd requirements -- optimizing circuit to achieve only the specified requirements
Info: Promoted cell "clk_a" to global signal automatically
Info: Promoted cell "clk_b" to global signal automatically
Info: Promoted cell "IMR" to global signal automatically
Info: Started fitting attempt 1 on Wed Jan 04 2006 at 10:58:05
Warning: Performance of this circuit may degrade because the Fitter Delay Information is not loaded.
Info: Fitter placement preparation operations beginning
Info: Fitter placement preparation operations ending: elapsed time is 00:00:00
Info: Fitter placement operations beginning
Info: Fitter placement was successful
Info: Design requires the following device routing resources:
    Info: Overall column FastTrack interconnect = 4%
    Info: Overall row FastTrack interconnect = 12%
    Info: Maximum column FastTrack interconnect = 5%
    Info: Maximum row FastTrack interconnect = 17%
Info: Estimated most critical path is register to pin delay of 7.285 ns
    Info: 1: + IC(0.000 ns) + CELL(0.226 ns) = 0.226 ns; Loc. = LAB_10_D2; Fanout = 6; REG Node = 'state.st_wra_op0~16'
    Info: 2: + IC(1.380 ns) + CELL(1.243 ns) = 2.849 ns; Loc. = LAB_9_F2; Fanout = 3; COMB Node = 'Select~185'
    Info: 3: + IC(0.271 ns) + CELL(1.243 ns) = 4.363 ns; Loc. = LAB_9_F2; Fanout = 1; COMB Node = 'reduce_or~2'
    Info: 4: + IC(0.271 ns) + CELL(2.651 ns) = 7.285 ns; Loc. = Unassigned; Fanout = 0; PIN Node = 'state_str[0]'
    Info: Total cell delay = 5.363 ns ( 73.62 % )
    Info: Total interconnect delay = 1.922 ns ( 26.38 % )
Info: Fitter placement operations ending: elapsed time is 00:00:02
Info: Fitter routing operations beginning
Info: Fitter routing operations ending: elapsed time is 00:00:00
Info: Quartus II Fitter was successful. 0 errors, 1 warning
    Info: Processing ended: Wed Jan 04 10:58:08 2006
    Info: Elapsed time: 00:00:10


