Analysis & Synthesis report for fir_beam_blank
Mon Mar 27 09:22:39 2006
Version 5.1 Build 216 03/06/2006 Service Pack 2 SJ Full Version


---------------------
; Table of Contents ;
---------------------
  1. Legal Notice
  2. Analysis & Synthesis Summary
  3. Analysis & Synthesis Settings
  4. Analysis & Synthesis Source Files Read
  5. Analysis & Synthesis Resource Usage Summary
  6. Analysis & Synthesis Resource Utilization by Entity
  7. General Register Statistics
  8. Gate-level Retiming
  9. Parameter Settings for User Entity Instance: LPM_COUNTER:delay_Counter
 10. Parameter Settings for User Entity Instance: LPM_COMPARE:delay_compare
 11. Parameter Settings for User Entity Instance: LPM_COUNTER:width_Counter
 12. Parameter Settings for User Entity Instance: LPM_COMPARE:Width_compare
 13. Analysis & Synthesis Equations
 14. Analysis & Synthesis Messages



----------------
; Legal Notice ;
----------------
Copyright (C) 1991-2006 Altera Corporation
Your use of Altera Corporation's design tools, logic functions 
and other software and tools, and its AMPP partner logic 
functions, and any output files any of the foregoing 
(including device programming or simulation files), and any 
associated documentation or information are expressly subject 
to the terms and conditions of the Altera Program License 
Subscription Agreement, Altera MegaCore Function License 
Agreement, or other applicable license agreement, including, 
without limitation, that your use is for the sole purpose of 
programming logic devices manufactured by Altera and sold by 
Altera or its authorized distributors.  Please refer to the 
applicable agreement for further details.



+-----------------------------------------------------------------------------+
; Analysis & Synthesis Summary                                                ;
+-----------------------------+-----------------------------------------------+
; Analysis & Synthesis Status ; Successful - Mon Mar 27 09:22:39 2006         ;
; Quartus II Version          ; 5.1 Build 216 03/06/2006 SP 2 SJ Full Version ;
; Revision Name               ; fir_beam_blank                                ;
; Top-level Entity Name       ; fir_beam_blank                                ;
; Family                      ; APEX20KE                                      ;
; Total logic elements        ; 63                                            ;
; Total pins                  ; 37                                            ;
; Total virtual pins          ; 0                                             ;
; Total memory bits           ; 0                                             ;
; Total PLLs                  ; 0                                             ;
+-----------------------------+-----------------------------------------------+


+---------------------------------------------------------------------------------------------------------------------------------+
; Analysis & Synthesis Settings                                                                                                   ;
+--------------------------------------------------------------------------------------------+-------------------+----------------+
; Option                                                                                     ; Setting           ; Default Value  ;
+--------------------------------------------------------------------------------------------+-------------------+----------------+
; Device                                                                                     ; EP20K300EQC240-2X ;                ;
; Top-level entity name                                                                      ; fir_beam_blank    ; fir_beam_blank ;
; Family name                                                                                ; APEX20KE          ; Stratix        ;
; VHDL Show LMF Mapping Messages                                                             ; Off               ;                ;
; Optimization Technique -- APEX 20K/APEX 20KE/APEX 20KC/APEX II/ARM-based Excalibur         ; Speed             ; Balanced       ;
; Perform WYSIWYG Primitive Resynthesis                                                      ; On                ; Off            ;
; Perform gate-level register retiming                                                       ; On                ; Off            ;
; Use smart compilation                                                                      ; Off               ; Off            ;
; Create Debugging Nodes for IP Cores                                                        ; Off               ; Off            ;
; Preserve fewer node names                                                                  ; On                ; On             ;
; Disable OpenCore Plus hardware evaluation                                                  ; Off               ; Off            ;
; Verilog Version                                                                            ; Verilog_2001      ; Verilog_2001   ;
; VHDL Version                                                                               ; VHDL93            ; VHDL93         ;
; State Machine Processing                                                                   ; Auto              ; Auto           ;
; Extract Verilog State Machines                                                             ; On                ; On             ;
; Extract VHDL State Machines                                                                ; On                ; On             ;
; Add Pass-Through Logic to Inferred RAMs                                                    ; On                ; On             ;
; NOT Gate Push-Back                                                                         ; On                ; On             ;
; Power-Up Don't Care                                                                        ; On                ; On             ;
; Remove Redundant Logic Cells                                                               ; Off               ; Off            ;
; Remove Duplicate Registers                                                                 ; On                ; On             ;
; Ignore CARRY Buffers                                                                       ; Off               ; Off            ;
; Ignore CASCADE Buffers                                                                     ; Off               ; Off            ;
; Ignore GLOBAL Buffers                                                                      ; Off               ; Off            ;
; Ignore ROW GLOBAL Buffers                                                                  ; Off               ; Off            ;
; Ignore LCELL Buffers                                                                       ; Off               ; Off            ;
; Ignore SOFT Buffers                                                                        ; On                ; On             ;
; Limit AHDL Integers to 32 Bits                                                             ; Off               ; Off            ;
; Auto Implement in ROM                                                                      ; Off               ; Off            ;
; Technology Mapper -- APEX 20K/APEX 20KE/APEX 20KC/APEX II/ARM-based Excalibur              ; LUT               ; LUT            ;
; Allow XOR Gate Usage                                                                       ; On                ; On             ;
; Carry Chain Length                                                                         ; 48                ; 48             ;
; Cascade Chain Length                                                                       ; 2                 ; 2              ;
; Parallel Expander Chain Length -- APEX 20K/APEX 20KE/APEX 20KC/APEX II/ARM-based Excalibur ; 16                ; 16             ;
; Auto Carry Chains                                                                          ; On                ; On             ;
; Auto Parallel Expanders                                                                    ; On                ; On             ;
; Auto Open-Drain Pins                                                                       ; On                ; On             ;
; Remove Duplicate Logic                                                                     ; On                ; On             ;
; Allow register retiming to trade off Tsu/Tco with Fmax                                     ; On                ; On             ;
; Auto ROM Replacement                                                                       ; On                ; On             ;
; Auto RAM Replacement                                                                       ; On                ; On             ;
; Auto Shift Register Replacement                                                            ; On                ; On             ;
; Auto Clock Enable Replacement                                                              ; On                ; On             ;
; Auto Resource Sharing                                                                      ; Off               ; Off            ;
; Allow Any RAM Size For Recognition                                                         ; Off               ; Off            ;
; Allow Any ROM Size For Recognition                                                         ; Off               ; Off            ;
; Allow Any Shift Register Size For Recognition                                              ; Off               ; Off            ;
; Ignore translate_off and translate_on Synthesis Directives                                 ; Off               ; Off            ;
; Show Parameter Settings Tables in Synthesis Report                                         ; On                ; On             ;
; Ignore Maximum Fan-Out Assignments                                                         ; Off               ; Off            ;
; Retiming Meta-Stability Register Sequence Length                                           ; 2                 ; 2              ;
; HDL message level                                                                          ; Level2            ; Level2         ;
+--------------------------------------------------------------------------------------------+-------------------+----------------+


+-------------------------------------------------------------------------------------------------------------------------------------------------------+
; Analysis & Synthesis Source Files Read                                                                                                                ;
+----------------------------------+-----------------+-----------------+--------------------------------------------------------------------------------+
; File Name with User-Entered Path ; Used in Netlist ; File Type       ; File Name with Absolute Path                                                   ;
+----------------------------------+-----------------+-----------------+--------------------------------------------------------------------------------+
; fir_beam_blank.vhd               ; yes             ; User VHDL File  ; H:/Projects/DPP-II/p19700-1/Software/ep99840/fir_Beam_Blank/fir_beam_blank.vhd ;
; LPM_COUNTER.tdf                  ; yes             ; Megafunction    ; c:/altera/quartus51/libraries/megafunctions/LPM_COUNTER.tdf                    ;
; lpm_constant.inc                 ; yes             ; Other           ; c:/altera/quartus51/libraries/megafunctions/lpm_constant.inc                   ;
; lpm_decode.inc                   ; yes             ; Other           ; c:/altera/quartus51/libraries/megafunctions/lpm_decode.inc                     ;
; lpm_add_sub.inc                  ; yes             ; Other           ; c:/altera/quartus51/libraries/megafunctions/lpm_add_sub.inc                    ;
; cmpconst.inc                     ; yes             ; Other           ; c:/altera/quartus51/libraries/megafunctions/cmpconst.inc                       ;
; lpm_compare.inc                  ; yes             ; Other           ; c:/altera/quartus51/libraries/megafunctions/lpm_compare.inc                    ;
; lpm_counter.inc                  ; yes             ; Other           ; c:/altera/quartus51/libraries/megafunctions/lpm_counter.inc                    ;
; dffeea.inc                       ; yes             ; Other           ; c:/altera/quartus51/libraries/megafunctions/dffeea.inc                         ;
; alt_synch_counter.inc            ; yes             ; Other           ; c:/altera/quartus51/libraries/megafunctions/alt_synch_counter.inc              ;
; alt_synch_counter_f.inc          ; yes             ; Other           ; c:/altera/quartus51/libraries/megafunctions/alt_synch_counter_f.inc            ;
; alt_counter_f10ke.inc            ; yes             ; Other           ; c:/altera/quartus51/libraries/megafunctions/alt_counter_f10ke.inc              ;
; alt_counter_stratix.inc          ; yes             ; Other           ; c:/altera/quartus51/libraries/megafunctions/alt_counter_stratix.inc            ;
; aglobal51.inc                    ; yes             ; Other           ; c:/altera/quartus51/libraries/megafunctions/aglobal51.inc                      ;
; alt_synch_counter.tdf            ; yes             ; Megafunction    ; c:/altera/quartus51/libraries/megafunctions/alt_synch_counter.tdf              ;
; mercury_lcell.inc                ; yes             ; Other           ; c:/altera/quartus51/libraries/megafunctions/mercury_lcell.inc                  ;
; apex20ke_lcell.inc               ; yes             ; Other           ; c:/altera/quartus51/libraries/megafunctions/apex20ke_lcell.inc                 ;
; apex20k_lcell.inc                ; yes             ; Other           ; c:/altera/quartus51/libraries/megafunctions/apex20k_lcell.inc                  ;
; flex6k_lcell.inc                 ; yes             ; Other           ; c:/altera/quartus51/libraries/megafunctions/flex6k_lcell.inc                   ;
; alt_asynch_counter.inc           ; yes             ; Other           ; c:/altera/quartus51/libraries/megafunctions/alt_asynch_counter.inc             ;
; LPM_COMPARE.tdf                  ; yes             ; Megafunction    ; c:/altera/quartus51/libraries/megafunctions/LPM_COMPARE.tdf                    ;
; comptree.inc                     ; yes             ; Other           ; c:/altera/quartus51/libraries/megafunctions/comptree.inc                       ;
; altshift.inc                     ; yes             ; Other           ; c:/altera/quartus51/libraries/megafunctions/altshift.inc                       ;
; comptree.tdf                     ; yes             ; Megafunction    ; c:/altera/quartus51/libraries/megafunctions/comptree.tdf                       ;
; cmpchain.inc                     ; yes             ; Other           ; c:/altera/quartus51/libraries/megafunctions/cmpchain.inc                       ;
; cmpchain.tdf                     ; yes             ; Megafunction    ; c:/altera/quartus51/libraries/megafunctions/cmpchain.tdf                       ;
; altshift.tdf                     ; yes             ; Megafunction    ; c:/altera/quartus51/libraries/megafunctions/altshift.tdf                       ;
+----------------------------------+-----------------+-----------------+--------------------------------------------------------------------------------+


+---------------------------------------------+
; Analysis & Synthesis Resource Usage Summary ;
+-----------------------------------+---------+
; Resource                          ; Usage   ;
+-----------------------------------+---------+
; Total logic elements              ; 63      ;
; Total combinational functions     ; 61      ;
;     -- Total 4-input functions    ; 22      ;
;     -- Total 3-input functions    ; 2       ;
;     -- Total 2-input functions    ; 33      ;
;     -- Total 1-input functions    ; 4       ;
;     -- Total 0-input functions    ; 0       ;
; Combinational cells for routing   ; 0       ;
; Total registers                   ; 39      ;
; Total logic cells in carry chains ; 32      ;
; I/O pins                          ; 37      ;
; Maximum fan-out node              ; clk     ;
; Maximum fan-out                   ; 39      ;
; Total fan-out                     ; 307     ;
; Average fan-out                   ; 3.07    ;
+-----------------------------------+---------+


+-------------------------------------------------------------------------------------------------------------------------------------------------------------------------------------------------------------------------------------------------------------------------------------------------------------------------------------------------------------+
; Analysis & Synthesis Resource Utilization by Entity                                                                                                                                                                                                                                                                                                         ;
+-------------------------------------------+-------------+--------------+-------------+------+--------------+--------------+-------------------+------------------+-----------------+------------+-----------------------------------------------------------------------------------------------------------------------------------------------------------+
; Compilation Hierarchy Node                ; Logic Cells ; LC Registers ; Memory Bits ; Pins ; Virtual Pins ; LUT-Only LCs ; Register-Only LCs ; LUT/Register LCs ; Carry Chain LCs ; Packed LCs ; Full Hierarchy Name                                                                                                                                       ;
+-------------------------------------------+-------------+--------------+-------------+------+--------------+--------------+-------------------+------------------+-----------------+------------+-----------------------------------------------------------------------------------------------------------------------------------------------------------+
; |fir_beam_blank                           ; 63 (9)      ; 39           ; 0           ; 37   ; 0            ; 24 (2)       ; 2 (2)             ; 37 (5)           ; 32 (0)          ; 0 (0)      ; |fir_beam_blank                                                                                                                                           ;
;    |lpm_compare:Width_compare|            ; 11 (0)      ; 0            ; 0           ; 0    ; 0            ; 11 (0)       ; 0 (0)             ; 0 (0)            ; 0 (0)           ; 0 (0)      ; |fir_beam_blank|lpm_compare:Width_compare                                                                                                                 ;
;       |comptree:comparator|               ; 11 (0)      ; 0            ; 0           ; 0    ; 0            ; 11 (0)       ; 0 (0)             ; 0 (0)            ; 0 (0)           ; 0 (0)      ; |fir_beam_blank|lpm_compare:Width_compare|comptree:comparator                                                                                             ;
;          |cmpchain:cmp_end|               ; 11 (0)      ; 0            ; 0           ; 0    ; 0            ; 11 (0)       ; 0 (0)             ; 0 (0)            ; 0 (0)           ; 0 (0)      ; |fir_beam_blank|lpm_compare:Width_compare|comptree:comparator|cmpchain:cmp_end                                                                            ;
;             |comptree:comp|               ; 11 (0)      ; 0            ; 0           ; 0    ; 0            ; 11 (0)       ; 0 (0)             ; 0 (0)            ; 0 (0)           ; 0 (0)      ; |fir_beam_blank|lpm_compare:Width_compare|comptree:comparator|cmpchain:cmp_end|comptree:comp                                                              ;
;                |cmpchain:cmp[0]|          ; 1 (1)       ; 0            ; 0           ; 0    ; 0            ; 1 (1)        ; 0 (0)             ; 0 (0)            ; 0 (0)           ; 0 (0)      ; |fir_beam_blank|lpm_compare:Width_compare|comptree:comparator|cmpchain:cmp_end|comptree:comp|cmpchain:cmp[0]                                              ;
;                |cmpchain:cmp[1]|          ; 1 (1)       ; 0            ; 0           ; 0    ; 0            ; 1 (1)        ; 0 (0)             ; 0 (0)            ; 0 (0)           ; 0 (0)      ; |fir_beam_blank|lpm_compare:Width_compare|comptree:comparator|cmpchain:cmp_end|comptree:comp|cmpchain:cmp[1]                                              ;
;                |cmpchain:cmp[2]|          ; 1 (1)       ; 0            ; 0           ; 0    ; 0            ; 1 (1)        ; 0 (0)             ; 0 (0)            ; 0 (0)           ; 0 (0)      ; |fir_beam_blank|lpm_compare:Width_compare|comptree:comparator|cmpchain:cmp_end|comptree:comp|cmpchain:cmp[2]                                              ;
;                |cmpchain:cmp[3]|          ; 1 (1)       ; 0            ; 0           ; 0    ; 0            ; 1 (1)        ; 0 (0)             ; 0 (0)            ; 0 (0)           ; 0 (0)      ; |fir_beam_blank|lpm_compare:Width_compare|comptree:comparator|cmpchain:cmp_end|comptree:comp|cmpchain:cmp[3]                                              ;
;                |cmpchain:cmp[4]|          ; 1 (1)       ; 0            ; 0           ; 0    ; 0            ; 1 (1)        ; 0 (0)             ; 0 (0)            ; 0 (0)           ; 0 (0)      ; |fir_beam_blank|lpm_compare:Width_compare|comptree:comparator|cmpchain:cmp_end|comptree:comp|cmpchain:cmp[4]                                              ;
;                |cmpchain:cmp[5]|          ; 1 (1)       ; 0            ; 0           ; 0    ; 0            ; 1 (1)        ; 0 (0)             ; 0 (0)            ; 0 (0)           ; 0 (0)      ; |fir_beam_blank|lpm_compare:Width_compare|comptree:comparator|cmpchain:cmp_end|comptree:comp|cmpchain:cmp[5]                                              ;
;                |cmpchain:cmp[6]|          ; 1 (1)       ; 0            ; 0           ; 0    ; 0            ; 1 (1)        ; 0 (0)             ; 0 (0)            ; 0 (0)           ; 0 (0)      ; |fir_beam_blank|lpm_compare:Width_compare|comptree:comparator|cmpchain:cmp_end|comptree:comp|cmpchain:cmp[6]                                              ;
;                |cmpchain:cmp[7]|          ; 1 (1)       ; 0            ; 0           ; 0    ; 0            ; 1 (1)        ; 0 (0)             ; 0 (0)            ; 0 (0)           ; 0 (0)      ; |fir_beam_blank|lpm_compare:Width_compare|comptree:comparator|cmpchain:cmp_end|comptree:comp|cmpchain:cmp[7]                                              ;
;                |comptree:sub_comptree|    ; 3 (0)       ; 0            ; 0           ; 0    ; 0            ; 3 (0)        ; 0 (0)             ; 0 (0)            ; 0 (0)           ; 0 (0)      ; |fir_beam_blank|lpm_compare:Width_compare|comptree:comparator|cmpchain:cmp_end|comptree:comp|comptree:sub_comptree                                        ;
;                   |cmpchain:cmp[0]|       ; 1 (1)       ; 0            ; 0           ; 0    ; 0            ; 1 (1)        ; 0 (0)             ; 0 (0)            ; 0 (0)           ; 0 (0)      ; |fir_beam_blank|lpm_compare:Width_compare|comptree:comparator|cmpchain:cmp_end|comptree:comp|comptree:sub_comptree|cmpchain:cmp[0]                        ;
;                   |cmpchain:cmp[1]|       ; 1 (1)       ; 0            ; 0           ; 0    ; 0            ; 1 (1)        ; 0 (0)             ; 0 (0)            ; 0 (0)           ; 0 (0)      ; |fir_beam_blank|lpm_compare:Width_compare|comptree:comparator|cmpchain:cmp_end|comptree:comp|comptree:sub_comptree|cmpchain:cmp[1]                        ;
;                   |comptree:sub_comptree| ; 1 (0)       ; 0            ; 0           ; 0    ; 0            ; 1 (0)        ; 0 (0)             ; 0 (0)            ; 0 (0)           ; 0 (0)      ; |fir_beam_blank|lpm_compare:Width_compare|comptree:comparator|cmpchain:cmp_end|comptree:comp|comptree:sub_comptree|comptree:sub_comptree                  ;
;                      |cmpchain:cmp_end|   ; 1 (1)       ; 0            ; 0           ; 0    ; 0            ; 1 (1)        ; 0 (0)             ; 0 (0)            ; 0 (0)           ; 0 (0)      ; |fir_beam_blank|lpm_compare:Width_compare|comptree:comparator|cmpchain:cmp_end|comptree:comp|comptree:sub_comptree|comptree:sub_comptree|cmpchain:cmp_end ;
;    |lpm_compare:delay_compare|            ; 11 (0)      ; 0            ; 0           ; 0    ; 0            ; 11 (0)       ; 0 (0)             ; 0 (0)            ; 0 (0)           ; 0 (0)      ; |fir_beam_blank|lpm_compare:delay_compare                                                                                                                 ;
;       |comptree:comparator|               ; 11 (0)      ; 0            ; 0           ; 0    ; 0            ; 11 (0)       ; 0 (0)             ; 0 (0)            ; 0 (0)           ; 0 (0)      ; |fir_beam_blank|lpm_compare:delay_compare|comptree:comparator                                                                                             ;
;          |cmpchain:cmp_end|               ; 11 (0)      ; 0            ; 0           ; 0    ; 0            ; 11 (0)       ; 0 (0)             ; 0 (0)            ; 0 (0)           ; 0 (0)      ; |fir_beam_blank|lpm_compare:delay_compare|comptree:comparator|cmpchain:cmp_end                                                                            ;
;             |comptree:comp|               ; 11 (0)      ; 0            ; 0           ; 0    ; 0            ; 11 (0)       ; 0 (0)             ; 0 (0)            ; 0 (0)           ; 0 (0)      ; |fir_beam_blank|lpm_compare:delay_compare|comptree:comparator|cmpchain:cmp_end|comptree:comp                                                              ;
;                |cmpchain:cmp[0]|          ; 1 (1)       ; 0            ; 0           ; 0    ; 0            ; 1 (1)        ; 0 (0)             ; 0 (0)            ; 0 (0)           ; 0 (0)      ; |fir_beam_blank|lpm_compare:delay_compare|comptree:comparator|cmpchain:cmp_end|comptree:comp|cmpchain:cmp[0]                                              ;
;                |cmpchain:cmp[1]|          ; 1 (1)       ; 0            ; 0           ; 0    ; 0            ; 1 (1)        ; 0 (0)             ; 0 (0)            ; 0 (0)           ; 0 (0)      ; |fir_beam_blank|lpm_compare:delay_compare|comptree:comparator|cmpchain:cmp_end|comptree:comp|cmpchain:cmp[1]                                              ;
;                |cmpchain:cmp[2]|          ; 1 (1)       ; 0            ; 0           ; 0    ; 0            ; 1 (1)        ; 0 (0)             ; 0 (0)            ; 0 (0)           ; 0 (0)      ; |fir_beam_blank|lpm_compare:delay_compare|comptree:comparator|cmpchain:cmp_end|comptree:comp|cmpchain:cmp[2]                                              ;
;                |cmpchain:cmp[3]|          ; 1 (1)       ; 0            ; 0           ; 0    ; 0            ; 1 (1)        ; 0 (0)             ; 0 (0)            ; 0 (0)           ; 0 (0)      ; |fir_beam_blank|lpm_compare:delay_compare|comptree:comparator|cmpchain:cmp_end|comptree:comp|cmpchain:cmp[3]                                              ;
;                |cmpchain:cmp[4]|          ; 1 (1)       ; 0            ; 0           ; 0    ; 0            ; 1 (1)        ; 0 (0)             ; 0 (0)            ; 0 (0)           ; 0 (0)      ; |fir_beam_blank|lpm_compare:delay_compare|comptree:comparator|cmpchain:cmp_end|comptree:comp|cmpchain:cmp[4]                                              ;
;                |cmpchain:cmp[5]|          ; 1 (1)       ; 0            ; 0           ; 0    ; 0            ; 1 (1)        ; 0 (0)             ; 0 (0)            ; 0 (0)           ; 0 (0)      ; |fir_beam_blank|lpm_compare:delay_compare|comptree:comparator|cmpchain:cmp_end|comptree:comp|cmpchain:cmp[5]                                              ;
;                |cmpchain:cmp[6]|          ; 1 (1)       ; 0            ; 0           ; 0    ; 0            ; 1 (1)        ; 0 (0)             ; 0 (0)            ; 0 (0)           ; 0 (0)      ; |fir_beam_blank|lpm_compare:delay_compare|comptree:comparator|cmpchain:cmp_end|comptree:comp|cmpchain:cmp[6]                                              ;
;                |cmpchain:cmp[7]|          ; 1 (1)       ; 0            ; 0           ; 0    ; 0            ; 1 (1)        ; 0 (0)             ; 0 (0)            ; 0 (0)           ; 0 (0)      ; |fir_beam_blank|lpm_compare:delay_compare|comptree:comparator|cmpchain:cmp_end|comptree:comp|cmpchain:cmp[7]                                              ;
;                |comptree:sub_comptree|    ; 3 (0)       ; 0            ; 0           ; 0    ; 0            ; 3 (0)        ; 0 (0)             ; 0 (0)            ; 0 (0)           ; 0 (0)      ; |fir_beam_blank|lpm_compare:delay_compare|comptree:comparator|cmpchain:cmp_end|comptree:comp|comptree:sub_comptree                                        ;
;                   |cmpchain:cmp[0]|       ; 1 (1)       ; 0            ; 0           ; 0    ; 0            ; 1 (1)        ; 0 (0)             ; 0 (0)            ; 0 (0)           ; 0 (0)      ; |fir_beam_blank|lpm_compare:delay_compare|comptree:comparator|cmpchain:cmp_end|comptree:comp|comptree:sub_comptree|cmpchain:cmp[0]                        ;
;                   |cmpchain:cmp[1]|       ; 1 (1)       ; 0            ; 0           ; 0    ; 0            ; 1 (1)        ; 0 (0)             ; 0 (0)            ; 0 (0)           ; 0 (0)      ; |fir_beam_blank|lpm_compare:delay_compare|comptree:comparator|cmpchain:cmp_end|comptree:comp|comptree:sub_comptree|cmpchain:cmp[1]                        ;
;                   |comptree:sub_comptree| ; 1 (0)       ; 0            ; 0           ; 0    ; 0            ; 1 (0)        ; 0 (0)             ; 0 (0)            ; 0 (0)           ; 0 (0)      ; |fir_beam_blank|lpm_compare:delay_compare|comptree:comparator|cmpchain:cmp_end|comptree:comp|comptree:sub_comptree|comptree:sub_comptree                  ;
;                      |cmpchain:cmp_end|   ; 1 (1)       ; 0            ; 0           ; 0    ; 0            ; 1 (1)        ; 0 (0)             ; 0 (0)            ; 0 (0)           ; 0 (0)      ; |fir_beam_blank|lpm_compare:delay_compare|comptree:comparator|cmpchain:cmp_end|comptree:comp|comptree:sub_comptree|comptree:sub_comptree|cmpchain:cmp_end ;
;    |lpm_counter:delay_Counter|            ; 16 (0)      ; 16           ; 0           ; 0    ; 0            ; 0 (0)        ; 0 (0)             ; 16 (0)           ; 16 (0)          ; 0 (0)      ; |fir_beam_blank|lpm_counter:delay_Counter                                                                                                                 ;
;       |alt_synch_counter:wysi_counter|    ; 16 (16)     ; 16           ; 0           ; 0    ; 0            ; 0 (0)        ; 0 (0)             ; 16 (16)          ; 16 (16)         ; 0 (0)      ; |fir_beam_blank|lpm_counter:delay_Counter|alt_synch_counter:wysi_counter                                                                                  ;
;    |lpm_counter:width_Counter|            ; 16 (0)      ; 16           ; 0           ; 0    ; 0            ; 0 (0)        ; 0 (0)             ; 16 (0)           ; 16 (0)          ; 0 (0)      ; |fir_beam_blank|lpm_counter:width_Counter                                                                                                                 ;
;       |alt_synch_counter:wysi_counter|    ; 16 (16)     ; 16           ; 0           ; 0    ; 0            ; 0 (0)        ; 0 (0)             ; 16 (16)          ; 16 (16)         ; 0 (0)      ; |fir_beam_blank|lpm_counter:width_Counter|alt_synch_counter:wysi_counter                                                                                  ;
+-------------------------------------------+-------------+--------------+-------------+------+--------------+--------------+-------------------+------------------+-----------------+------------+-----------------------------------------------------------------------------------------------------------------------------------------------------------+
Note: For table entries with two numbers listed, the numbers in parentheses indicate the number of resources of the given type used by the specific entity alone. The numbers listed outside of parentheses indicate the total resources of the given type used by the specific entity and all of its sub-entities in the hierarchy.


+------------------------------------------------------+
; General Register Statistics                          ;
+----------------------------------------------+-------+
; Statistic                                    ; Value ;
+----------------------------------------------+-------+
; Total registers                              ; 39    ;
; Number of registers using Synchronous Clear  ; 32    ;
; Number of registers using Synchronous Load   ; 0     ;
; Number of registers using Asynchronous Clear ; 39    ;
; Number of registers using Asynchronous Load  ; 0     ;
; Number of registers using Clock Enable       ; 0     ;
; Number of registers using Preset             ; 0     ;
+----------------------------------------------+-------+


+----------------------------------------------+
; Gate-level Retiming                          ;
+---------------+------------+-----------------+
; Register Name ; Clock Name ; Created/Deleted ;
+---------------+------------+-----------------+
; Width_Cen     ; clk        ; Deleted         ;
; delay_cen     ; clk        ; Deleted         ;
; Width_Cen~12  ; clk        ; Created         ;
; Width_Cen~13  ; clk        ; Created         ;
; Width_Cen~14  ; clk        ; Created         ;
; delay_cen~11  ; clk        ; Created         ;
; delay_cen~12  ; clk        ; Created         ;
; delay_cen~13  ; clk        ; Created         ;
+---------------+------------+-----------------+


+------------------------------------------------------------------------+
; Parameter Settings for User Entity Instance: LPM_COUNTER:delay_Counter ;
+------------------------+-------------------+---------------------------+
; Parameter Name         ; Value             ; Type                      ;
+------------------------+-------------------+---------------------------+
; AUTO_CARRY_CHAINS      ; ON                ; AUTO_CARRY                ;
; IGNORE_CARRY_BUFFERS   ; OFF               ; IGNORE_CARRY              ;
; AUTO_CASCADE_CHAINS    ; ON                ; AUTO_CASCADE              ;
; IGNORE_CASCADE_BUFFERS ; OFF               ; IGNORE_CASCADE            ;
; LPM_WIDTH              ; 16                ; Integer                   ;
; LPM_DIRECTION          ; DEFAULT           ; Untyped                   ;
; LPM_MODULUS            ; 0                 ; Integer                   ;
; LPM_AVALUE             ; UNUSED            ; Untyped                   ;
; LPM_SVALUE             ; UNUSED            ; Untyped                   ;
; LPM_PORT_UPDOWN        ; PORT_CONNECTIVITY ; Untyped                   ;
; DEVICE_FAMILY          ; APEX20KE          ; Untyped                   ;
; CARRY_CHAIN            ; MANUAL            ; Untyped                   ;
; CARRY_CHAIN_LENGTH     ; 48                ; CARRY_CHAIN_LENGTH        ;
; NOT_GATE_PUSH_BACK     ; ON                ; NOT_GATE_PUSH_BACK        ;
; CARRY_CNT_EN           ; SMART             ; Untyped                   ;
; LABWIDE_SCLR           ; ON                ; Untyped                   ;
; USE_NEW_VERSION        ; TRUE              ; Untyped                   ;
; CBXI_PARAMETER         ; NOTHING           ; Untyped                   ;
+------------------------+-------------------+---------------------------+
Note: In order to hide this table in the UI and the text report file, please set the "Show Parameter Settings Tables in Synthesis Report" option in "Analysis and Synthesis Settings -> More Settings" to "Off".


+------------------------------------------------------------------------+
; Parameter Settings for User Entity Instance: LPM_COMPARE:delay_compare ;
+------------------------+----------+------------------------------------+
; Parameter Name         ; Value    ; Type                               ;
+------------------------+----------+------------------------------------+
; lpm_width              ; 16       ; Integer                            ;
; LPM_REPRESENTATION     ; UNSIGNED ; Untyped                            ;
; LPM_PIPELINE           ; 0        ; Integer                            ;
; CHAIN_SIZE             ; 8        ; Untyped                            ;
; ONE_INPUT_IS_CONSTANT  ; NO       ; Untyped                            ;
; CARRY_CHAIN            ; MANUAL   ; Untyped                            ;
; CASCADE_CHAIN          ; MANUAL   ; Untyped                            ;
; CARRY_CHAIN_LENGTH     ; 48       ; CARRY_CHAIN_LENGTH                 ;
; CASCADE_CHAIN_LENGTH   ; 2        ; CASCADE_CHAIN_LENGTH               ;
; DEVICE_FAMILY          ; APEX20KE ; Untyped                            ;
; CBXI_PARAMETER         ; NOTHING  ; Untyped                            ;
; AUTO_CARRY_CHAINS      ; ON       ; AUTO_CARRY                         ;
; IGNORE_CARRY_BUFFERS   ; OFF      ; IGNORE_CARRY                       ;
; AUTO_CASCADE_CHAINS    ; ON       ; AUTO_CASCADE                       ;
; IGNORE_CASCADE_BUFFERS ; OFF      ; IGNORE_CASCADE                     ;
+------------------------+----------+------------------------------------+
Note: In order to hide this table in the UI and the text report file, please set the "Show Parameter Settings Tables in Synthesis Report" option in "Analysis and Synthesis Settings -> More Settings" to "Off".


+------------------------------------------------------------------------+
; Parameter Settings for User Entity Instance: LPM_COUNTER:width_Counter ;
+------------------------+-------------------+---------------------------+
; Parameter Name         ; Value             ; Type                      ;
+------------------------+-------------------+---------------------------+
; AUTO_CARRY_CHAINS      ; ON                ; AUTO_CARRY                ;
; IGNORE_CARRY_BUFFERS   ; OFF               ; IGNORE_CARRY              ;
; AUTO_CASCADE_CHAINS    ; ON                ; AUTO_CASCADE              ;
; IGNORE_CASCADE_BUFFERS ; OFF               ; IGNORE_CASCADE            ;
; LPM_WIDTH              ; 16                ; Integer                   ;
; LPM_DIRECTION          ; DEFAULT           ; Untyped                   ;
; LPM_MODULUS            ; 0                 ; Integer                   ;
; LPM_AVALUE             ; UNUSED            ; Untyped                   ;
; LPM_SVALUE             ; UNUSED            ; Untyped                   ;
; LPM_PORT_UPDOWN        ; PORT_CONNECTIVITY ; Untyped                   ;
; DEVICE_FAMILY          ; APEX20KE          ; Untyped                   ;
; CARRY_CHAIN            ; MANUAL            ; Untyped                   ;
; CARRY_CHAIN_LENGTH     ; 48                ; CARRY_CHAIN_LENGTH        ;
; NOT_GATE_PUSH_BACK     ; ON                ; NOT_GATE_PUSH_BACK        ;
; CARRY_CNT_EN           ; SMART             ; Untyped                   ;
; LABWIDE_SCLR           ; ON                ; Untyped                   ;
; USE_NEW_VERSION        ; TRUE              ; Untyped                   ;
; CBXI_PARAMETER         ; NOTHING           ; Untyped                   ;
+------------------------+-------------------+---------------------------+
Note: In order to hide this table in the UI and the text report file, please set the "Show Parameter Settings Tables in Synthesis Report" option in "Analysis and Synthesis Settings -> More Settings" to "Off".


+------------------------------------------------------------------------+
; Parameter Settings for User Entity Instance: LPM_COMPARE:Width_compare ;
+------------------------+----------+------------------------------------+
; Parameter Name         ; Value    ; Type                               ;
+------------------------+----------+------------------------------------+
; lpm_width              ; 16       ; Integer                            ;
; LPM_REPRESENTATION     ; UNSIGNED ; Untyped                            ;
; LPM_PIPELINE           ; 0        ; Integer                            ;
; CHAIN_SIZE             ; 8        ; Untyped                            ;
; ONE_INPUT_IS_CONSTANT  ; NO       ; Untyped                            ;
; CARRY_CHAIN            ; MANUAL   ; Untyped                            ;
; CASCADE_CHAIN          ; MANUAL   ; Untyped                            ;
; CARRY_CHAIN_LENGTH     ; 48       ; CARRY_CHAIN_LENGTH                 ;
; CASCADE_CHAIN_LENGTH   ; 2        ; CASCADE_CHAIN_LENGTH               ;
; DEVICE_FAMILY          ; APEX20KE ; Untyped                            ;
; CBXI_PARAMETER         ; NOTHING  ; Untyped                            ;
; AUTO_CARRY_CHAINS      ; ON       ; AUTO_CARRY                         ;
; IGNORE_CARRY_BUFFERS   ; OFF      ; IGNORE_CARRY                       ;
; AUTO_CASCADE_CHAINS    ; ON       ; AUTO_CASCADE                       ;
; IGNORE_CASCADE_BUFFERS ; OFF      ; IGNORE_CASCADE                     ;
+------------------------+----------+------------------------------------+
Note: In order to hide this table in the UI and the text report file, please set the "Show Parameter Settings Tables in Synthesis Report" option in "Analysis and Synthesis Settings -> More Settings" to "Off".


+--------------------------------+
; Analysis & Synthesis Equations ;
+--------------------------------+
The equations can be found in H:/Projects/DPP-II/p19700-1/Software/ep99840/fir_Beam_Blank/fir_beam_blank.map.eqn.


+-------------------------------+
; Analysis & Synthesis Messages ;
+-------------------------------+
Info: *******************************************************************
Info: Running Quartus II Analysis & Synthesis
    Info: Version 5.1 Build 216 03/06/2006 Service Pack 2 SJ Full Version
    Info: Processing started: Mon Mar 27 09:22:34 2006
Info: Command: quartus_map --read_settings_files=on --write_settings_files=off fir_beam_blank -c fir_beam_blank
Info: Found 2 design units, including 1 entities, in source file fir_beam_blank.vhd
    Info: Found design unit 1: fir_beam_blank-behavioral
    Info: Found entity 1: fir_beam_blank
Info: Elaborating entity "fir_beam_blank" for the top level hierarchy
Warning (10036): Verilog HDL or VHDL warning at fir_beam_blank.vhd(54): object "delay_clr" assigned a value but never read
Warning (10036): Verilog HDL or VHDL warning at fir_beam_blank.vhd(59): object "width_clr" assigned a value but never read
Info: Found 1 design units, including 1 entities, in source file c:/altera/quartus51/libraries/megafunctions/LPM_COUNTER.tdf
    Info: Found entity 1: lpm_counter
Info: Elaborating entity "LPM_COUNTER" for hierarchy "LPM_COUNTER:delay_Counter"
Info: Found 1 design units, including 1 entities, in source file c:/altera/quartus51/libraries/megafunctions/alt_synch_counter.tdf
    Info: Found entity 1: alt_synch_counter
Info: Elaborating entity "alt_synch_counter" for hierarchy "LPM_COUNTER:delay_Counter|alt_synch_counter:wysi_counter"
Info: Found 1 design units, including 1 entities, in source file c:/altera/quartus51/libraries/megafunctions/LPM_COMPARE.tdf
    Info: Found entity 1: lpm_compare
Info: Elaborating entity "LPM_COMPARE" for hierarchy "LPM_COMPARE:delay_compare"
Info: Found 1 design units, including 1 entities, in source file c:/altera/quartus51/libraries/megafunctions/comptree.tdf
    Info: Found entity 1: comptree
Info: Elaborating entity "comptree" for hierarchy "LPM_COMPARE:delay_compare|comptree:comparator"
Info: Found 1 design units, including 1 entities, in source file c:/altera/quartus51/libraries/megafunctions/cmpchain.tdf
    Info: Found entity 1: cmpchain
Info: Elaborating entity "cmpchain" for hierarchy "LPM_COMPARE:delay_compare|comptree:comparator|cmpchain:cmp_end"
Info: Elaborating entity "comptree" for hierarchy "LPM_COMPARE:delay_compare|comptree:comparator|cmpchain:cmp_end|comptree:comp"
Info: Elaborating entity "cmpchain" for hierarchy "LPM_COMPARE:delay_compare|comptree:comparator|cmpchain:cmp_end|comptree:comp|cmpchain:cmp[7]"
Info: Elaborating entity "comptree" for hierarchy "LPM_COMPARE:delay_compare|comptree:comparator|cmpchain:cmp_end|comptree:comp|comptree:sub_comptree"
Info: Elaborating entity "cmpchain" for hierarchy "LPM_COMPARE:delay_compare|comptree:comparator|cmpchain:cmp_end|comptree:comp|comptree:sub_comptree|cmpchain:cmp[1]"
Info: Elaborating entity "comptree" for hierarchy "LPM_COMPARE:delay_compare|comptree:comparator|cmpchain:cmp_end|comptree:comp|comptree:sub_comptree|comptree:sub_comptree"
Info: Elaborating entity "cmpchain" for hierarchy "LPM_COMPARE:delay_compare|comptree:comparator|cmpchain:cmp_end|comptree:comp|comptree:sub_comptree|comptree:sub_comptree|cmpchain:cmp_end"
Info: Found 1 design units, including 1 entities, in source file c:/altera/quartus51/libraries/megafunctions/altshift.tdf
    Info: Found entity 1: altshift
Info: Elaborating entity "altshift" for hierarchy "LPM_COMPARE:delay_compare|altshift:aeb_ext_lat_ffs"
Info: Resynthesizing 0 WYSIWYG logic cells and I/Os using "speed" technology mapper which leaves 32 WYSIWYG logic cells and I/Os untouched
Info: Performing gate-level register retiming
Info: Not allowed to move 1 registers
    Info: Not allowed to move 1 registers because they feed output pins directly
Info: Quartus II software applied gate-level register retiming to 1 clock domains
    Info: Quartus II software applied gate-level register retiming to clock "clk": created 6 new registers, removed 2 registers, left 1 registers untouched
Info: Implemented 100 device resources after synthesis - the final resource count might be different
    Info: Implemented 36 input pins
    Info: Implemented 1 output pins
    Info: Implemented 63 logic cells
Info: Quartus II Analysis & Synthesis was successful. 0 errors, 2 warnings
    Info: Processing ended: Mon Mar 27 09:22:39 2006
    Info: Elapsed time: 00:00:06


