<session jtag_chain="USB-Blaster [USB-0]" jtag_device="@3: EP20K300E (0x083000DD)" sof_file="../ep99841.sof">
  <display_tree gui_logging_enabled="0">
    <display_branch instance="auto_signaltap_0" signal_set="USE_GLOBAL_TEMP" trigger="USE_GLOBAL_TEMP"/>
  </display_tree>
  <instance entity_name="sld_signaltap" is_auto_node="yes" is_expanded="true" name="auto_signaltap_0" source_file="sld_signaltap.vhd">
    <node_ip_info instance_id="0" mfg_id="110" node_id="0" version="3"/>
    <position_info>
      <single attribute="active tab" value="1"/>
      <single attribute="data horizontal scroll position" value="192"/>
      <single attribute="data vertical scroll position" value="0"/>
      <single attribute="setup horizontal scroll position" value="0"/>
      <single attribute="setup vertical scroll position" value="7"/>
      <single attribute="zoom level denominator" value="2"/>
      <single attribute="zoom level numerator" value="1"/>
      <single attribute="zoom offset denominator" value="1"/>
      <single attribute="zoom offset numerator" value="261888"/>
    </position_info>
    <signal_set global_temp="1" name="signal_set: 2006/04/18 11:12:10  #0">
      <clock name="wds:U_WDS|clk" polarity="posedge"/>
      <config ram_type="M4K" reserved_data_nodes="0" reserved_trigger_nodes="0" sample_depth="65536" trigger_in_enable="no" trigger_out_enable="no"/>
      <top_entity/>
      <signal_vec>
        <trigger_input_vec>
          <wire connection_status="true" name="wds:U_WDS|CPeak[0]" tap_mode="classic" type="combinatorial"/>
          <wire connection_status="true" name="wds:U_WDS|CPeak[10]" tap_mode="classic" type="combinatorial"/>
          <wire connection_status="true" name="wds:U_WDS|CPeak[11]" tap_mode="classic" type="combinatorial"/>
          <wire connection_status="true" name="wds:U_WDS|CPeak[12]" tap_mode="classic" type="combinatorial"/>
          <wire connection_status="true" name="wds:U_WDS|CPeak[13]" tap_mode="classic" type="combinatorial"/>
          <wire connection_status="true" name="wds:U_WDS|CPeak[1]" tap_mode="classic" type="combinatorial"/>
          <wire connection_status="true" name="wds:U_WDS|CPeak[2]" tap_mode="classic" type="combinatorial"/>
          <wire connection_status="true" name="wds:U_WDS|CPeak[3]" tap_mode="classic" type="combinatorial"/>
          <wire connection_status="true" name="wds:U_WDS|CPeak[4]" tap_mode="classic" type="combinatorial"/>
          <wire connection_status="true" name="wds:U_WDS|CPeak[5]" tap_mode="classic" type="combinatorial"/>
          <wire connection_status="true" name="wds:U_WDS|CPeak[6]" tap_mode="classic" type="combinatorial"/>
          <wire connection_status="true" name="wds:U_WDS|CPeak[7]" tap_mode="classic" type="combinatorial"/>
          <wire connection_status="true" name="wds:U_WDS|CPeak[8]" tap_mode="classic" type="combinatorial"/>
          <wire connection_status="true" name="wds:U_WDS|CPeak[9]" tap_mode="classic" type="combinatorial"/>
          <wire connection_status="true" name="wds:U_WDS|Din[0]" tap_mode="classic" type="combinatorial"/>
          <wire connection_status="true" name="wds:U_WDS|Din[10]" tap_mode="classic" type="combinatorial"/>
          <wire connection_status="true" name="wds:U_WDS|Din[11]" tap_mode="classic" type="combinatorial"/>
          <wire connection_status="true" name="wds:U_WDS|Din[12]" tap_mode="classic" type="combinatorial"/>
          <wire connection_status="true" name="wds:U_WDS|Din[13]" tap_mode="classic" type="combinatorial"/>
          <wire connection_status="true" name="wds:U_WDS|Din[14]" tap_mode="classic" type="combinatorial"/>
          <wire connection_status="true" name="wds:U_WDS|Din[15]" tap_mode="classic" type="combinatorial"/>
          <wire connection_status="true" name="wds:U_WDS|Din[1]" tap_mode="classic" type="combinatorial"/>
          <wire connection_status="true" name="wds:U_WDS|Din[2]" tap_mode="classic" type="combinatorial"/>
          <wire connection_status="true" name="wds:U_WDS|Din[3]" tap_mode="classic" type="combinatorial"/>
          <wire connection_status="true" name="wds:U_WDS|Din[4]" tap_mode="classic" type="combinatorial"/>
          <wire connection_status="true" name="wds:U_WDS|Din[5]" tap_mode="classic" type="combinatorial"/>
          <wire connection_status="true" name="wds:U_WDS|Din[6]" tap_mode="classic" type="combinatorial"/>
          <wire connection_status="true" name="wds:U_WDS|Din[7]" tap_mode="classic" type="combinatorial"/>
          <wire connection_status="true" name="wds:U_WDS|Din[8]" tap_mode="classic" type="combinatorial"/>
          <wire connection_status="true" name="wds:U_WDS|Din[9]" tap_mode="classic" type="combinatorial"/>
          <wire alias="Dout_Max_En" connection_status="true" name="wds:U_WDS|Dout_Max_En" tap_mode="classic" type="combinatorial"/>
          <wire alias="FDisc" connection_status="true" name="wds:U_WDS|FDISC" tap_mode="classic" type="combinatorial"/>
          <wire alias="PBusy" connection_status="true" name="wds:U_WDS|PBusy" tap_mode="classic" type="combinatorial"/>
          <wire alias="Pk_Done" connection_status="true" name="wds:U_WDS|PK_DONE" tap_mode="classic" type="combinatorial"/>
          <wire alias="Pslope" connection_status="true" name="wds:U_WDS|PSlope_Gen" tap_mode="classic" type="register"/>
          <wire connection_status="true" name="wds:U_WDS|dout[0]" tap_mode="classic" type="combinatorial"/>
          <wire connection_status="true" name="wds:U_WDS|dout[10]" tap_mode="classic" type="combinatorial"/>
          <wire connection_status="true" name="wds:U_WDS|dout[11]" tap_mode="classic" type="combinatorial"/>
          <wire connection_status="true" name="wds:U_WDS|dout[12]" tap_mode="classic" type="combinatorial"/>
          <wire connection_status="true" name="wds:U_WDS|dout[13]" tap_mode="classic" type="combinatorial"/>
          <wire connection_status="true" name="wds:U_WDS|dout[14]" tap_mode="classic" type="combinatorial"/>
          <wire connection_status="true" name="wds:U_WDS|dout[15]" tap_mode="classic" type="combinatorial"/>
          <wire connection_status="true" name="wds:U_WDS|dout[1]" tap_mode="classic" type="combinatorial"/>
          <wire connection_status="true" name="wds:U_WDS|dout[2]" tap_mode="classic" type="combinatorial"/>
          <wire connection_status="true" name="wds:U_WDS|dout[3]" tap_mode="classic" type="combinatorial"/>
          <wire connection_status="true" name="wds:U_WDS|dout[4]" tap_mode="classic" type="combinatorial"/>
          <wire connection_status="true" name="wds:U_WDS|dout[5]" tap_mode="classic" type="combinatorial"/>
          <wire connection_status="true" name="wds:U_WDS|dout[6]" tap_mode="classic" type="combinatorial"/>
          <wire connection_status="true" name="wds:U_WDS|dout[7]" tap_mode="classic" type="combinatorial"/>
          <wire connection_status="true" name="wds:U_WDS|dout[8]" tap_mode="classic" type="combinatorial"/>
          <wire connection_status="true" name="wds:U_WDS|dout[9]" tap_mode="classic" type="combinatorial"/>
          <wire alias="CPeak_Clamp_Max" connection_status="true" name="wds:U_WDS|lpm_compare:Clamp_Dout_Compare|agb" tap_mode="classic" type="combinatorial"/>
          <wire alias="Level_Cmp" connection_status="true" name="wds:U_WDS|lpm_compare:level_cmp_compare|agb" tap_mode="classic" type="combinatorial"/>
          <wire connection_status="true" name="wds:U_WDS|lpm_ff:CPEak_FF|q[0]" tap_mode="classic" type="combinatorial"/>
          <wire connection_status="true" name="wds:U_WDS|lpm_ff:CPEak_FF|q[10]" tap_mode="classic" type="combinatorial"/>
          <wire connection_status="true" name="wds:U_WDS|lpm_ff:CPEak_FF|q[11]" tap_mode="classic" type="combinatorial"/>
          <wire connection_status="true" name="wds:U_WDS|lpm_ff:CPEak_FF|q[12]" tap_mode="classic" type="combinatorial"/>
          <wire connection_status="true" name="wds:U_WDS|lpm_ff:CPEak_FF|q[13]" tap_mode="classic" type="combinatorial"/>
          <wire connection_status="true" name="wds:U_WDS|lpm_ff:CPEak_FF|q[1]" tap_mode="classic" type="combinatorial"/>
          <wire connection_status="true" name="wds:U_WDS|lpm_ff:CPEak_FF|q[2]" tap_mode="classic" type="combinatorial"/>
          <wire connection_status="true" name="wds:U_WDS|lpm_ff:CPEak_FF|q[3]" tap_mode="classic" type="combinatorial"/>
          <wire connection_status="true" name="wds:U_WDS|lpm_ff:CPEak_FF|q[4]" tap_mode="classic" type="combinatorial"/>
          <wire connection_status="true" name="wds:U_WDS|lpm_ff:CPEak_FF|q[5]" tap_mode="classic" type="combinatorial"/>
          <wire connection_status="true" name="wds:U_WDS|lpm_ff:CPEak_FF|q[6]" tap_mode="classic" type="combinatorial"/>
          <wire connection_status="true" name="wds:U_WDS|lpm_ff:CPEak_FF|q[7]" tap_mode="classic" type="combinatorial"/>
          <wire connection_status="true" name="wds:U_WDS|lpm_ff:CPEak_FF|q[8]" tap_mode="classic" type="combinatorial"/>
          <wire connection_status="true" name="wds:U_WDS|lpm_ff:CPEak_FF|q[9]" tap_mode="classic" type="combinatorial"/>
        </trigger_input_vec>
        <data_input_vec>
          <wire connection_status="true" name="wds:U_WDS|CPeak[0]" tap_mode="classic" type="combinatorial"/>
          <wire connection_status="true" name="wds:U_WDS|CPeak[10]" tap_mode="classic" type="combinatorial"/>
          <wire connection_status="true" name="wds:U_WDS|CPeak[11]" tap_mode="classic" type="combinatorial"/>
          <wire connection_status="true" name="wds:U_WDS|CPeak[12]" tap_mode="classic" type="combinatorial"/>
          <wire connection_status="true" name="wds:U_WDS|CPeak[13]" tap_mode="classic" type="combinatorial"/>
          <wire connection_status="true" name="wds:U_WDS|CPeak[1]" tap_mode="classic" type="combinatorial"/>
          <wire connection_status="true" name="wds:U_WDS|CPeak[2]" tap_mode="classic" type="combinatorial"/>
          <wire connection_status="true" name="wds:U_WDS|CPeak[3]" tap_mode="classic" type="combinatorial"/>
          <wire connection_status="true" name="wds:U_WDS|CPeak[4]" tap_mode="classic" type="combinatorial"/>
          <wire connection_status="true" name="wds:U_WDS|CPeak[5]" tap_mode="classic" type="combinatorial"/>
          <wire connection_status="true" name="wds:U_WDS|CPeak[6]" tap_mode="classic" type="combinatorial"/>
          <wire connection_status="true" name="wds:U_WDS|CPeak[7]" tap_mode="classic" type="combinatorial"/>
          <wire connection_status="true" name="wds:U_WDS|CPeak[8]" tap_mode="classic" type="combinatorial"/>
          <wire connection_status="true" name="wds:U_WDS|CPeak[9]" tap_mode="classic" type="combinatorial"/>
          <wire connection_status="true" name="wds:U_WDS|Din[0]" tap_mode="classic" type="combinatorial"/>
          <wire connection_status="true" name="wds:U_WDS|Din[10]" tap_mode="classic" type="combinatorial"/>
          <wire connection_status="true" name="wds:U_WDS|Din[11]" tap_mode="classic" type="combinatorial"/>
          <wire connection_status="true" name="wds:U_WDS|Din[12]" tap_mode="classic" type="combinatorial"/>
          <wire connection_status="true" name="wds:U_WDS|Din[13]" tap_mode="classic" type="combinatorial"/>
          <wire connection_status="true" name="wds:U_WDS|Din[14]" tap_mode="classic" type="combinatorial"/>
          <wire connection_status="true" name="wds:U_WDS|Din[15]" tap_mode="classic" type="combinatorial"/>
          <wire connection_status="true" name="wds:U_WDS|Din[1]" tap_mode="classic" type="combinatorial"/>
          <wire connection_status="true" name="wds:U_WDS|Din[2]" tap_mode="classic" type="combinatorial"/>
          <wire connection_status="true" name="wds:U_WDS|Din[3]" tap_mode="classic" type="combinatorial"/>
          <wire connection_status="true" name="wds:U_WDS|Din[4]" tap_mode="classic" type="combinatorial"/>
          <wire connection_status="true" name="wds:U_WDS|Din[5]" tap_mode="classic" type="combinatorial"/>
          <wire connection_status="true" name="wds:U_WDS|Din[6]" tap_mode="classic" type="combinatorial"/>
          <wire connection_status="true" name="wds:U_WDS|Din[7]" tap_mode="classic" type="combinatorial"/>
          <wire connection_status="true" name="wds:U_WDS|Din[8]" tap_mode="classic" type="combinatorial"/>
          <wire connection_status="true" name="wds:U_WDS|Din[9]" tap_mode="classic" type="combinatorial"/>
          <wire alias="Dout_Max_En" connection_status="true" name="wds:U_WDS|Dout_Max_En" tap_mode="classic" type="combinatorial"/>
          <wire alias="FDisc" connection_status="true" name="wds:U_WDS|FDISC" tap_mode="classic" type="combinatorial"/>
          <wire alias="PBusy" connection_status="true" name="wds:U_WDS|PBusy" tap_mode="classic" type="combinatorial"/>
          <wire alias="Pk_Done" connection_status="true" name="wds:U_WDS|PK_DONE" tap_mode="classic" type="combinatorial"/>
          <wire alias="Pslope" connection_status="true" name="wds:U_WDS|PSlope_Gen" tap_mode="classic" type="register"/>
          <wire connection_status="true" name="wds:U_WDS|dout[0]" tap_mode="classic" type="combinatorial"/>
          <wire connection_status="true" name="wds:U_WDS|dout[10]" tap_mode="classic" type="combinatorial"/>
          <wire connection_status="true" name="wds:U_WDS|dout[11]" tap_mode="classic" type="combinatorial"/>
          <wire connection_status="true" name="wds:U_WDS|dout[12]" tap_mode="classic" type="combinatorial"/>
          <wire connection_status="true" name="wds:U_WDS|dout[13]" tap_mode="classic" type="combinatorial"/>
          <wire connection_status="true" name="wds:U_WDS|dout[14]" tap_mode="classic" type="combinatorial"/>
          <wire connection_status="true" name="wds:U_WDS|dout[15]" tap_mode="classic" type="combinatorial"/>
          <wire connection_status="true" name="wds:U_WDS|dout[1]" tap_mode="classic" type="combinatorial"/>
          <wire connection_status="true" name="wds:U_WDS|dout[2]" tap_mode="classic" type="combinatorial"/>
          <wire connection_status="true" name="wds:U_WDS|dout[3]" tap_mode="classic" type="combinatorial"/>
          <wire connection_status="true" name="wds:U_WDS|dout[4]" tap_mode="classic" type="combinatorial"/>
          <wire connection_status="true" name="wds:U_WDS|dout[5]" tap_mode="classic" type="combinatorial"/>
          <wire connection_status="true" name="wds:U_WDS|dout[6]" tap_mode="classic" type="combinatorial"/>
          <wire connection_status="true" name="wds:U_WDS|dout[7]" tap_mode="classic" type="combinatorial"/>
          <wire connection_status="true" name="wds:U_WDS|dout[8]" tap_mode="classic" type="combinatorial"/>
          <wire connection_status="true" name="wds:U_WDS|dout[9]" tap_mode="classic" type="combinatorial"/>
          <wire alias="CPeak_Clamp_Max" connection_status="true" name="wds:U_WDS|lpm_compare:Clamp_Dout_Compare|agb" tap_mode="classic" type="combinatorial"/>
          <wire alias="Level_Cmp" connection_status="true" name="wds:U_WDS|lpm_compare:level_cmp_compare|agb" tap_mode="classic" type="combinatorial"/>
          <wire connection_status="true" name="wds:U_WDS|lpm_ff:CPEak_FF|q[0]" tap_mode="classic" type="combinatorial"/>
          <wire connection_status="true" name="wds:U_WDS|lpm_ff:CPEak_FF|q[10]" tap_mode="classic" type="combinatorial"/>
          <wire connection_status="true" name="wds:U_WDS|lpm_ff:CPEak_FF|q[11]" tap_mode="classic" type="combinatorial"/>
          <wire connection_status="true" name="wds:U_WDS|lpm_ff:CPEak_FF|q[12]" tap_mode="classic" type="combinatorial"/>
          <wire connection_status="true" name="wds:U_WDS|lpm_ff:CPEak_FF|q[13]" tap_mode="classic" type="combinatorial"/>
          <wire connection_status="true" name="wds:U_WDS|lpm_ff:CPEak_FF|q[1]" tap_mode="classic" type="combinatorial"/>
          <wire connection_status="true" name="wds:U_WDS|lpm_ff:CPEak_FF|q[2]" tap_mode="classic" type="combinatorial"/>
          <wire connection_status="true" name="wds:U_WDS|lpm_ff:CPEak_FF|q[3]" tap_mode="classic" type="combinatorial"/>
          <wire connection_status="true" name="wds:U_WDS|lpm_ff:CPEak_FF|q[4]" tap_mode="classic" type="combinatorial"/>
          <wire connection_status="true" name="wds:U_WDS|lpm_ff:CPEak_FF|q[5]" tap_mode="classic" type="combinatorial"/>
          <wire connection_status="true" name="wds:U_WDS|lpm_ff:CPEak_FF|q[6]" tap_mode="classic" type="combinatorial"/>
          <wire connection_status="true" name="wds:U_WDS|lpm_ff:CPEak_FF|q[7]" tap_mode="classic" type="combinatorial"/>
          <wire connection_status="true" name="wds:U_WDS|lpm_ff:CPEak_FF|q[8]" tap_mode="classic" type="combinatorial"/>
          <wire connection_status="true" name="wds:U_WDS|lpm_ff:CPEak_FF|q[9]" tap_mode="classic" type="combinatorial"/>
        </data_input_vec>
      </signal_vec>
      <presentation>
        <setup_view>
          <bus alias="Dout" is_signal_inverted="no" link="all" name="wds:U_WDS|dout[0..12]" order="lsb_to_msb" radix="line_signed" state="collapse" type="combinatorial">
            <net is_signal_inverted="no" name="wds:U_WDS|dout[0]"/>
            <net is_signal_inverted="no" name="wds:U_WDS|dout[1]"/>
            <net is_signal_inverted="no" name="wds:U_WDS|dout[2]"/>
            <net is_signal_inverted="no" name="wds:U_WDS|dout[3]"/>
            <net is_signal_inverted="no" name="wds:U_WDS|dout[4]"/>
            <net is_signal_inverted="no" name="wds:U_WDS|dout[5]"/>
            <net is_signal_inverted="no" name="wds:U_WDS|dout[6]"/>
            <net is_signal_inverted="no" name="wds:U_WDS|dout[7]"/>
            <net is_signal_inverted="no" name="wds:U_WDS|dout[8]"/>
            <net is_signal_inverted="no" name="wds:U_WDS|dout[9]"/>
            <net is_signal_inverted="no" name="wds:U_WDS|dout[10]"/>
            <net is_signal_inverted="no" name="wds:U_WDS|dout[11]"/>
            <net is_signal_inverted="no" name="wds:U_WDS|dout[12]"/>
          </bus>
          <net is_signal_inverted="no" name="wds:U_WDS|dout[13]"/>
          <net is_signal_inverted="no" name="wds:U_WDS|dout[14]"/>
          <net is_signal_inverted="no" name="wds:U_WDS|dout[15]"/>
          <bus alias="Int_CPeak" is_signal_inverted="no" link="all" name="wds:U_WDS|lpm_ff:CPEak_FF|q[0..13]" order="lsb_to_msb" radix="hex" state="collapse" type="combinatorial">
            <net is_signal_inverted="no" name="wds:U_WDS|lpm_ff:CPEak_FF|q[0]"/>
            <net is_signal_inverted="no" name="wds:U_WDS|lpm_ff:CPEak_FF|q[1]"/>
            <net is_signal_inverted="no" name="wds:U_WDS|lpm_ff:CPEak_FF|q[2]"/>
            <net is_signal_inverted="no" name="wds:U_WDS|lpm_ff:CPEak_FF|q[3]"/>
            <net is_signal_inverted="no" name="wds:U_WDS|lpm_ff:CPEak_FF|q[4]"/>
            <net is_signal_inverted="no" name="wds:U_WDS|lpm_ff:CPEak_FF|q[5]"/>
            <net is_signal_inverted="no" name="wds:U_WDS|lpm_ff:CPEak_FF|q[6]"/>
            <net is_signal_inverted="no" name="wds:U_WDS|lpm_ff:CPEak_FF|q[7]"/>
            <net is_signal_inverted="no" name="wds:U_WDS|lpm_ff:CPEak_FF|q[8]"/>
            <net is_signal_inverted="no" name="wds:U_WDS|lpm_ff:CPEak_FF|q[9]"/>
            <net is_signal_inverted="no" name="wds:U_WDS|lpm_ff:CPEak_FF|q[10]"/>
            <net is_signal_inverted="no" name="wds:U_WDS|lpm_ff:CPEak_FF|q[11]"/>
            <net is_signal_inverted="no" name="wds:U_WDS|lpm_ff:CPEak_FF|q[12]"/>
            <net is_signal_inverted="no" name="wds:U_WDS|lpm_ff:CPEak_FF|q[13]"/>
          </bus>
          <bus alias="CPeak" is_signal_inverted="no" link="all" name="wds:U_WDS|CPeak[0..13]" order="lsb_to_msb" radix="unsigned_dec" state="collapse" type="combinatorial">
            <net is_signal_inverted="no" name="wds:U_WDS|CPeak[0]"/>
            <net is_signal_inverted="no" name="wds:U_WDS|CPeak[1]"/>
            <net is_signal_inverted="no" name="wds:U_WDS|CPeak[2]"/>
            <net is_signal_inverted="no" name="wds:U_WDS|CPeak[3]"/>
            <net is_signal_inverted="no" name="wds:U_WDS|CPeak[4]"/>
            <net is_signal_inverted="no" name="wds:U_WDS|CPeak[5]"/>
            <net is_signal_inverted="no" name="wds:U_WDS|CPeak[6]"/>
            <net is_signal_inverted="no" name="wds:U_WDS|CPeak[7]"/>
            <net is_signal_inverted="no" name="wds:U_WDS|CPeak[8]"/>
            <net is_signal_inverted="no" name="wds:U_WDS|CPeak[9]"/>
            <net is_signal_inverted="no" name="wds:U_WDS|CPeak[10]"/>
            <net is_signal_inverted="no" name="wds:U_WDS|CPeak[11]"/>
            <net is_signal_inverted="no" name="wds:U_WDS|CPeak[12]"/>
            <net is_signal_inverted="no" name="wds:U_WDS|CPeak[13]"/>
          </bus>
          <net is_signal_inverted="no" name="wds:U_WDS|lpm_compare:Clamp_Dout_Compare|agb"/>
          <net is_signal_inverted="no" name="wds:U_WDS|Dout_Max_En"/>
          <net is_signal_inverted="no" name="wds:U_WDS|FDISC"/>
          <net is_signal_inverted="no" name="wds:U_WDS|PBusy"/>
          <net is_signal_inverted="no" name="wds:U_WDS|PK_DONE"/>
          <net is_signal_inverted="no" name="wds:U_WDS|lpm_compare:level_cmp_compare|agb"/>
          <net is_signal_inverted="no" name="wds:U_WDS|PSlope_Gen"/>
          <bus alias="Din" is_signal_inverted="no" link="all" name="wds:U_WDS|Din[0..15]" order="lsb_to_msb" radix="hex" state="collapse" type="combinatorial">
            <net is_signal_inverted="no" name="wds:U_WDS|Din[0]"/>
            <net is_signal_inverted="no" name="wds:U_WDS|Din[1]"/>
            <net is_signal_inverted="no" name="wds:U_WDS|Din[2]"/>
            <net is_signal_inverted="no" name="wds:U_WDS|Din[3]"/>
            <net is_signal_inverted="no" name="wds:U_WDS|Din[4]"/>
            <net is_signal_inverted="no" name="wds:U_WDS|Din[5]"/>
            <net is_signal_inverted="no" name="wds:U_WDS|Din[6]"/>
            <net is_signal_inverted="no" name="wds:U_WDS|Din[7]"/>
            <net is_signal_inverted="no" name="wds:U_WDS|Din[8]"/>
            <net is_signal_inverted="no" name="wds:U_WDS|Din[9]"/>
            <net is_signal_inverted="no" name="wds:U_WDS|Din[10]"/>
            <net is_signal_inverted="no" name="wds:U_WDS|Din[11]"/>
            <net is_signal_inverted="no" name="wds:U_WDS|Din[12]"/>
            <net is_signal_inverted="no" name="wds:U_WDS|Din[13]"/>
            <net is_signal_inverted="no" name="wds:U_WDS|Din[14]"/>
            <net is_signal_inverted="no" name="wds:U_WDS|Din[15]"/>
          </bus>
        </setup_view>
        <data_view>
          <bus alias="Dout" is_signal_inverted="no" link="all" name="wds:U_WDS|dout[0..12]" order="lsb_to_msb" radix="line_signed" state="collapse" type="combinatorial">
            <net is_signal_inverted="no" name="wds:U_WDS|dout[0]"/>
            <net is_signal_inverted="no" name="wds:U_WDS|dout[1]"/>
            <net is_signal_inverted="no" name="wds:U_WDS|dout[2]"/>
            <net is_signal_inverted="no" name="wds:U_WDS|dout[3]"/>
            <net is_signal_inverted="no" name="wds:U_WDS|dout[4]"/>
            <net is_signal_inverted="no" name="wds:U_WDS|dout[5]"/>
            <net is_signal_inverted="no" name="wds:U_WDS|dout[6]"/>
            <net is_signal_inverted="no" name="wds:U_WDS|dout[7]"/>
            <net is_signal_inverted="no" name="wds:U_WDS|dout[8]"/>
            <net is_signal_inverted="no" name="wds:U_WDS|dout[9]"/>
            <net is_signal_inverted="no" name="wds:U_WDS|dout[10]"/>
            <net is_signal_inverted="no" name="wds:U_WDS|dout[11]"/>
            <net is_signal_inverted="no" name="wds:U_WDS|dout[12]"/>
          </bus>
          <net is_signal_inverted="no" name="wds:U_WDS|dout[13]"/>
          <net is_signal_inverted="no" name="wds:U_WDS|dout[14]"/>
          <net is_signal_inverted="no" name="wds:U_WDS|dout[15]"/>
          <bus alias="Int_CPeak" is_signal_inverted="no" link="all" name="wds:U_WDS|lpm_ff:CPEak_FF|q[0..13]" order="lsb_to_msb" radix="hex" state="collapse" type="combinatorial">
            <net is_signal_inverted="no" name="wds:U_WDS|lpm_ff:CPEak_FF|q[0]"/>
            <net is_signal_inverted="no" name="wds:U_WDS|lpm_ff:CPEak_FF|q[1]"/>
            <net is_signal_inverted="no" name="wds:U_WDS|lpm_ff:CPEak_FF|q[2]"/>
            <net is_signal_inverted="no" name="wds:U_WDS|lpm_ff:CPEak_FF|q[3]"/>
            <net is_signal_inverted="no" name="wds:U_WDS|lpm_ff:CPEak_FF|q[4]"/>
            <net is_signal_inverted="no" name="wds:U_WDS|lpm_ff:CPEak_FF|q[5]"/>
            <net is_signal_inverted="no" name="wds:U_WDS|lpm_ff:CPEak_FF|q[6]"/>
            <net is_signal_inverted="no" name="wds:U_WDS|lpm_ff:CPEak_FF|q[7]"/>
            <net is_signal_inverted="no" name="wds:U_WDS|lpm_ff:CPEak_FF|q[8]"/>
            <net is_signal_inverted="no" name="wds:U_WDS|lpm_ff:CPEak_FF|q[9]"/>
            <net is_signal_inverted="no" name="wds:U_WDS|lpm_ff:CPEak_FF|q[10]"/>
            <net is_signal_inverted="no" name="wds:U_WDS|lpm_ff:CPEak_FF|q[11]"/>
            <net is_signal_inverted="no" name="wds:U_WDS|lpm_ff:CPEak_FF|q[12]"/>
            <net is_signal_inverted="no" name="wds:U_WDS|lpm_ff:CPEak_FF|q[13]"/>
          </bus>
          <bus alias="CPeak" is_signal_inverted="no" link="all" name="wds:U_WDS|CPeak[0..13]" order="lsb_to_msb" radix="unsigned_dec" state="collapse" type="combinatorial">
            <net is_signal_inverted="no" name="wds:U_WDS|CPeak[0]"/>
            <net is_signal_inverted="no" name="wds:U_WDS|CPeak[1]"/>
            <net is_signal_inverted="no" name="wds:U_WDS|CPeak[2]"/>
            <net is_signal_inverted="no" name="wds:U_WDS|CPeak[3]"/>
            <net is_signal_inverted="no" name="wds:U_WDS|CPeak[4]"/>
            <net is_signal_inverted="no" name="wds:U_WDS|CPeak[5]"/>
            <net is_signal_inverted="no" name="wds:U_WDS|CPeak[6]"/>
            <net is_signal_inverted="no" name="wds:U_WDS|CPeak[7]"/>
            <net is_signal_inverted="no" name="wds:U_WDS|CPeak[8]"/>
            <net is_signal_inverted="no" name="wds:U_WDS|CPeak[9]"/>
            <net is_signal_inverted="no" name="wds:U_WDS|CPeak[10]"/>
            <net is_signal_inverted="no" name="wds:U_WDS|CPeak[11]"/>
            <net is_signal_inverted="no" name="wds:U_WDS|CPeak[12]"/>
            <net is_signal_inverted="no" name="wds:U_WDS|CPeak[13]"/>
          </bus>
          <net is_signal_inverted="no" name="wds:U_WDS|lpm_compare:Clamp_Dout_Compare|agb"/>
          <net is_signal_inverted="no" name="wds:U_WDS|Dout_Max_En"/>
          <net is_signal_inverted="no" name="wds:U_WDS|FDISC"/>
          <net is_signal_inverted="no" name="wds:U_WDS|PBusy"/>
          <net is_signal_inverted="no" name="wds:U_WDS|PK_DONE"/>
          <net is_signal_inverted="no" name="wds:U_WDS|lpm_compare:level_cmp_compare|agb"/>
          <net is_signal_inverted="no" name="wds:U_WDS|PSlope_Gen"/>
          <bus alias="Din" is_signal_inverted="no" link="all" name="wds:U_WDS|Din[0..15]" order="lsb_to_msb" radix="hex" state="collapse" type="combinatorial">
            <net is_signal_inverted="no" name="wds:U_WDS|Din[0]"/>
            <net is_signal_inverted="no" name="wds:U_WDS|Din[1]"/>
            <net is_signal_inverted="no" name="wds:U_WDS|Din[2]"/>
            <net is_signal_inverted="no" name="wds:U_WDS|Din[3]"/>
            <net is_signal_inverted="no" name="wds:U_WDS|Din[4]"/>
            <net is_signal_inverted="no" name="wds:U_WDS|Din[5]"/>
            <net is_signal_inverted="no" name="wds:U_WDS|Din[6]"/>
            <net is_signal_inverted="no" name="wds:U_WDS|Din[7]"/>
            <net is_signal_inverted="no" name="wds:U_WDS|Din[8]"/>
            <net is_signal_inverted="no" name="wds:U_WDS|Din[9]"/>
            <net is_signal_inverted="no" name="wds:U_WDS|Din[10]"/>
            <net is_signal_inverted="no" name="wds:U_WDS|Din[11]"/>
            <net is_signal_inverted="no" name="wds:U_WDS|Din[12]"/>
            <net is_signal_inverted="no" name="wds:U_WDS|Din[13]"/>
            <net is_signal_inverted="no" name="wds:U_WDS|Din[14]"/>
            <net is_signal_inverted="no" name="wds:U_WDS|Din[15]"/>
          </bus>
        </data_view>
      </presentation>
      <trigger global_temp="1" name="trigger: 2006/04/18 11:12:10  #1" position="pre" segment_size="1" trigger_in="dont_care" trigger_out="active high" trigger_type="circular">
        <events>
          <level enabled="yes" type="basic">'Pk_Done' == rising edge
            <op_node/>
          </level>
        </events>
      </trigger>
    </signal_set>
  </instance>
  <mnemonics/>
  <global_info>
    <single attribute="active instance" value="0"/>
    <multi attribute="column width" size="18" value="34,151,140,74,68,70,88,100,101,101,101,101,101,101,101,101,107,78"/>
    <multi attribute="window position" size="9" value="1288,632,1276,0,356,99,0,0,0"/>
  </global_info>
</session>
