Analysis & Synthesis report for fconfig
Wed Jan 04 11:10:19 2006
Version 5.1 Build 176 10/26/2005 Service Pack 0.15 SJ Full Version


---------------------
; Table of Contents ;
---------------------
  1. Legal Notice
  2. Analysis & Synthesis Summary
  3. Analysis & Synthesis Settings
  4. Analysis & Synthesis Source Files Read
  5. Analysis & Synthesis Resource Usage Summary
  6. Analysis & Synthesis Resource Utilization by Entity
  7. General Register Statistics
  8. Inverted Register Statistics
  9. Gate-level Retiming
 10. Analysis & Synthesis Equations
 11. Analysis & Synthesis Messages



----------------
; Legal Notice ;
----------------
Copyright (C) 1991-2005 Altera Corporation
Your use of Altera Corporation's design tools, logic functions 
and other software and tools, and its AMPP partner logic 
functions, and any output files any of the foregoing 
(including device programming or simulation files), and any 
associated documentation or information are expressly subject 
to the terms and conditions of the Altera Program License 
Subscription Agreement, Altera MegaCore Function License 
Agreement, or other applicable license agreement, including, 
without limitation, that your use is for the sole purpose of 
programming logic devices manufactured by Altera and sold by 
Altera or its authorized distributors.  Please refer to the 
applicable agreement for further details.



+--------------------------------------------------------------------------------+
; Analysis & Synthesis Summary                                                   ;
+-----------------------------+--------------------------------------------------+
; Analysis & Synthesis Status ; Successful - Wed Jan 04 11:10:19 2006            ;
; Quartus II Version          ; 5.1 Build 176 10/26/2005 SP 0.15 SJ Full Version ;
; Revision Name               ; fconfig                                          ;
; Top-level Entity Name       ; FCONFIG                                          ;
; Family                      ; APEX20KE                                         ;
; Total logic elements        ; 93                                               ;
; Total pins                  ; 26                                               ;
; Total virtual pins          ; 0                                                ;
; Total memory bits           ; 0                                                ;
; Total PLLs                  ; 0                                                ;
+-----------------------------+--------------------------------------------------+


+-------------------------------------------------------------------------------------------------------------------------------+
; Analysis & Synthesis Settings                                                                                                 ;
+--------------------------------------------------------------------------------------------+------------------+---------------+
; Option                                                                                     ; Setting          ; Default Value ;
+--------------------------------------------------------------------------------------------+------------------+---------------+
; Device                                                                                     ; EP20K30ETC144-2X ;               ;
; Top-level entity name                                                                      ; fconfig          ; fconfig       ;
; Family name                                                                                ; APEX20KE         ; Stratix       ;
; VHDL Show LMF Mapping Messages                                                             ; Off              ;               ;
; Optimization Technique -- APEX 20K/APEX 20KE/APEX 20KC/APEX II/ARM-based Excalibur         ; Speed            ; Balanced      ;
; Perform WYSIWYG Primitive Resynthesis                                                      ; On               ; Off           ;
; Perform gate-level register retiming                                                       ; On               ; Off           ;
; Use smart compilation                                                                      ; Off              ; Off           ;
; Create Debugging Nodes for IP Cores                                                        ; Off              ; Off           ;
; Preserve fewer node names                                                                  ; On               ; On            ;
; Disable OpenCore Plus hardware evaluation                                                  ; Off              ; Off           ;
; Verilog Version                                                                            ; Verilog_2001     ; Verilog_2001  ;
; VHDL Version                                                                               ; VHDL93           ; VHDL93        ;
; State Machine Processing                                                                   ; Auto             ; Auto          ;
; Extract Verilog State Machines                                                             ; On               ; On            ;
; Extract VHDL State Machines                                                                ; On               ; On            ;
; Add Pass-Through Logic to Inferred RAMs                                                    ; On               ; On            ;
; NOT Gate Push-Back                                                                         ; On               ; On            ;
; Power-Up Don't Care                                                                        ; On               ; On            ;
; Remove Redundant Logic Cells                                                               ; Off              ; Off           ;
; Remove Duplicate Registers                                                                 ; On               ; On            ;
; Ignore CARRY Buffers                                                                       ; Off              ; Off           ;
; Ignore CASCADE Buffers                                                                     ; Off              ; Off           ;
; Ignore GLOBAL Buffers                                                                      ; Off              ; Off           ;
; Ignore ROW GLOBAL Buffers                                                                  ; Off              ; Off           ;
; Ignore LCELL Buffers                                                                       ; Off              ; Off           ;
; Ignore SOFT Buffers                                                                        ; On               ; On            ;
; Limit AHDL Integers to 32 Bits                                                             ; Off              ; Off           ;
; Auto Implement in ROM                                                                      ; Off              ; Off           ;
; Technology Mapper -- APEX 20K/APEX 20KE/APEX 20KC/APEX II/ARM-based Excalibur              ; LUT              ; LUT           ;
; Allow XOR Gate Usage                                                                       ; On               ; On            ;
; Carry Chain Length                                                                         ; 48               ; 48            ;
; Cascade Chain Length                                                                       ; 2                ; 2             ;
; Parallel Expander Chain Length -- APEX 20K/APEX 20KE/APEX 20KC/APEX II/ARM-based Excalibur ; 16               ; 16            ;
; Auto Carry Chains                                                                          ; On               ; On            ;
; Auto Parallel Expanders                                                                    ; On               ; On            ;
; Auto Open-Drain Pins                                                                       ; On               ; On            ;
; Remove Duplicate Logic                                                                     ; On               ; On            ;
; Allow register retiming to trade off Tsu/Tco with Fmax                                     ; On               ; On            ;
; Auto ROM Replacement                                                                       ; On               ; On            ;
; Auto RAM Replacement                                                                       ; On               ; On            ;
; Auto Shift Register Replacement                                                            ; On               ; On            ;
; Auto Clock Enable Replacement                                                              ; On               ; On            ;
; Auto Resource Sharing                                                                      ; Off              ; Off           ;
; Allow Any RAM Size For Recognition                                                         ; Off              ; Off           ;
; Allow Any ROM Size For Recognition                                                         ; Off              ; Off           ;
; Allow Any Shift Register Size For Recognition                                              ; Off              ; Off           ;
; Ignore translate_off and translate_on Synthesis Directives                                 ; Off              ; Off           ;
; Show Parameter Settings Tables in Synthesis Report                                         ; On               ; On            ;
; Ignore Maximum Fan-Out Assignments                                                         ; Off              ; Off           ;
; Retiming Meta-Stability Register Sequence Length                                           ; 2                ; 2             ;
; HDL message level                                                                          ; Level2           ; Level2        ;
+--------------------------------------------------------------------------------------------+------------------+---------------+


+-----------------------------------------------------------------------------------------------------------------------------------------+
; Analysis & Synthesis Source Files Read                                                                                                  ;
+----------------------------------+-----------------+-----------------+------------------------------------------------------------------+
; File Name with User-Entered Path ; Used in Netlist ; File Type       ; File Name with Absolute Path                                     ;
+----------------------------------+-----------------+-----------------+------------------------------------------------------------------+
; fconfig.vhd                      ; yes             ; User VHDL File  ; F:/Projects/DPP-II/p19700-1/Software/ep99980/fconfig/fconfig.vhd ;
+----------------------------------+-----------------+-----------------+------------------------------------------------------------------+


+-----------------------------------------------+
; Analysis & Synthesis Resource Usage Summary   ;
+-----------------------------------+-----------+
; Resource                          ; Usage     ;
+-----------------------------------+-----------+
; Total logic elements              ; 93        ;
; Total combinational functions     ; 85        ;
;     -- Total 4-input functions    ; 51        ;
;     -- Total 3-input functions    ; 18        ;
;     -- Total 2-input functions    ; 3         ;
;     -- Total 1-input functions    ; 13        ;
;     -- Total 0-input functions    ; 0         ;
; Combinational cells for routing   ; 0         ;
; Total registers                   ; 56        ;
; Total logic cells in carry chains ; 13        ;
; I/O pins                          ; 26        ;
; Maximum fan-out node              ; iSHIFT_EN ;
; Maximum fan-out                   ; 69        ;
; Total fan-out                     ; 426       ;
; Average fan-out                   ; 3.58      ;
+-----------------------------------+-----------+


+--------------------------------------------------------------------------------------------------------------------------------------------------------------------------------------------------------+
; Analysis & Synthesis Resource Utilization by Entity                                                                                                                                                    ;
+----------------------------+-------------+--------------+-------------+------+--------------+--------------+-------------------+------------------+-----------------+------------+---------------------+
; Compilation Hierarchy Node ; Logic Cells ; LC Registers ; Memory Bits ; Pins ; Virtual Pins ; LUT-Only LCs ; Register-Only LCs ; LUT/Register LCs ; Carry Chain LCs ; Packed LCs ; Full Hierarchy Name ;
+----------------------------+-------------+--------------+-------------+------+--------------+--------------+-------------------+------------------+-----------------+------------+---------------------+
; |FCONFIG                   ; 93 (93)     ; 56           ; 0           ; 26   ; 0            ; 37 (37)      ; 8 (8)             ; 48 (48)          ; 13 (13)         ; 0 (0)      ; |FCONFIG            ;
+----------------------------+-------------+--------------+-------------+------+--------------+--------------+-------------------+------------------+-----------------+------------+---------------------+
Note: For table entries with two numbers listed, the numbers in parentheses indicate the number of resources of the given type used by the specific entity alone. The numbers listed outside of parentheses indicate the total resources of the given type used by the specific entity and all of its sub-entities in the hierarchy.


+------------------------------------------------------+
; General Register Statistics                          ;
+----------------------------------------------+-------+
; Statistic                                    ; Value ;
+----------------------------------------------+-------+
; Total registers                              ; 56    ;
; Number of registers using Synchronous Clear  ; 13    ;
; Number of registers using Synchronous Load   ; 0     ;
; Number of registers using Asynchronous Clear ; 55    ;
; Number of registers using Asynchronous Load  ; 0     ;
; Number of registers using Clock Enable       ; 1     ;
; Number of registers using Preset             ; 0     ;
+----------------------------------------------+-------+


+--------------------------------------------------+
; Inverted Register Statistics                     ;
+----------------------------------------+---------+
; Inverted Register                      ; Fan out ;
+----------------------------------------+---------+
; NCONFIG~reg0                           ; 10      ;
; Total number of inverted registers = 1 ;         ;
+----------------------------------------+---------+


+--------------------------------------------------+
; Gate-level Retiming                              ;
+-------------------+------------+-----------------+
; Register Name     ; Clock Name ; Created/Deleted ;
+-------------------+------------+-----------------+
; FPGA_REG[0]       ; CLK20      ; Deleted         ;
; FPGA_REG[1]       ; CLK20      ; Deleted         ;
; FPGA_REG[2]       ; CLK20      ; Deleted         ;
; FPGA_REG[3]       ; CLK20      ; Deleted         ;
; FPGA_REG[4]       ; CLK20      ; Deleted         ;
; FPGA_REG[5]       ; CLK20      ; Deleted         ;
; FPGA_REG[6]       ; CLK20      ; Deleted         ;
; FPGA_REG[7]       ; CLK20      ; Deleted         ;
; FPGA_REG[8]       ; CLK20      ; Deleted         ;
; FPGA_REG[9]       ; CLK20      ; Deleted         ;
; FPGA_REG[10]      ; CLK20      ; Deleted         ;
; FPGA_REG[11]      ; CLK20      ; Deleted         ;
; FPGA_REG[12]      ; CLK20      ; Deleted         ;
; FPGA_REG[13]      ; CLK20      ; Deleted         ;
; FPGA_REG[14]      ; CLK20      ; Deleted         ;
; FPGA_REG[15]      ; CLK20      ; Deleted         ;
; FPGA_REG[0]~3610  ; CLK20      ; Created         ;
; FPGA_REG[0]~3611  ; CLK20      ; Created         ;
; FPGA_REG[1]~3612  ; CLK20      ; Created         ;
; FPGA_REG[1]~3613  ; CLK20      ; Created         ;
; FPGA_REG[2]~3614  ; CLK20      ; Created         ;
; FPGA_REG[2]~3615  ; CLK20      ; Created         ;
; FPGA_REG[3]~3616  ; CLK20      ; Created         ;
; FPGA_REG[3]~3617  ; CLK20      ; Created         ;
; FPGA_REG[4]~3618  ; CLK20      ; Created         ;
; FPGA_REG[4]~3619  ; CLK20      ; Created         ;
; FPGA_REG[5]~3620  ; CLK20      ; Created         ;
; FPGA_REG[5]~3621  ; CLK20      ; Created         ;
; FPGA_REG[6]~3622  ; CLK20      ; Created         ;
; FPGA_REG[6]~3623  ; CLK20      ; Created         ;
; FPGA_REG[7]~3624  ; CLK20      ; Created         ;
; FPGA_REG[7]~3625  ; CLK20      ; Created         ;
; FPGA_REG[8]~3626  ; CLK20      ; Created         ;
; FPGA_REG[8]~3627  ; CLK20      ; Created         ;
; FPGA_REG[9]~3628  ; CLK20      ; Created         ;
; FPGA_REG[9]~3629  ; CLK20      ; Created         ;
; FPGA_REG[10]~3630 ; CLK20      ; Created         ;
; FPGA_REG[10]~3631 ; CLK20      ; Created         ;
; FPGA_REG[11]~3632 ; CLK20      ; Created         ;
; FPGA_REG[11]~3633 ; CLK20      ; Created         ;
; FPGA_REG[12]~3634 ; CLK20      ; Created         ;
; FPGA_REG[12]~3635 ; CLK20      ; Created         ;
; FPGA_REG[13]~3636 ; CLK20      ; Created         ;
; FPGA_REG[13]~3637 ; CLK20      ; Created         ;
; FPGA_REG[14]~3638 ; CLK20      ; Created         ;
; FPGA_REG[14]~3639 ; CLK20      ; Created         ;
; FPGA_REG[15]~3640 ; CLK20      ; Created         ;
; FPGA_REG[15]~3641 ; CLK20      ; Created         ;
+-------------------+------------+-----------------+


+--------------------------------+
; Analysis & Synthesis Equations ;
+--------------------------------+
The equations can be found in F:/Projects/DPP-II/p19700-1/Software/ep99980/fconfig/fconfig.map.eqn.


+-------------------------------+
; Analysis & Synthesis Messages ;
+-------------------------------+
Info: *******************************************************************
Info: Running Quartus II Analysis & Synthesis
    Info: Version 5.1 Build 176 10/26/2005 Service Pack 0.15 SJ Full Version
    Info: Processing started: Wed Jan 04 11:10:16 2006
Info: Command: quartus_map --read_settings_files=on --write_settings_files=off fconfig -c fconfig
Info: Found 2 design units, including 1 entities, in source file fconfig.vhd
    Info: Found design unit 1: FCONFIG-behavioral
    Info: Found entity 1: FCONFIG
Info: Found 2 design units, including 1 entities, in source file simulation/modelsim/tb.vhd
    Info: Found design unit 1: tb-test_bench
    Info: Found entity 1: tb
Info: Elaborating entity "fconfig" for the top level hierarchy
Info: Duplicate registers merged to single register
    Info: Duplicate register "iDCLK" merged to single register "SHIFT_CNT[0]"
Info: Resynthesizing 0 WYSIWYG logic cells and I/Os using "speed" technology mapper which leaves 13 WYSIWYG logic cells and I/Os untouched
Info: Registers with preset signals will power-up high
Info: DEV_CLRn pin will set, and not reset, register with preset signal due to NOT Gate Push-Back
Info: Performing gate-level register retiming
Info: Not allowed to move 7 registers
    Info: Not allowed to move 3 registers because they are directly fed by input pins
    Info: Not allowed to move 4 registers because they feed output pins directly
Info: Quartus II software applied gate-level register retiming to 1 clock domains
    Info: Quartus II software applied gate-level register retiming to clock "CLK20": created 32 new registers, removed 16 registers, left 11 registers untouched
Info: Implemented 119 device resources after synthesis - the final resource count might be different
    Info: Implemented 22 input pins
    Info: Implemented 4 output pins
    Info: Implemented 93 logic cells
Info: Quartus II Analysis & Synthesis was successful. 0 errors, 0 warnings
    Info: Processing ended: Wed Jan 04 11:10:19 2006
    Info: Elapsed time: 00:00:03


