Analysis & Synthesis report for fir_pproc
Mon Mar 27 10:08:02 2006
Version 5.1 Build 216 03/06/2006 Service Pack 2 SJ Full Version


---------------------
; Table of Contents ;
---------------------
  1. Legal Notice
  2. Analysis & Synthesis Summary
  3. Analysis & Synthesis Settings
  4. Analysis & Synthesis Source Files Read
  5. Analysis & Synthesis Resource Usage Summary
  6. Analysis & Synthesis Resource Utilization by Entity
  7. Analysis & Synthesis RAM Summary
  8. General Register Statistics
  9. Parameter Settings for User Entity Instance: LPM_FF:fir_out_del_ff
 10. Parameter Settings for User Entity Instance: LPM_COMPARE:fir_pslope_compare
 11. Parameter Settings for User Entity Instance: LPM_COMPARE:fir_max_cmp
 12. Parameter Settings for User Entity Instance: LPM_FF:max_fir_ff
 13. Parameter Settings for User Entity Instance: LPM_FF:Cpeak_Mux_ff
 14. Parameter Settings for User Entity Instance: LPM_FF:Cpeak_ff
 15. Parameter Settings for User Entity Instance: LPM_RAM_DQ:ROI_RAM
 16. Parameter Settings for User Entity Instance: LPM_COMPARE:Clip_Min_Cmp
 17. Parameter Settings for User Entity Instance: LPM_COMPARE:Clip_Max_Cmp
 18. Parameter Settings for User Entity Instance: LPM_COUNTER:ROI_SUM_CNTR
 19. Analysis & Synthesis Equations
 20. Analysis & Synthesis Messages



----------------
; Legal Notice ;
----------------
Copyright (C) 1991-2006 Altera Corporation
Your use of Altera Corporation's design tools, logic functions 
and other software and tools, and its AMPP partner logic 
functions, and any output files any of the foregoing 
(including device programming or simulation files), and any 
associated documentation or information are expressly subject 
to the terms and conditions of the Altera Program License 
Subscription Agreement, Altera MegaCore Function License 
Agreement, or other applicable license agreement, including, 
without limitation, that your use is for the sole purpose of 
programming logic devices manufactured by Altera and sold by 
Altera or its authorized distributors.  Please refer to the 
applicable agreement for further details.



+-----------------------------------------------------------------------------+
; Analysis & Synthesis Summary                                                ;
+-----------------------------+-----------------------------------------------+
; Analysis & Synthesis Status ; Successful - Mon Mar 27 10:08:02 2006         ;
; Quartus II Version          ; 5.1 Build 216 03/06/2006 SP 2 SJ Full Version ;
; Revision Name               ; fir_pproc                                     ;
; Top-level Entity Name       ; fir_pproc                                     ;
; Family                      ; APEX20KE                                      ;
; Total logic elements        ; 184                                           ;
; Total pins                  ; 139                                           ;
; Total virtual pins          ; 0                                             ;
; Total memory bits           ; 4,096                                         ;
; Total PLLs                  ; 0                                             ;
+-----------------------------+-----------------------------------------------+


+--------------------------------------------------------------------------------------------------------------------------------+
; Analysis & Synthesis Settings                                                                                                  ;
+--------------------------------------------------------------------------------------------+-------------------+---------------+
; Option                                                                                     ; Setting           ; Default Value ;
+--------------------------------------------------------------------------------------------+-------------------+---------------+
; Device                                                                                     ; EP20K300EQC240-2X ;               ;
; Top-level entity name                                                                      ; fir_pproc         ; fir_pproc     ;
; Family name                                                                                ; APEX20KE          ; Stratix       ;
; VHDL Show LMF Mapping Messages                                                             ; Off               ;               ;
; Optimization Technique -- APEX 20K/APEX 20KE/APEX 20KC/APEX II/ARM-based Excalibur         ; Speed             ; Balanced      ;
; Use smart compilation                                                                      ; Off               ; Off           ;
; Create Debugging Nodes for IP Cores                                                        ; Off               ; Off           ;
; Preserve fewer node names                                                                  ; On                ; On            ;
; Disable OpenCore Plus hardware evaluation                                                  ; Off               ; Off           ;
; Verilog Version                                                                            ; Verilog_2001      ; Verilog_2001  ;
; VHDL Version                                                                               ; VHDL93            ; VHDL93        ;
; State Machine Processing                                                                   ; Auto              ; Auto          ;
; Extract Verilog State Machines                                                             ; On                ; On            ;
; Extract VHDL State Machines                                                                ; On                ; On            ;
; Add Pass-Through Logic to Inferred RAMs                                                    ; On                ; On            ;
; NOT Gate Push-Back                                                                         ; On                ; On            ;
; Power-Up Don't Care                                                                        ; On                ; On            ;
; Remove Redundant Logic Cells                                                               ; Off               ; Off           ;
; Remove Duplicate Registers                                                                 ; On                ; On            ;
; Ignore CARRY Buffers                                                                       ; Off               ; Off           ;
; Ignore CASCADE Buffers                                                                     ; Off               ; Off           ;
; Ignore GLOBAL Buffers                                                                      ; Off               ; Off           ;
; Ignore ROW GLOBAL Buffers                                                                  ; Off               ; Off           ;
; Ignore LCELL Buffers                                                                       ; Off               ; Off           ;
; Ignore SOFT Buffers                                                                        ; On                ; On            ;
; Limit AHDL Integers to 32 Bits                                                             ; Off               ; Off           ;
; Auto Implement in ROM                                                                      ; Off               ; Off           ;
; Technology Mapper -- APEX 20K/APEX 20KE/APEX 20KC/APEX II/ARM-based Excalibur              ; LUT               ; LUT           ;
; Allow XOR Gate Usage                                                                       ; On                ; On            ;
; Carry Chain Length                                                                         ; 48                ; 48            ;
; Cascade Chain Length                                                                       ; 2                 ; 2             ;
; Parallel Expander Chain Length -- APEX 20K/APEX 20KE/APEX 20KC/APEX II/ARM-based Excalibur ; 16                ; 16            ;
; Auto Carry Chains                                                                          ; On                ; On            ;
; Auto Parallel Expanders                                                                    ; On                ; On            ;
; Auto Open-Drain Pins                                                                       ; On                ; On            ;
; Remove Duplicate Logic                                                                     ; On                ; On            ;
; Perform WYSIWYG Primitive Resynthesis                                                      ; Off               ; Off           ;
; Perform gate-level register retiming                                                       ; Off               ; Off           ;
; Allow register retiming to trade off Tsu/Tco with Fmax                                     ; On                ; On            ;
; Auto ROM Replacement                                                                       ; On                ; On            ;
; Auto RAM Replacement                                                                       ; On                ; On            ;
; Auto Shift Register Replacement                                                            ; On                ; On            ;
; Auto Clock Enable Replacement                                                              ; On                ; On            ;
; Auto Resource Sharing                                                                      ; Off               ; Off           ;
; Allow Any RAM Size For Recognition                                                         ; Off               ; Off           ;
; Allow Any ROM Size For Recognition                                                         ; Off               ; Off           ;
; Allow Any Shift Register Size For Recognition                                              ; Off               ; Off           ;
; Ignore translate_off and translate_on Synthesis Directives                                 ; Off               ; Off           ;
; Show Parameter Settings Tables in Synthesis Report                                         ; On                ; On            ;
; Ignore Maximum Fan-Out Assignments                                                         ; Off               ; Off           ;
; Retiming Meta-Stability Register Sequence Length                                           ; 2                 ; 2             ;
; HDL message level                                                                          ; Level2            ; Level2        ;
+--------------------------------------------------------------------------------------------+-------------------+---------------+


+---------------------------------------------------------------------------------------------------------------------------------------------+
; Analysis & Synthesis Source Files Read                                                                                                      ;
+----------------------------------+-----------------+-----------------+----------------------------------------------------------------------+
; File Name with User-Entered Path ; Used in Netlist ; File Type       ; File Name with Absolute Path                                         ;
+----------------------------------+-----------------+-----------------+----------------------------------------------------------------------+
; fir_pproc.vhd                    ; yes             ; User VHDL File  ; H:/Projects/DPP-II/p19700-1/Software/ep99840/fir_pproc/fir_pproc.vhd ;
; LPM_FF.tdf                       ; yes             ; Megafunction    ; c:/altera/quartus51/libraries/megafunctions/LPM_FF.tdf               ;
; lpm_constant.inc                 ; yes             ; Other           ; c:/altera/quartus51/libraries/megafunctions/lpm_constant.inc         ;
; aglobal51.inc                    ; yes             ; Other           ; c:/altera/quartus51/libraries/megafunctions/aglobal51.inc            ;
; LPM_COMPARE.tdf                  ; yes             ; Megafunction    ; c:/altera/quartus51/libraries/megafunctions/LPM_COMPARE.tdf          ;
; comptree.inc                     ; yes             ; Other           ; c:/altera/quartus51/libraries/megafunctions/comptree.inc             ;
; altshift.inc                     ; yes             ; Other           ; c:/altera/quartus51/libraries/megafunctions/altshift.inc             ;
; comptree.tdf                     ; yes             ; Megafunction    ; c:/altera/quartus51/libraries/megafunctions/comptree.tdf             ;
; cmpchain.inc                     ; yes             ; Other           ; c:/altera/quartus51/libraries/megafunctions/cmpchain.inc             ;
; cmpchain.tdf                     ; yes             ; Megafunction    ; c:/altera/quartus51/libraries/megafunctions/cmpchain.tdf             ;
; altshift.tdf                     ; yes             ; Megafunction    ; c:/altera/quartus51/libraries/megafunctions/altshift.tdf             ;
; LPM_RAM_DQ.tdf                   ; yes             ; Megafunction    ; c:/altera/quartus51/libraries/megafunctions/LPM_RAM_DQ.tdf           ;
; altram.inc                       ; yes             ; Other           ; c:/altera/quartus51/libraries/megafunctions/altram.inc               ;
; lpm_mux.inc                      ; yes             ; Other           ; c:/altera/quartus51/libraries/megafunctions/lpm_mux.inc              ;
; lpm_decode.inc                   ; yes             ; Other           ; c:/altera/quartus51/libraries/megafunctions/lpm_decode.inc           ;
; altram.tdf                       ; yes             ; Megafunction    ; c:/altera/quartus51/libraries/megafunctions/altram.tdf               ;
; memmodes.inc                     ; yes             ; Other           ; c:/altera/quartus51/libraries/others/maxplus2/memmodes.inc           ;
; altsyncram.inc                   ; yes             ; Other           ; c:/altera/quartus51/libraries/megafunctions/altsyncram.inc           ;
; altqpram.inc                     ; yes             ; Other           ; c:/altera/quartus51/libraries/megafunctions/altqpram.inc             ;
; LPM_COUNTER.tdf                  ; yes             ; Megafunction    ; c:/altera/quartus51/libraries/megafunctions/LPM_COUNTER.tdf          ;
; lpm_add_sub.inc                  ; yes             ; Other           ; c:/altera/quartus51/libraries/megafunctions/lpm_add_sub.inc          ;
; cmpconst.inc                     ; yes             ; Other           ; c:/altera/quartus51/libraries/megafunctions/cmpconst.inc             ;
; lpm_compare.inc                  ; yes             ; Other           ; c:/altera/quartus51/libraries/megafunctions/lpm_compare.inc          ;
; lpm_counter.inc                  ; yes             ; Other           ; c:/altera/quartus51/libraries/megafunctions/lpm_counter.inc          ;
; dffeea.inc                       ; yes             ; Other           ; c:/altera/quartus51/libraries/megafunctions/dffeea.inc               ;
; alt_synch_counter.inc            ; yes             ; Other           ; c:/altera/quartus51/libraries/megafunctions/alt_synch_counter.inc    ;
; alt_synch_counter_f.inc          ; yes             ; Other           ; c:/altera/quartus51/libraries/megafunctions/alt_synch_counter_f.inc  ;
; alt_counter_f10ke.inc            ; yes             ; Other           ; c:/altera/quartus51/libraries/megafunctions/alt_counter_f10ke.inc    ;
; alt_counter_stratix.inc          ; yes             ; Other           ; c:/altera/quartus51/libraries/megafunctions/alt_counter_stratix.inc  ;
; alt_synch_counter.tdf            ; yes             ; Megafunction    ; c:/altera/quartus51/libraries/megafunctions/alt_synch_counter.tdf    ;
; mercury_lcell.inc                ; yes             ; Other           ; c:/altera/quartus51/libraries/megafunctions/mercury_lcell.inc        ;
; apex20ke_lcell.inc               ; yes             ; Other           ; c:/altera/quartus51/libraries/megafunctions/apex20ke_lcell.inc       ;
; apex20k_lcell.inc                ; yes             ; Other           ; c:/altera/quartus51/libraries/megafunctions/apex20k_lcell.inc        ;
; flex6k_lcell.inc                 ; yes             ; Other           ; c:/altera/quartus51/libraries/megafunctions/flex6k_lcell.inc         ;
; alt_asynch_counter.inc           ; yes             ; Other           ; c:/altera/quartus51/libraries/megafunctions/alt_asynch_counter.inc   ;
+----------------------------------+-----------------+-----------------+----------------------------------------------------------------------+


+---------------------------------------------+
; Analysis & Synthesis Resource Usage Summary ;
+-----------------------------------+---------+
; Resource                          ; Usage   ;
+-----------------------------------+---------+
; Total logic elements              ; 184     ;
; Total combinational functions     ; 149     ;
;     -- Total 4-input functions    ; 35      ;
;     -- Total 3-input functions    ; 8       ;
;     -- Total 2-input functions    ; 103     ;
;     -- Total 1-input functions    ; 3       ;
;     -- Total 0-input functions    ; 0       ;
; Combinational cells for routing   ; 0       ;
; Total registers                   ; 97      ;
; Total logic cells in carry chains ; 90      ;
; I/O pins                          ; 139     ;
; Total memory bits                 ; 4096    ;
; Maximum fan-out node              ; clk     ;
; Maximum fan-out                   ; 113     ;
; Total fan-out                     ; 986     ;
; Average fan-out                   ; 2.91    ;
+-----------------------------------+---------+


+-------------------------------------------------------------------------------------------------------------------------------------------------------------------------------------------------------------------------------------------------------------------------------+
; Analysis & Synthesis Resource Utilization by Entity                                                                                                                                                                                                                           ;
+----------------------------------------+-------------+--------------+-------------+------+--------------+--------------+-------------------+------------------+-----------------+------------+--------------------------------------------------------------------------------+
; Compilation Hierarchy Node             ; Logic Cells ; LC Registers ; Memory Bits ; Pins ; Virtual Pins ; LUT-Only LCs ; Register-Only LCs ; LUT/Register LCs ; Carry Chain LCs ; Packed LCs ; Full Hierarchy Name                                                            ;
+----------------------------------------+-------------+--------------+-------------+------+--------------+--------------+-------------------+------------------+-----------------+------------+--------------------------------------------------------------------------------+
; |fir_pproc                             ; 184 (37)    ; 97           ; 4096        ; 139  ; 0            ; 87 (29)      ; 35 (6)            ; 62 (2)           ; 90 (0)          ; 0 (0)      ; |fir_pproc                                                                     ;
;    |lpm_compare:Clip_Max_Cmp|          ; 13 (0)      ; 0            ; 0           ; 0    ; 0            ; 13 (0)       ; 0 (0)             ; 0 (0)            ; 13 (0)          ; 0 (0)      ; |fir_pproc|lpm_compare:Clip_Max_Cmp                                            ;
;       |comptree:comparator|            ; 13 (0)      ; 0            ; 0           ; 0    ; 0            ; 13 (0)       ; 0 (0)             ; 0 (0)            ; 13 (0)          ; 0 (0)      ; |fir_pproc|lpm_compare:Clip_Max_Cmp|comptree:comparator                        ;
;          |cmpchain:cmp_end|            ; 13 (13)     ; 0            ; 0           ; 0    ; 0            ; 13 (13)      ; 0 (0)             ; 0 (0)            ; 13 (13)         ; 0 (0)      ; |fir_pproc|lpm_compare:Clip_Max_Cmp|comptree:comparator|cmpchain:cmp_end       ;
;    |lpm_compare:Clip_Min_Cmp|          ; 13 (0)      ; 0            ; 0           ; 0    ; 0            ; 13 (0)       ; 0 (0)             ; 0 (0)            ; 13 (0)          ; 0 (0)      ; |fir_pproc|lpm_compare:Clip_Min_Cmp                                            ;
;       |comptree:comparator|            ; 13 (0)      ; 0            ; 0           ; 0    ; 0            ; 13 (0)       ; 0 (0)             ; 0 (0)            ; 13 (0)          ; 0 (0)      ; |fir_pproc|lpm_compare:Clip_Min_Cmp|comptree:comparator                        ;
;          |cmpchain:cmp_end|            ; 13 (13)     ; 0            ; 0           ; 0    ; 0            ; 13 (13)      ; 0 (0)             ; 0 (0)            ; 13 (13)         ; 0 (0)      ; |fir_pproc|lpm_compare:Clip_Min_Cmp|comptree:comparator|cmpchain:cmp_end       ;
;    |lpm_compare:fir_max_cmp|           ; 16 (0)      ; 0            ; 0           ; 0    ; 0            ; 16 (0)       ; 0 (0)             ; 0 (0)            ; 16 (0)          ; 0 (0)      ; |fir_pproc|lpm_compare:fir_max_cmp                                             ;
;       |comptree:comparator|            ; 16 (0)      ; 0            ; 0           ; 0    ; 0            ; 16 (0)       ; 0 (0)             ; 0 (0)            ; 16 (0)          ; 0 (0)      ; |fir_pproc|lpm_compare:fir_max_cmp|comptree:comparator                         ;
;          |cmpchain:cmp_end|            ; 16 (16)     ; 0            ; 0           ; 0    ; 0            ; 16 (16)      ; 0 (0)             ; 0 (0)            ; 16 (16)         ; 0 (0)      ; |fir_pproc|lpm_compare:fir_max_cmp|comptree:comparator|cmpchain:cmp_end        ;
;    |lpm_compare:fir_pslope_compare|    ; 16 (0)      ; 0            ; 0           ; 0    ; 0            ; 16 (0)       ; 0 (0)             ; 0 (0)            ; 16 (0)          ; 0 (0)      ; |fir_pproc|lpm_compare:fir_pslope_compare                                      ;
;       |comptree:comparator|            ; 16 (0)      ; 0            ; 0           ; 0    ; 0            ; 16 (0)       ; 0 (0)             ; 0 (0)            ; 16 (0)          ; 0 (0)      ; |fir_pproc|lpm_compare:fir_pslope_compare|comptree:comparator                  ;
;          |cmpchain:cmp_end|            ; 16 (16)     ; 0            ; 0           ; 0    ; 0            ; 16 (16)      ; 0 (0)             ; 0 (0)            ; 16 (16)         ; 0 (0)      ; |fir_pproc|lpm_compare:fir_pslope_compare|comptree:comparator|cmpchain:cmp_end ;
;    |lpm_counter:ROI_SUM_CNTR|          ; 32 (0)      ; 32           ; 0           ; 0    ; 0            ; 0 (0)        ; 0 (0)             ; 32 (0)           ; 32 (0)          ; 0 (0)      ; |fir_pproc|lpm_counter:ROI_SUM_CNTR                                            ;
;       |alt_synch_counter:wysi_counter| ; 32 (32)     ; 32           ; 0           ; 0    ; 0            ; 0 (0)        ; 0 (0)             ; 32 (32)          ; 32 (32)         ; 0 (0)      ; |fir_pproc|lpm_counter:ROI_SUM_CNTR|alt_synch_counter:wysi_counter             ;
;    |lpm_ff:Cpeak_Mux_ff|               ; 13 (13)     ; 13           ; 0           ; 0    ; 0            ; 0 (0)        ; 13 (13)           ; 0 (0)            ; 0 (0)           ; 0 (0)      ; |fir_pproc|lpm_ff:Cpeak_Mux_ff                                                 ;
;    |lpm_ff:Cpeak_ff|                   ; 12 (12)     ; 12           ; 0           ; 0    ; 0            ; 0 (0)        ; 0 (0)             ; 12 (12)          ; 0 (0)           ; 0 (0)      ; |fir_pproc|lpm_ff:Cpeak_ff                                                     ;
;    |lpm_ff:fir_out_del_ff|             ; 16 (16)     ; 16           ; 0           ; 0    ; 0            ; 0 (0)        ; 16 (16)           ; 0 (0)            ; 0 (0)           ; 0 (0)      ; |fir_pproc|lpm_ff:fir_out_del_ff                                               ;
;    |lpm_ff:max_fir_ff|                 ; 16 (16)     ; 16           ; 0           ; 0    ; 0            ; 0 (0)        ; 0 (0)             ; 16 (16)          ; 0 (0)           ; 0 (0)      ; |fir_pproc|lpm_ff:max_fir_ff                                                   ;
;    |lpm_ram_dq:ROI_RAM|                ; 0 (0)       ; 0            ; 4096        ; 0    ; 0            ; 0 (0)        ; 0 (0)             ; 0 (0)            ; 0 (0)           ; 0 (0)      ; |fir_pproc|lpm_ram_dq:ROI_RAM                                                  ;
;       |altram:sram|                    ; 0 (0)       ; 0            ; 4096        ; 0    ; 0            ; 0 (0)        ; 0 (0)             ; 0 (0)            ; 0 (0)           ; 0 (0)      ; |fir_pproc|lpm_ram_dq:ROI_RAM|altram:sram                                      ;
+----------------------------------------+-------------+--------------+-------------+------+--------------+--------------+-------------------+------------------+-----------------+------------+--------------------------------------------------------------------------------+
Note: For table entries with two numbers listed, the numbers in parentheses indicate the number of resources of the given type used by the specific entity alone. The numbers listed outside of parentheses indicate the total resources of the given type used by the specific entity and all of its sub-entities in the hierarchy.


+---------------------------------------------------------------------------------------------------------------------------------------+
; Analysis & Synthesis RAM Summary                                                                                                      ;
+----------------------------------------+-------------+--------------+--------------+--------------+--------------+------+-------------+
; Name                                   ; Mode        ; Port A Depth ; Port A Width ; Port B Depth ; Port B Width ; Size ; MIF         ;
+----------------------------------------+-------------+--------------+--------------+--------------+--------------+------+-------------+
; lpm_ram_dq:ROI_RAM|altram:sram|content ; Single Port ; 256          ; 16           ; --           ; --           ; 4096 ; ROI_RAM.MIF ;
+----------------------------------------+-------------+--------------+--------------+--------------+--------------+------+-------------+


+------------------------------------------------------+
; General Register Statistics                          ;
+----------------------------------------------+-------+
; Statistic                                    ; Value ;
+----------------------------------------------+-------+
; Total registers                              ; 97    ;
; Number of registers using Synchronous Clear  ; 32    ;
; Number of registers using Synchronous Load   ; 0     ;
; Number of registers using Asynchronous Clear ; 97    ;
; Number of registers using Asynchronous Load  ; 0     ;
; Number of registers using Clock Enable       ; 28    ;
; Number of registers using Preset             ; 0     ;
+----------------------------------------------+-------+


+--------------------------------------------------------------------+
; Parameter Settings for User Entity Instance: LPM_FF:fir_out_del_ff ;
+------------------------+----------+--------------------------------+
; Parameter Name         ; Value    ; Type                           ;
+------------------------+----------+--------------------------------+
; LPM_WIDTH              ; 16       ; Integer                        ;
; LPM_AVALUE             ; UNUSED   ; Untyped                        ;
; LPM_SVALUE             ; UNUSED   ; Untyped                        ;
; LPM_FFTYPE             ; DFF      ; Untyped                        ;
; DEVICE_FAMILY          ; APEX20KE ; Untyped                        ;
; CBXI_PARAMETER         ; NOTHING  ; Untyped                        ;
; AUTO_CARRY_CHAINS      ; ON       ; AUTO_CARRY                     ;
; IGNORE_CARRY_BUFFERS   ; OFF      ; IGNORE_CARRY                   ;
; AUTO_CASCADE_CHAINS    ; ON       ; AUTO_CASCADE                   ;
; IGNORE_CASCADE_BUFFERS ; OFF      ; IGNORE_CASCADE                 ;
+------------------------+----------+--------------------------------+
Note: In order to hide this table in the UI and the text report file, please set the "Show Parameter Settings Tables in Synthesis Report" option in "Analysis and Synthesis Settings -> More Settings" to "Off".


+-----------------------------------------------------------------------------+
; Parameter Settings for User Entity Instance: LPM_COMPARE:fir_pslope_compare ;
+------------------------+----------+-----------------------------------------+
; Parameter Name         ; Value    ; Type                                    ;
+------------------------+----------+-----------------------------------------+
; lpm_width              ; 16       ; Integer                                 ;
; LPM_REPRESENTATION     ; SIGNED   ; Untyped                                 ;
; LPM_PIPELINE           ; 0        ; Integer                                 ;
; CHAIN_SIZE             ; 8        ; Untyped                                 ;
; ONE_INPUT_IS_CONSTANT  ; NO       ; Untyped                                 ;
; CARRY_CHAIN            ; MANUAL   ; Untyped                                 ;
; CASCADE_CHAIN          ; MANUAL   ; Untyped                                 ;
; CARRY_CHAIN_LENGTH     ; 48       ; CARRY_CHAIN_LENGTH                      ;
; CASCADE_CHAIN_LENGTH   ; 2        ; CASCADE_CHAIN_LENGTH                    ;
; DEVICE_FAMILY          ; APEX20KE ; Untyped                                 ;
; CBXI_PARAMETER         ; NOTHING  ; Untyped                                 ;
; AUTO_CARRY_CHAINS      ; ON       ; AUTO_CARRY                              ;
; IGNORE_CARRY_BUFFERS   ; OFF      ; IGNORE_CARRY                            ;
; AUTO_CASCADE_CHAINS    ; ON       ; AUTO_CASCADE                            ;
; IGNORE_CASCADE_BUFFERS ; OFF      ; IGNORE_CASCADE                          ;
+------------------------+----------+-----------------------------------------+
Note: In order to hide this table in the UI and the text report file, please set the "Show Parameter Settings Tables in Synthesis Report" option in "Analysis and Synthesis Settings -> More Settings" to "Off".


+----------------------------------------------------------------------+
; Parameter Settings for User Entity Instance: LPM_COMPARE:fir_max_cmp ;
+------------------------+----------+----------------------------------+
; Parameter Name         ; Value    ; Type                             ;
+------------------------+----------+----------------------------------+
; lpm_width              ; 16       ; Integer                          ;
; LPM_REPRESENTATION     ; SIGNED   ; Untyped                          ;
; LPM_PIPELINE           ; 0        ; Integer                          ;
; CHAIN_SIZE             ; 8        ; Untyped                          ;
; ONE_INPUT_IS_CONSTANT  ; NO       ; Untyped                          ;
; CARRY_CHAIN            ; MANUAL   ; Untyped                          ;
; CASCADE_CHAIN          ; MANUAL   ; Untyped                          ;
; CARRY_CHAIN_LENGTH     ; 48       ; CARRY_CHAIN_LENGTH               ;
; CASCADE_CHAIN_LENGTH   ; 2        ; CASCADE_CHAIN_LENGTH             ;
; DEVICE_FAMILY          ; APEX20KE ; Untyped                          ;
; CBXI_PARAMETER         ; NOTHING  ; Untyped                          ;
; AUTO_CARRY_CHAINS      ; ON       ; AUTO_CARRY                       ;
; IGNORE_CARRY_BUFFERS   ; OFF      ; IGNORE_CARRY                     ;
; AUTO_CASCADE_CHAINS    ; ON       ; AUTO_CASCADE                     ;
; IGNORE_CASCADE_BUFFERS ; OFF      ; IGNORE_CASCADE                   ;
+------------------------+----------+----------------------------------+
Note: In order to hide this table in the UI and the text report file, please set the "Show Parameter Settings Tables in Synthesis Report" option in "Analysis and Synthesis Settings -> More Settings" to "Off".


+----------------------------------------------------------------+
; Parameter Settings for User Entity Instance: LPM_FF:max_fir_ff ;
+------------------------+----------+----------------------------+
; Parameter Name         ; Value    ; Type                       ;
+------------------------+----------+----------------------------+
; LPM_WIDTH              ; 16       ; Integer                    ;
; LPM_AVALUE             ; UNUSED   ; Untyped                    ;
; LPM_SVALUE             ; UNUSED   ; Untyped                    ;
; LPM_FFTYPE             ; DFF      ; Untyped                    ;
; DEVICE_FAMILY          ; APEX20KE ; Untyped                    ;
; CBXI_PARAMETER         ; NOTHING  ; Untyped                    ;
; AUTO_CARRY_CHAINS      ; ON       ; AUTO_CARRY                 ;
; IGNORE_CARRY_BUFFERS   ; OFF      ; IGNORE_CARRY               ;
; AUTO_CASCADE_CHAINS    ; ON       ; AUTO_CASCADE               ;
; IGNORE_CASCADE_BUFFERS ; OFF      ; IGNORE_CASCADE             ;
+------------------------+----------+----------------------------+
Note: In order to hide this table in the UI and the text report file, please set the "Show Parameter Settings Tables in Synthesis Report" option in "Analysis and Synthesis Settings -> More Settings" to "Off".


+------------------------------------------------------------------+
; Parameter Settings for User Entity Instance: LPM_FF:Cpeak_Mux_ff ;
+------------------------+----------+------------------------------+
; Parameter Name         ; Value    ; Type                         ;
+------------------------+----------+------------------------------+
; LPM_WIDTH              ; 13       ; Integer                      ;
; LPM_AVALUE             ; UNUSED   ; Untyped                      ;
; LPM_SVALUE             ; UNUSED   ; Untyped                      ;
; LPM_FFTYPE             ; DFF      ; Untyped                      ;
; DEVICE_FAMILY          ; APEX20KE ; Untyped                      ;
; CBXI_PARAMETER         ; NOTHING  ; Untyped                      ;
; AUTO_CARRY_CHAINS      ; ON       ; AUTO_CARRY                   ;
; IGNORE_CARRY_BUFFERS   ; OFF      ; IGNORE_CARRY                 ;
; AUTO_CASCADE_CHAINS    ; ON       ; AUTO_CASCADE                 ;
; IGNORE_CASCADE_BUFFERS ; OFF      ; IGNORE_CASCADE               ;
+------------------------+----------+------------------------------+
Note: In order to hide this table in the UI and the text report file, please set the "Show Parameter Settings Tables in Synthesis Report" option in "Analysis and Synthesis Settings -> More Settings" to "Off".


+--------------------------------------------------------------+
; Parameter Settings for User Entity Instance: LPM_FF:Cpeak_ff ;
+------------------------+----------+--------------------------+
; Parameter Name         ; Value    ; Type                     ;
+------------------------+----------+--------------------------+
; LPM_WIDTH              ; 12       ; Integer                  ;
; LPM_AVALUE             ; UNUSED   ; Untyped                  ;
; LPM_SVALUE             ; UNUSED   ; Untyped                  ;
; LPM_FFTYPE             ; DFF      ; Untyped                  ;
; DEVICE_FAMILY          ; APEX20KE ; Untyped                  ;
; CBXI_PARAMETER         ; NOTHING  ; Untyped                  ;
; AUTO_CARRY_CHAINS      ; ON       ; AUTO_CARRY               ;
; IGNORE_CARRY_BUFFERS   ; OFF      ; IGNORE_CARRY             ;
; AUTO_CASCADE_CHAINS    ; ON       ; AUTO_CASCADE             ;
; IGNORE_CASCADE_BUFFERS ; OFF      ; IGNORE_CASCADE           ;
+------------------------+----------+--------------------------+
Note: In order to hide this table in the UI and the text report file, please set the "Show Parameter Settings Tables in Synthesis Report" option in "Analysis and Synthesis Settings -> More Settings" to "Off".


+-----------------------------------------------------------------+
; Parameter Settings for User Entity Instance: LPM_RAM_DQ:ROI_RAM ;
+------------------------+-------------+--------------------------+
; Parameter Name         ; Value       ; Type                     ;
+------------------------+-------------+--------------------------+
; LPM_WIDTH              ; 16          ; Integer                  ;
; LPM_WIDTHAD            ; 8           ; Integer                  ;
; LPM_NUMWORDS           ; 0           ; Integer                  ;
; LPM_INDATA             ; REGISTERED  ; Untyped                  ;
; LPM_ADDRESS_CONTROL    ; REGISTERED  ; Untyped                  ;
; LPM_OUTDATA            ; REGISTERED  ; Untyped                  ;
; LPM_FILE               ; ROI_RAM.MIF ; Untyped                  ;
; USE_EAB                ; ON          ; Untyped                  ;
; DEVICE_FAMILY          ; APEX20KE    ; Untyped                  ;
; CBXI_PARAMETER         ; NOTHING     ; Untyped                  ;
; AUTO_CARRY_CHAINS      ; ON          ; AUTO_CARRY               ;
; IGNORE_CARRY_BUFFERS   ; OFF         ; IGNORE_CARRY             ;
; AUTO_CASCADE_CHAINS    ; ON          ; AUTO_CASCADE             ;
; IGNORE_CASCADE_BUFFERS ; OFF         ; IGNORE_CASCADE           ;
+------------------------+-------------+--------------------------+
Note: In order to hide this table in the UI and the text report file, please set the "Show Parameter Settings Tables in Synthesis Report" option in "Analysis and Synthesis Settings -> More Settings" to "Off".


+-----------------------------------------------------------------------+
; Parameter Settings for User Entity Instance: LPM_COMPARE:Clip_Min_Cmp ;
+------------------------+----------+-----------------------------------+
; Parameter Name         ; Value    ; Type                              ;
+------------------------+----------+-----------------------------------+
; lpm_width              ; 13       ; Integer                           ;
; LPM_REPRESENTATION     ; SIGNED   ; Untyped                           ;
; LPM_PIPELINE           ; 0        ; Integer                           ;
; CHAIN_SIZE             ; 8        ; Untyped                           ;
; ONE_INPUT_IS_CONSTANT  ; NO       ; Untyped                           ;
; CARRY_CHAIN            ; MANUAL   ; Untyped                           ;
; CASCADE_CHAIN          ; MANUAL   ; Untyped                           ;
; CARRY_CHAIN_LENGTH     ; 48       ; CARRY_CHAIN_LENGTH                ;
; CASCADE_CHAIN_LENGTH   ; 2        ; CASCADE_CHAIN_LENGTH              ;
; DEVICE_FAMILY          ; APEX20KE ; Untyped                           ;
; CBXI_PARAMETER         ; NOTHING  ; Untyped                           ;
; AUTO_CARRY_CHAINS      ; ON       ; AUTO_CARRY                        ;
; IGNORE_CARRY_BUFFERS   ; OFF      ; IGNORE_CARRY                      ;
; AUTO_CASCADE_CHAINS    ; ON       ; AUTO_CASCADE                      ;
; IGNORE_CASCADE_BUFFERS ; OFF      ; IGNORE_CASCADE                    ;
+------------------------+----------+-----------------------------------+
Note: In order to hide this table in the UI and the text report file, please set the "Show Parameter Settings Tables in Synthesis Report" option in "Analysis and Synthesis Settings -> More Settings" to "Off".


+-----------------------------------------------------------------------+
; Parameter Settings for User Entity Instance: LPM_COMPARE:Clip_Max_Cmp ;
+------------------------+----------+-----------------------------------+
; Parameter Name         ; Value    ; Type                              ;
+------------------------+----------+-----------------------------------+
; lpm_width              ; 13       ; Integer                           ;
; LPM_REPRESENTATION     ; SIGNED   ; Untyped                           ;
; LPM_PIPELINE           ; 0        ; Integer                           ;
; CHAIN_SIZE             ; 8        ; Untyped                           ;
; ONE_INPUT_IS_CONSTANT  ; NO       ; Untyped                           ;
; CARRY_CHAIN            ; MANUAL   ; Untyped                           ;
; CASCADE_CHAIN          ; MANUAL   ; Untyped                           ;
; CARRY_CHAIN_LENGTH     ; 48       ; CARRY_CHAIN_LENGTH                ;
; CASCADE_CHAIN_LENGTH   ; 2        ; CASCADE_CHAIN_LENGTH              ;
; DEVICE_FAMILY          ; APEX20KE ; Untyped                           ;
; CBXI_PARAMETER         ; NOTHING  ; Untyped                           ;
; AUTO_CARRY_CHAINS      ; ON       ; AUTO_CARRY                        ;
; IGNORE_CARRY_BUFFERS   ; OFF      ; IGNORE_CARRY                      ;
; AUTO_CASCADE_CHAINS    ; ON       ; AUTO_CASCADE                      ;
; IGNORE_CASCADE_BUFFERS ; OFF      ; IGNORE_CASCADE                    ;
+------------------------+----------+-----------------------------------+
Note: In order to hide this table in the UI and the text report file, please set the "Show Parameter Settings Tables in Synthesis Report" option in "Analysis and Synthesis Settings -> More Settings" to "Off".


+-----------------------------------------------------------------------+
; Parameter Settings for User Entity Instance: LPM_COUNTER:ROI_SUM_CNTR ;
+------------------------+-------------------+--------------------------+
; Parameter Name         ; Value             ; Type                     ;
+------------------------+-------------------+--------------------------+
; AUTO_CARRY_CHAINS      ; ON                ; AUTO_CARRY               ;
; IGNORE_CARRY_BUFFERS   ; OFF               ; IGNORE_CARRY             ;
; AUTO_CASCADE_CHAINS    ; ON                ; AUTO_CASCADE             ;
; IGNORE_CASCADE_BUFFERS ; OFF               ; IGNORE_CASCADE           ;
; LPM_WIDTH              ; 32                ; Integer                  ;
; LPM_DIRECTION          ; DEFAULT           ; Untyped                  ;
; LPM_MODULUS            ; 0                 ; Integer                  ;
; LPM_AVALUE             ; UNUSED            ; Untyped                  ;
; LPM_SVALUE             ; UNUSED            ; Untyped                  ;
; LPM_PORT_UPDOWN        ; PORT_CONNECTIVITY ; Untyped                  ;
; DEVICE_FAMILY          ; APEX20KE          ; Untyped                  ;
; CARRY_CHAIN            ; MANUAL            ; Untyped                  ;
; CARRY_CHAIN_LENGTH     ; 48                ; CARRY_CHAIN_LENGTH       ;
; NOT_GATE_PUSH_BACK     ; ON                ; NOT_GATE_PUSH_BACK       ;
; CARRY_CNT_EN           ; SMART             ; Untyped                  ;
; LABWIDE_SCLR           ; ON                ; Untyped                  ;
; USE_NEW_VERSION        ; TRUE              ; Untyped                  ;
; CBXI_PARAMETER         ; NOTHING           ; Untyped                  ;
+------------------------+-------------------+--------------------------+
Note: In order to hide this table in the UI and the text report file, please set the "Show Parameter Settings Tables in Synthesis Report" option in "Analysis and Synthesis Settings -> More Settings" to "Off".


+--------------------------------+
; Analysis & Synthesis Equations ;
+--------------------------------+
The equations can be found in H:/Projects/DPP-II/p19700-1/Software/ep99840/fir_pproc/fir_pproc.map.eqn.


+-------------------------------+
; Analysis & Synthesis Messages ;
+-------------------------------+
Info: *******************************************************************
Info: Running Quartus II Analysis & Synthesis
    Info: Version 5.1 Build 216 03/06/2006 Service Pack 2 SJ Full Version
    Info: Processing started: Mon Mar 27 10:07:57 2006
Info: Command: quartus_map --read_settings_files=on --write_settings_files=off fir_pproc -c fir_pproc
Info: Found 2 design units, including 1 entities, in source file fir_pproc.vhd
    Info: Found design unit 1: fir_pproc-behavioral
    Info: Found entity 1: fir_pproc
Info: Elaborating entity "fir_pproc" for the top level hierarchy
Info: Found 1 design units, including 1 entities, in source file c:/altera/quartus51/libraries/megafunctions/LPM_FF.tdf
    Info: Found entity 1: lpm_ff
Info: Elaborating entity "LPM_FF" for hierarchy "LPM_FF:fir_out_del_ff"
Info: Found 1 design units, including 1 entities, in source file c:/altera/quartus51/libraries/megafunctions/LPM_COMPARE.tdf
    Info: Found entity 1: lpm_compare
Info: Elaborating entity "LPM_COMPARE" for hierarchy "LPM_COMPARE:fir_pslope_compare"
Info: Found 1 design units, including 1 entities, in source file c:/altera/quartus51/libraries/megafunctions/comptree.tdf
    Info: Found entity 1: comptree
Info: Elaborating entity "comptree" for hierarchy "LPM_COMPARE:fir_pslope_compare|comptree:comparator"
Info: Found 1 design units, including 1 entities, in source file c:/altera/quartus51/libraries/megafunctions/cmpchain.tdf
    Info: Found entity 1: cmpchain
Info: Elaborating entity "cmpchain" for hierarchy "LPM_COMPARE:fir_pslope_compare|comptree:comparator|cmpchain:cmp_end"
Info: Found 1 design units, including 1 entities, in source file c:/altera/quartus51/libraries/megafunctions/altshift.tdf
    Info: Found entity 1: altshift
Info: Elaborating entity "altshift" for hierarchy "LPM_COMPARE:fir_pslope_compare|altshift:aeb_ext_lat_ffs"
Info: Elaborating entity "LPM_FF" for hierarchy "LPM_FF:max_fir_ff"
Info: Elaborating entity "LPM_FF" for hierarchy "LPM_FF:Cpeak_Mux_ff"
Info: Elaborating entity "LPM_FF" for hierarchy "LPM_FF:Cpeak_ff"
Info: Found 1 design units, including 1 entities, in source file c:/altera/quartus51/libraries/megafunctions/LPM_RAM_DQ.tdf
    Info: Found entity 1: lpm_ram_dq
Info: Elaborating entity "LPM_RAM_DQ" for hierarchy "LPM_RAM_DQ:ROI_RAM"
Info: Found 1 design units, including 1 entities, in source file c:/altera/quartus51/libraries/megafunctions/altram.tdf
    Info: Found entity 1: altram
Info: Elaborating entity "altram" for hierarchy "LPM_RAM_DQ:ROI_RAM|altram:sram"
Info: Elaborating entity "LPM_COMPARE" for hierarchy "LPM_COMPARE:Clip_Min_Cmp"
Info: Elaborating entity "comptree" for hierarchy "LPM_COMPARE:Clip_Min_Cmp|comptree:comparator"
Info: Elaborating entity "cmpchain" for hierarchy "LPM_COMPARE:Clip_Min_Cmp|comptree:comparator|cmpchain:cmp_end"
Info: Elaborating entity "LPM_COMPARE" for hierarchy "LPM_COMPARE:Clip_Max_Cmp"
Info: Found 1 design units, including 1 entities, in source file c:/altera/quartus51/libraries/megafunctions/LPM_COUNTER.tdf
    Info: Found entity 1: lpm_counter
Info: Elaborating entity "LPM_COUNTER" for hierarchy "LPM_COUNTER:ROI_SUM_CNTR"
Info: Found 1 design units, including 1 entities, in source file c:/altera/quartus51/libraries/megafunctions/alt_synch_counter.tdf
    Info: Found entity 1: alt_synch_counter
Info: Elaborating entity "alt_synch_counter" for hierarchy "LPM_COUNTER:ROI_SUM_CNTR|alt_synch_counter:wysi_counter"
Info: Ignored 50 buffer(s)
    Info: Ignored 50 SOFT buffer(s)
Info: Converted 54 single input CARRY primitives to CARRY_SUM primitives
Warning: Design contains 3 input pin(s) that do not drive logic
    Warning: No output dependent on input pin "DSP_RAMA[8]"
    Warning: No output dependent on input pin "DSP_RAMA[9]"
    Warning: No output dependent on input pin "DSP_RAMA[10]"
Info: Implemented 339 device resources after synthesis - the final resource count might be different
    Info: Implemented 78 input pins
    Info: Implemented 61 output pins
    Info: Implemented 184 logic cells
    Info: Implemented 16 RAM segments
Info: Quartus II Analysis & Synthesis was successful. 0 errors, 4 warnings
    Info: Processing ended: Mon Mar 27 10:08:02 2006
    Info: Elapsed time: 00:00:06


