-- Copyright (C) 1991-2005 Altera Corporation
-- Your use of Altera Corporation's design tools, logic functions 
-- and other software and tools, and its AMPP partner logic 
-- functions, and any output files any of the foregoing 
-- (including device programming or simulation files), and any 
-- associated documentation or information are expressly subject 
-- to the terms and conditions of the Altera Program License 
-- Subscription Agreement, Altera MegaCore Function License 
-- Agreement, or other applicable license agreement, including, 
-- without limitation, that your use is for the sole purpose of 
-- programming logic devices manufactured by Altera and sold by 
-- Altera or its authorized distributors.  Please refer to the 
-- applicable agreement for further details.

-- Quartus II generated Memory Initialization File (.mif)

WIDTH=16;
DEPTH=256;

ADDRESS_RADIX=UNS;
DATA_RADIX=DEC;

CONTENT BEGIN
	0    :   -15130;
	1    :   -15133;
	2    :   -15136;
	3    :   -15134;
	4    :   -15132;
	5    :   -15137;
	6    :   -15142;
	7    :   -15141;
	8    :   -15140;
	9    :   -15145;
	[10..11]  :   -15156;
	12   :   -15153;
	13   :   -15150;
	14   :   -15154;
	15   :   -15158;
	16   :   -15157;
	17   :   -15156;
	18   :   -15163;
	19   :   -15170;
	20   :   -15173;
	21   :   -15176;
	22   :   -15179;
	23   :   -15182;
	24   :   -15187;
	25   :   -15192;
	26   :   -15194;
	27   :   -15196;
	28   :   -15193;
	[29..31]  :   -15190;
	32   :   -15188;
	33   :   -15186;
	34   :   -15175;
	[35..37]  :   -15164;
	38   :   -15156;
	39   :   -15148;
	40   :   -15147;
	41   :   -15146;
	42   :   -15142;
	43   :   -15138;
	44   :   -15105;
	45   :   -15072;
	46   :   -14982;
	47   :   -14892;
	48   :   -14707;
	49   :   -14522;
	50   :   -14247;
	51   :   -13972;
	52   :   -13682;
	53   :   -13392;
	54   :   -13148;
	55   :   -12904;
	56   :   -12734;
	57   :   -12564;
	58   :   -12475;
	59   :   -12386;
	60   :   -12357;
	61   :   -12328;
	62   :   -12334;
	63   :   -12340;
	64   :   -12389;
	65   :   -12438;
	66   :   -12497;
	67   :   -12556;
	68   :   -12623;
	69   :   -12690;
	70   :   -12771;
	71   :   -12852;
	72   :   -12930;
	73   :   -13008;
	74   :   -13095;
	75   :   -13182;
	76   :   -13261;
	77   :   -13340;
	78   :   -13423;
	79   :   -13506;
	80   :   -13589;
	81   :   -13672;
	82   :   -13747;
	83   :   -13822;
	84   :   -13883;
	85   :   -13944;
	86   :   -14002;
	87   :   -14060;
	88   :   -14115;
	89   :   -14170;
	90   :   -14213;
	91   :   -14256;
	92   :   -14300;
	93   :   -14344;
	94   :   -14383;
	95   :   -14422;
	96   :   -14451;
	97   :   -14480;
	98   :   -14509;
	99   :   -14538;
	100  :   -14570;
	101  :   -14602;
	102  :   -14624;
	103  :   -14646;
	104  :   -14669;
	105  :   -14692;
	106  :   -14713;
	107  :   -14734;
	108  :   -14745;
	109  :   -14756;
	110  :   -14770;
	111  :   -14784;
	112  :   -14795;
	113  :   -14806;
	114  :   -14815;
	115  :   -14824;
	116  :   -14835;
	117  :   -14846;
	118  :   -14854;
	119  :   -14862;
	120  :   -14873;
	121  :   -14884;
	122  :   -14896;
	123  :   -14908;
	124  :   -14917;
	125  :   -14926;
	126  :   -14931;
	127  :   -14936;
	128  :   -14947;
	129  :   -14958;
	130  :   -14959;
	131  :   -14960;
	132  :   -14965;
	133  :   -14970;
	134  :   -14990;
	135  :   -15010;
	136  :   -15018;
	137  :   -15026;
	138  :   -15030;
	139  :   -15034;
	140  :   -15030;
	141  :   -15026;
	142  :   -15022;
	143  :   -15018;
	144  :   -15015;
	145  :   -15012;
	146  :   -15017;
	147  :   -15022;
	148  :   -15026;
	149  :   -15030;
	150  :   -15032;
	151  :   -15034;
	152  :   -15036;
	153  :   -15038;
	154  :   -15036;
	155  :   -15034;
	156  :   -15035;
	157  :   -15036;
	158  :   -15038;
	159  :   -15040;
	160  :   -15042;
	161  :   -15044;
	162  :   -15048;
	163  :   -15052;
	164  :   -15049;
	165  :   -15046;
	166  :   -15042;
	167  :   -15038;
	168  :   -15043;
	169  :   -15048;
	170  :   -15053;
	171  :   -15058;
	172  :   -15059;
	173  :   -15060;
	174  :   -15063;
	175  :   -15066;
	176  :   -15065;
	177  :   -15064;
	178  :   -15060;
	179  :   -15056;
	180  :   -15047;
	181  :   -15038;
	182  :   -15042;
	183  :   -15046;
	184  :   -15050;
	185  :   -15054;
	186  :   -15055;
	187  :   -15056;
	188  :   -15065;
	189  :   -15074;
	190  :   -15069;
	191  :   -15064;
	192  :   -15066;
	193  :   -15068;
	194  :   -15072;
	195  :   -15076;
	196  :   -15075;
	197  :   -15074;
	198  :   -15075;
	199  :   -15076;
	200  :   -15073;
	201  :   -15070;
	202  :   -15061;
	203  :   -15052;
	204  :   -15050;
	205  :   -15048;
	206  :   -15042;
	207  :   -15036;
	208  :   -15041;
	209  :   -15046;
	210  :   -15051;
	211  :   -15056;
	212  :   -15058;
	213  :   -15060;
	214  :   -15065;
	215  :   -15070;
	216  :   -15080;
	217  :   -15090;
	218  :   -15097;
	219  :   -15104;
	220  :   -15112;
	221  :   -15120;
	222  :   -15121;
	[223..225]  :   -15122;
	226  :   -15123;
	227  :   -15124;
	228  :   -15119;
	229  :   -15114;
	230  :   -15113;
	231  :   -15112;
	232  :   -15118;
	233  :   -15124;
	234  :   -15131;
	[235..237]  :   -15138;
	238  :   -15141;
	239  :   -15144;
	240  :   -15143;
	[241..243]  :   -15142;
	244  :   -15140;
	245  :   -15138;
	246  :   -15134;
	247  :   -15130;
	248  :   -15133;
	249  :   -15136;
	250  :   -15134;
	251  :   -15132;
	252  :   -15137;
	253  :   -15142;
	254  :   -15141;
	255  :   -15140;
END;
