Fitter report for UMS2 compilation.
Tue Sep 02 11:39:29 2003
Version 3.0 Build 199 06/26/2003 SJ Full Version

Command: quartus_fit --lower_priority --import_settings_files=off --export_settings_files=off UMS2 -c UMS2



---------------------
; Table of Contents ;
---------------------
   1. Legal Notice
   2. Flow Summary
   3. Flow Settings
   4. Flow Elapsed Time
   5. Fitter Summary
   6. Fitter Settings
   7. Fitter Device Options
   8. Fitter Equations
   9. Floorplan View
  10. Input Pins
  11. Output Pins
  12. All Package Pins
  13. Control Signals
  14. Global & Other Fast Signals
  15. Carry Chains
  16. Cascade Chains
  17. Non-Global High Fan-Out Signals
  18. Local Routing Interconnect
  19. MegaLAB Interconnect
  20. LAB External Interconnect
  21. MegaLAB Usage Summary
  22. Row Interconnect
  23. LAB Column Interconnect
  24. ESB Column Interconnect
  25. Resource Usage Summary
  26. Fitter Resource Utilization by Entity
  27. LogicLock Region Resource Usage
  28. Delay Chain Summary
  29. I/O Bank Usage
  30. Pin-Out File
  31. Fitter Messages


----------------
; Legal Notice ;
----------------
Copyright (C) 1991-2003 Altera Corporation
Any  megafunction  design,  and related netlist (encrypted  or  decrypted),
support information,  device programming or simulation file,  and any other
associated  documentation or information  provided by  Altera  or a partner
under  Altera's   Megafunction   Partnership   Program  may  be  used  only
to program  PLD  devices (but not masked  PLD  devices) from  Altera.   Any
other  use  of such  megafunction  design,  netlist,  support  information,
device programming or simulation file,  or any other  related documentation
or information  is prohibited  for  any  other purpose,  including, but not
limited to  modification,  reverse engineering,  de-compiling, or use  with
any other  silicon devices,  unless such use is  explicitly  licensed under
a separate agreement with  Altera  or a megafunction partner.  Title to the
intellectual property,  including patents,  copyrights,  trademarks,  trade
secrets,  or maskworks,  embodied in any such megafunction design, netlist,
support  information,  device programming or simulation file,  or any other
related documentation or information provided by  Altera  or a megafunction
partner, remains with Altera, the megafunction partner, or their respective
licensors. No other licenses, including any licenses needed under any third
party's intellectual property, are provided herein.



-----------------------------------------------------------------
; Flow Summary                                                  ;
-----------------------------------------------------------------
; Flow Status           ; Successful - Tue Sep 02 11:39:29 2003 ;
; Compiler Setting Name ; UMS2                                  ;
; Top-level Entity Name ; ums2                                  ;
; Family                ; APEX20KE                              ;
; Device                ; EP20K300EQC240-2X                     ;
; Total logic elements  ; 882 / 11,520 ( 7 % )                  ;
; Total pins            ; 19 / 152 ( 12 % )                     ;
; Total memory bits     ; 0 / 147,456 ( 0 % )                   ;
; Total PLLs            ; 0 / 4 ( 0 % )                         ;
-----------------------------------------------------------------


-----------------------------------------------
; Flow Settings                               ;
-----------------------------------------------
; Option                ; Setting             ;
-----------------------------------------------
; Start date & time     ; 09/02/2003 11:37:06 ;
; Main task             ; Compilation         ;
; Compiler Setting Name ; UMS2                ;
-----------------------------------------------


---------------------------------------
; Flow Elapsed Time                   ;
---------------------------------------
; Module Name          ; Elapsed Time ;
---------------------------------------
; Analysis & Synthesis ; 00:00:16     ;
; Fitter               ; 00:02:06     ;
; Total                ; 00:02:22     ;
---------------------------------------


-----------------------------------------------------------------
; Fitter Summary                                                ;
-----------------------------------------------------------------
; Fitter Status         ; Successful - Tue Sep 02 11:39:29 2003 ;
; Compiler Setting Name ; UMS2                                  ;
; Top-level Entity Name ; ums2                                  ;
; Family                ; APEX20KE                              ;
; Device                ; EP20K300EQC240-2X                     ;
; Total logic elements  ; 882 / 11,520 ( 7 % )                  ;
; Total pins            ; 19 / 152 ( 12 % )                     ;
; Total memory bits     ; 0 / 147,456 ( 0 % )                   ;
; Total PLLs            ; 0 / 4 ( 0 % )                         ;
-----------------------------------------------------------------


-----------------------------------------------------------------------------
; Fitter Settings                                                           ;
-----------------------------------------------------------------------------
; Option                                               ; Setting            ;
-----------------------------------------------------------------------------
; Device                                               ; EP20K300EQC240-2X  ;
; Fast Fit compilation                                 ; Off                ;
; SignalProbe signals routed during normal compilation ; Off                ;
; FIT_ONLY_ONE_ATTEMPT                                 ; Off                ;
; Optimize IOC register placement for timing           ; Off                ;
; Optimize timing                                      ; Normal compilation ;
-----------------------------------------------------------------------------


---------------------------------------------------------------------------
; Fitter Device Options                                                   ;
---------------------------------------------------------------------------
; Option                                       ; Setting                  ;
---------------------------------------------------------------------------
; Auto-restart configuration after error       ; Off                      ;
; Release clears before tri-states             ; Off                      ;
; Enable user-supplied start-up clock (CLKUSR) ; Off                      ;
; Enable device-wide reset (DEV_CLRn)          ; Off                      ;
; Enable device-wide output enable (DEV_OE)    ; Off                      ;
; Enable INIT_DONE output                      ; Off                      ;
; Reserve all unused pins                      ; As output driving ground ;
; Base pin-out file on sameframe device        ; Off                      ;
---------------------------------------------------------------------------


---------------------
; Fitter Equations  ;
---------------------
The equations can be found in f:\p19700-1\software\ep99840\rtemctrl\ums\UMS2.fit.eqn.


-------------------
; Floorplan View  ;
-------------------
Floorplan report data cannot be output to ASCII.
Please use Quartus II to view the floorplan report data.


---------------------------------------------------------------------------------------------------------------------------------------------------------------------------------------------------------------
; Input Pins                                                                                                                                                                                                  ;
---------------------------------------------------------------------------------------------------------------------------------------------------------------------------------------------------------------
; Name        ; Pin # ; MegaLAB Row ; MegaLAB Col. ; Col. ; Fan-Out ; Global ; I/O Register ; Use Local Routing Input ; Power Up High ; PCI I/O Enabled ; Single-Pin CE ; FastRow Interconnect ; I/O Standard ;
---------------------------------------------------------------------------------------------------------------------------------------------------------------------------------------------------------------
; clk20       ; 154   ; --          ; --           ; --   ; 460     ; yes    ; no           ; no                      ; no            ; no              ; no            ; no                   ; LVTTL        ;
; imr         ; 212   ; --          ; --           ; --   ; 156     ; yes    ; no           ; no                      ; no            ; no              ; no            ; no                   ; LVTTL        ;
; CMD_OUT     ; 171   ;  C          ; --           ; --   ; 11      ; no     ; no           ; no                      ; no            ; no              ; no            ; no                   ; LVTTL        ;
; CMD_IN      ; 183   ; --          ; 1            ; 4    ; 8       ; no     ; no           ; no                      ; no            ; no              ; no            ; no                   ; LVTTL        ;
; Hi_Cnt      ; 170   ;  D          ; --           ; --   ; 3       ; no     ; no           ; no                      ; no            ; no              ; no            ; no                   ; LVTTL        ;
; Det_Sat     ; 166   ;  E          ; --           ; --   ; 3       ; no     ; no           ; no                      ; no            ; no              ; no            ; no                   ; LVTTL        ;
; CMD_MID_IN  ; 185   ; --          ; 1            ; 6    ; 8       ; no     ; no           ; no                      ; no            ; no              ; no            ; no                   ; LVTTL        ;
; CMD_MID_OUT ; 184   ; --          ; 1            ; 6    ; 8       ; no     ; no           ; no                      ; no            ; no              ; no            ; no                   ; LVTTL        ;
; CMD_WD      ; 182   ; --          ; 1            ; 2    ; 3       ; no     ; no           ; no                      ; no            ; no              ; no            ; no                   ; LVTTL        ;
; HC_MR       ; 189   ; --          ; 1            ; 12   ; 2       ; no     ; no           ; no                      ; no            ; no              ; no            ; no                   ; LVTTL        ;
; RTEM_RED    ; 180   ;  A          ; --           ; --   ; 1       ; no     ; no           ; no                      ; no            ; no              ; no            ; no                   ; LVTTL        ;
; RTEM_GRN    ; 173   ;  B          ; --           ; --   ; 1       ; no     ; no           ; no                      ; no            ; no              ; no            ; no                   ; LVTTL        ;
; RTEM_HS     ; 174   ;  B          ; --           ; --   ; 1       ; no     ; no           ; no                      ; no            ; no              ; no            ; no                   ; LVTTL        ;
---------------------------------------------------------------------------------------------------------------------------------------------------------------------------------------------------------------


-------------------------------------------------------------------------------------------------------------------------------------------------------------------------------------------------------------------
; Output Pins                                                                                                                                                                                                     ;
-------------------------------------------------------------------------------------------------------------------------------------------------------------------------------------------------------------------
; Name       ; Pin # ; MegaLAB Row ; MegaLAB Col. ; Col. ; I/O Register ; Use Local Routing Output ; Power Up High ; Slow Slew Rate ; PCI I/O Enabled ; Single-Pin OE ; Single-Pin CE ; Open Drain ; I/O Standard ;
-------------------------------------------------------------------------------------------------------------------------------------------------------------------------------------------------------------------
; UMS_DIR    ; 187   ; --          ; 1            ; 10   ; no           ; yes                      ; no            ; no             ; no              ; no            ; no            ; no         ; LVTTL        ;
; UMS_SCLK   ; 169   ;  D          ; --           ; --   ; no           ; no                       ; no            ; no             ; no              ; no            ; no            ; no         ; LVTTL        ;
; ST_RTEM[3] ; 192   ; --          ; 1            ; 15   ; no           ; no                       ; no            ; no             ; no              ; no            ; no            ; no         ; LVTTL        ;
; ST_RTEM[2] ; 172   ;  C          ; --           ; --   ; no           ; no                       ; no            ; no             ; no              ; no            ; no            ; no         ; LVTTL        ;
; ST_RTEM[1] ; 186   ; --          ; 1            ; 7    ; no           ; yes                      ; no            ; no             ; no              ; no            ; no            ; no         ; LVTTL        ;
; ST_RTEM[0] ; 178   ;  A          ; --           ; --   ; no           ; no                       ; no            ; no             ; no              ; no            ; no            ; no         ; LVTTL        ;
-------------------------------------------------------------------------------------------------------------------------------------------------------------------------------------------------------------------


--------------------------------------
; All Package Pins                   ;
--------------------------------------
; Pin # ; Usage       ; I/O Standard ;
--------------------------------------
; 1     ; VCC_INT     ;              ;
; 2     ; GND*        ;              ;
; 3     ; GND*        ;              ;
; 4     ; GND*        ;              ;
; 5     ; VCC_INT     ;              ;
; 6     ; GND         ;              ;
; 7     ; GND*        ;              ;
; 8     ; GND*        ;              ;
; 9     ; GND*        ;              ;
; 10    ; GND*        ;              ;
; 11    ; GND*        ;              ;
; 12    ; VCC_IO      ;              ;
; 13    ; GND*        ;              ;
; 14    ; VCC_INT     ;              ;
; 15    ; GND         ;              ;
; 16    ; GND*        ;              ;
; 17    ; GND*        ;              ;
; 18    ; GND*        ;              ;
; 19    ; GND         ;              ;
; 20    ; GND*        ;              ;
; 21    ; GND_CKLK3   ;              ;
; 22    ; VCC_CKLK3   ;              ;
; 23    ; GND*        ;              ;
; 24    ; GND_CKOUT1  ;              ;
; 25    ; VCC_CKOUT1  ;              ;
; 26    ; GND_IO      ;              ;
; 27    ; VCC_INT     ;              ;
; 28    ; GND         ;              ;
; 29    ; ^MSEL0      ;              ;
; 30    ; ^MSEL1      ;              ;
; 31    ; GND+        ;              ;
; 32    ; VCC_INT     ;              ;
; 33    ; ^NCONFIG    ;              ;
; 34    ; GND+        ;              ;
; 35    ; GND+        ;              ;
; 36    ; GND_CKLK1   ;              ;
; 37    ; VCC_CKLK1   ;              ;
; 38    ; GND         ;              ;
; 39    ; VCC_INT     ;              ;
; 40    ; GND*        ;              ;
; 41    ; GND*        ;              ;
; 42    ; GND         ;              ;
; 43    ; GND*        ;              ;
; 44    ; GND*        ;              ;
; 45    ; VCC_IO      ;              ;
; 46    ; GND*        ;              ;
; 47    ; GND*        ;              ;
; 48    ; GND*        ;              ;
; 49    ; GND*        ;              ;
; 50    ; GND*        ;              ;
; 51    ; GND         ;              ;
; 52    ; VCC_INT     ;              ;
; 53    ; GND*        ;              ;
; 54    ; GND*        ;              ;
; 55    ; GND*        ;              ;
; 56    ; GND_IO      ;              ;
; 57    ; GND*        ;              ;
; 58    ; GND*        ;              ;
; 59    ; GND*        ;              ;
; 60    ; VCC_INT     ;              ;
; 61    ; GND*        ;              ;
; 62    ; GND*        ;              ;
; 63    ; GND*        ;              ;
; 64    ; GND*        ;              ;
; 65    ; GND*        ;              ;
; 66    ; GND*        ;              ;
; 67    ; VCC_IO      ;              ;
; 68    ; GND*        ;              ;
; 69    ; GND*        ;              ;
; 70    ; GND*        ;              ;
; 71    ; GND*        ;              ;
; 72    ; GND         ;              ;
; 73    ; VCC_INT     ;              ;
; 74    ; GND*        ;              ;
; 75    ; GND*        ;              ;
; 76    ; GND*        ;              ;
; 77    ; GND*        ;              ;
; 78    ; GND_IO      ;              ;
; 79    ; GND*        ;              ;
; 80    ; GND*        ;              ;
; 81    ; GND*        ;              ;
; 82    ; GND*        ;              ;
; 83    ; GND*        ;              ;
; 84    ; GND*        ;              ;
; 85    ; GND*        ;              ;
; 86    ; #TMS        ;              ;
; 87    ; #TCK        ;              ;
; 88    ; GND+        ;              ;
; 89    ; GND         ;              ;
; 90    ; VCC_INT     ;              ;
; 91    ; GND+        ;              ;
; 92    ; ^NSTATUS    ;              ;
; 93    ; ^CONF_DONE  ;              ;
; 94    ; GND*        ;              ;
; 95    ; GND*        ;              ;
; 96    ; GND*        ;              ;
; 97    ; VCC_IO      ;              ;
; 98    ; GND*        ;              ;
; 99    ; GND*        ;              ;
; 100   ; GND*        ;              ;
; 101   ; GND*        ;              ;
; 102   ; GND*        ;              ;
; 103   ; GND*        ;              ;
; 104   ; GND*        ;              ;
; 105   ; GND*        ;              ;
; 106   ; GND         ;              ;
; 107   ; VCC_INT     ;              ;
; 108   ; GND_IO      ;              ;
; 109   ; GND*        ;              ;
; 110   ; GND*        ;              ;
; 111   ; GND*        ;              ;
; 112   ; GND*        ;              ;
; 113   ; GND*        ;              ;
; 114   ; GND*        ;              ;
; 115   ; GND*        ;              ;
; 116   ; GND*        ;              ;
; 117   ; GND*        ;              ;
; 118   ; GND*        ;              ;
; 119   ; GND*        ;              ;
; 120   ; VCC_IO      ;              ;
; 121   ; GND*        ;              ;
; 122   ; VCC_INT     ;              ;
; 123   ; GND*        ;              ;
; 124   ; GND*        ;              ;
; 125   ; GND*        ;              ;
; 126   ; GND*        ;              ;
; 127   ; VCC_INT     ;              ;
; 128   ; GND         ;              ;
; 129   ; GND*        ;              ;
; 130   ; GND*        ;              ;
; 131   ; GND*        ;              ;
; 132   ; GND_IO      ;              ;
; 133   ; GND*        ;              ;
; 134   ; GND*        ;              ;
; 135   ; GND*        ;              ;
; 136   ; GND*        ;              ;
; 137   ; GND         ;              ;
; 138   ; GND*        ;              ;
; 139   ; GND*        ;              ;
; 140   ; VCC_INT     ;              ;
; 141   ; GND_CKOUT2  ;              ;
; 142   ; VCC_CKOUT2  ;              ;
; 143   ; GND*        ;              ;
; 144   ; VCC_CKLK2   ;              ;
; 145   ; VCC_INT     ;              ;
; 146   ; GND         ;              ;
; 147   ; GND_CKLK2   ;              ;
; 148   ; VCC_IO      ;              ;
; 149   ; #TDI        ;              ;
; 150   ; ^nCE        ;              ;
; 151   ; GND+        ;              ;
; 152   ; ^DCLK       ;              ;
; 153   ; ^DATA0      ;              ;
; 154   ; clk20       ; LVTTL        ;
; 155   ; GND+        ;              ;
; 156   ; GND*        ;              ;
; 157   ; GND*        ;              ;
; 158   ; GND_CKLK4   ;              ;
; 159   ; VCC_CKLK4   ;              ;
; 160   ; GND*        ;              ;
; 161   ; GND*        ;              ;
; 162   ; GND         ;              ;
; 163   ; GND*        ;              ;
; 164   ; GND*        ;              ;
; 165   ; GND_IO      ;              ;
; 166   ; Det_Sat     ; LVTTL        ;
; 167   ; GND         ;              ;
; 168   ; VCC_INT     ;              ;
; 169   ; UMS_SCLK    ; LVTTL        ;
; 170   ; Hi_Cnt      ; LVTTL        ;
; 171   ; CMD_OUT     ; LVTTL        ;
; 172   ; ST_RTEM[2]  ; LVTTL        ;
; 173   ; RTEM_GRN    ; LVTTL        ;
; 174   ; RTEM_HS     ; LVTTL        ;
; 175   ; GND         ;              ;
; 176   ; VCC_INT     ;              ;
; 177   ; VCC_IO      ;              ;
; 178   ; ST_RTEM[0]  ; LVTTL        ;
; 179   ; VCC_INT     ;              ;
; 180   ; RTEM_RED    ; LVTTL        ;
; 181   ; GND*        ;              ;
; 182   ; CMD_WD      ; LVTTL        ;
; 183   ; CMD_IN      ; LVTTL        ;
; 184   ; CMD_MID_OUT ; LVTTL        ;
; 185   ; CMD_MID_IN  ; LVTTL        ;
; 186   ; ST_RTEM[1]  ; LVTTL        ;
; 187   ; UMS_DIR     ; LVTTL        ;
; 188   ; GND_IO      ;              ;
; 189   ; HC_MR       ; LVTTL        ;
; 190   ; GND*        ;              ;
; 191   ; GND*        ;              ;
; 192   ; ST_RTEM[3]  ; LVTTL        ;
; 193   ; VCC_INT     ;              ;
; 194   ; GND         ;              ;
; 195   ; GND*        ;              ;
; 196   ; GND*        ;              ;
; 197   ; GND*        ;              ;
; 198   ; GND*        ;              ;
; 199   ; VCC_IO      ;              ;
; 200   ; GND*        ;              ;
; 201   ; GND*        ;              ;
; 202   ; GND*        ;              ;
; 203   ; GND*        ;              ;
; 204   ; GND*        ;              ;
; 205   ; GND*        ;              ;
; 206   ; GND*        ;              ;
; 207   ; GND*        ;              ;
; 208   ; #TDO        ;              ;
; 209   ; GND+        ;              ;
; 210   ; VCC_INT     ;              ;
; 211   ; GND         ;              ;
; 212   ; imr         ; LVTTL        ;
; 213   ; ^nCEO       ;              ;
; 214   ; #TRST       ;              ;
; 215   ; GND*        ;              ;
; 216   ; GND*        ;              ;
; 217   ; GND*        ;              ;
; 218   ; GND_IO      ;              ;
; 219   ; GND*        ;              ;
; 220   ; GND*        ;              ;
; 221   ; GND*        ;              ;
; 222   ; GND*        ;              ;
; 223   ; GND*        ;              ;
; 224   ; GND*        ;              ;
; 225   ; GND*        ;              ;
; 226   ; GND*        ;              ;
; 227   ; VCC_INT     ;              ;
; 228   ; GND         ;              ;
; 229   ; VCC_IO      ;              ;
; 230   ; GND*        ;              ;
; 231   ; GND*        ;              ;
; 232   ; GND*        ;              ;
; 233   ; GND*        ;              ;
; 234   ; GND*        ;              ;
; 235   ; GND*        ;              ;
; 236   ; GND*        ;              ;
; 237   ; GND*        ;              ;
; 238   ; GND*        ;              ;
; 239   ; GND*        ;              ;
; 240   ; GND_IO      ;              ;
--------------------------------------


----------------------------------------------------------------------------------------
; Control Signals                                                                      ;
----------------------------------------------------------------------------------------
; Name              ; Pin #     ; Fan-Out ; Usage                       ; Global Usage ;
----------------------------------------------------------------------------------------
; i~3071            ; LC10_8_D1 ; 32      ; Sync. load                  ; Non-global   ;
; clk20             ; 154       ; 460     ; Clock                       ; Pin          ;
; UMS_STATE~8       ; LC1_10_A1 ; 20      ; Sync. clear                 ; Internal     ;
; imr               ; 212       ; 156     ; Clock enable / Async. clear ; Pin          ;
; reduce_nor_27~123 ; LC8_4_B1  ; 18      ; Sync. clear                 ; Internal     ;
; reduce_nor_10~19  ; LC4_2_A1  ; 24      ; Sync. clear / Clock enable  ; Non-global   ;
; i~148             ; LC10_2_C1 ; 32      ; Sync. clear                 ; Internal     ;
----------------------------------------------------------------------------------------


----------------------------------------------------
; Global & Other Fast Signals                      ;
----------------------------------------------------
; Name              ; Pin #     ; Fan-Out ; Global ;
----------------------------------------------------
; clk20             ; 154       ; 460     ; yes    ;
; UMS_STATE~8       ; LC1_10_A1 ; 20      ; yes    ;
; imr               ; 212       ; 156     ; yes    ;
; reduce_nor_27~123 ; LC8_4_B1  ; 18      ; yes    ;
; i~148             ; LC10_2_C1 ; 32      ; yes    ;
----------------------------------------------------


-----------------------------------------------
; Carry Chains                                ;
-----------------------------------------------
; Carry Chain Length ; Number of Carry Chains ;
-----------------------------------------------
; 0 - 2              ; 0                      ;
; 3 - 5              ; 1                      ;
; 6 - 8              ; 0                      ;
; 9 - 11             ; 0                      ;
; 12 - 14            ; 0                      ;
; 15 - 17            ; 2                      ;
; 18 - 20            ; 0                      ;
; 21 - 23            ; 0                      ;
; 24 - 26            ; 0                      ;
; 27 - 29            ; 0                      ;
; 30 - 32            ; 10                     ;
-----------------------------------------------


------------------
; Cascade Chains ;
------------------
; Length ; Count ;
------------------
; 2      ; 10    ;
------------------


--------------------------------------------------------------------------------------
; Non-Global High Fan-Out Signals                                                    ;
--------------------------------------------------------------------------------------
; Name                                                                     ; Fan-Out ;
--------------------------------------------------------------------------------------
; SW_OUT_DB                                                                ; 58      ;
; i~5581                                                                   ; 32      ;
; i~5593                                                                   ; 32      ;
; i~3071                                                                   ; 32      ;
; reduce_nor_10~19                                                         ; 24      ;
; SW_IN_DB                                                                 ; 19      ;
; lpm_compare:PCT25_CMP|comptree:comparator|cmpchain:cmp_end|agb_out       ; 17      ;
; lpm_compare:PCT75_CMP|comptree:comparator|cmpchain:cmp_end|agb_out       ; 17      ;
; rtl~436                                                                  ; 17      ;
; rtl~17                                                                   ; 15      ;
; Select_1466_rtl_1_rtl_17~83                                              ; 15      ;
; SW_HS_DB                                                                 ; 12      ;
; CMD_OUT                                                                  ; 11      ;
; HI_Cnt_En                                                                ; 9       ;
; lpm_counter:CMD_CNT_rtl_33|alt_synch_counter:wysi_counter|sload_path[9]  ; 8       ;
; lpm_counter:CMD_CNT_rtl_33|alt_synch_counter:wysi_counter|sload_path[3]  ; 8       ;
; lpm_counter:CMD_CNT_rtl_33|alt_synch_counter:wysi_counter|sload_path[29] ; 8       ;
; lpm_counter:CMD_CNT_rtl_33|alt_synch_counter:wysi_counter|sload_path[27] ; 8       ;
; lpm_counter:CMD_CNT_rtl_33|alt_synch_counter:wysi_counter|sload_path[26] ; 8       ;
; lpm_counter:CMD_CNT_rtl_33|alt_synch_counter:wysi_counter|sload_path[28] ; 8       ;
; lpm_counter:CMD_CNT_rtl_33|alt_synch_counter:wysi_counter|sload_path[2]  ; 8       ;
; lpm_counter:CMD_CNT_rtl_33|alt_synch_counter:wysi_counter|sload_path[1]  ; 8       ;
; lpm_counter:CMD_CNT_rtl_33|alt_synch_counter:wysi_counter|sload_path[8]  ; 8       ;
; lpm_counter:CMD_CNT_rtl_33|alt_synch_counter:wysi_counter|sload_path[7]  ; 8       ;
; lpm_counter:CMD_CNT_rtl_33|alt_synch_counter:wysi_counter|sload_path[5]  ; 8       ;
; lpm_counter:CMD_CNT_rtl_33|alt_synch_counter:wysi_counter|sload_path[4]  ; 8       ;
; lpm_counter:CMD_CNT_rtl_33|alt_synch_counter:wysi_counter|sload_path[6]  ; 8       ;
; Select_1482_rtl_9_rtl_25~25                                              ; 8       ;
; Select_1470_rtl_3_rtl_19~170                                             ; 8       ;
; lpm_counter:CMD_CNT_rtl_33|alt_synch_counter:wysi_counter|sload_path[31] ; 8       ;
; lpm_counter:CMD_CNT_rtl_33|alt_synch_counter:wysi_counter|sload_path[14] ; 8       ;
; lpm_counter:CMD_CNT_rtl_33|alt_synch_counter:wysi_counter|sload_path[13] ; 8       ;
; lpm_counter:CMD_CNT_rtl_33|alt_synch_counter:wysi_counter|sload_path[10] ; 8       ;
; lpm_counter:CMD_CNT_rtl_33|alt_synch_counter:wysi_counter|sload_path[12] ; 8       ;
; lpm_counter:CMD_CNT_rtl_33|alt_synch_counter:wysi_counter|sload_path[11] ; 8       ;
; lpm_counter:CMD_CNT_rtl_33|alt_synch_counter:wysi_counter|sload_path[30] ; 8       ;
; lpm_counter:CMD_CNT_rtl_33|alt_synch_counter:wysi_counter|sload_path[19] ; 8       ;
; lpm_counter:CMD_CNT_rtl_33|alt_synch_counter:wysi_counter|sload_path[18] ; 8       ;
; lpm_counter:CMD_CNT_rtl_33|alt_synch_counter:wysi_counter|sload_path[16] ; 8       ;
; lpm_counter:CMD_CNT_rtl_33|alt_synch_counter:wysi_counter|sload_path[15] ; 8       ;
; lpm_counter:CMD_CNT_rtl_33|alt_synch_counter:wysi_counter|sload_path[17] ; 8       ;
; UMS_STATE~583                                                            ; 8       ;
; CMD_MID_IN                                                               ; 8       ;
; CMD_MID_OUT                                                              ; 8       ;
; UMS_STATE~518                                                            ; 8       ;
; CMD_IN                                                                   ; 8       ;
; lpm_counter:CMD_CNT_rtl_33|alt_synch_counter:wysi_counter|sload_path[25] ; 8       ;
; lpm_counter:CMD_CNT_rtl_33|alt_synch_counter:wysi_counter|sload_path[24] ; 8       ;
; lpm_counter:CMD_CNT_rtl_33|alt_synch_counter:wysi_counter|sload_path[21] ; 8       ;
; lpm_counter:CMD_CNT_rtl_33|alt_synch_counter:wysi_counter|sload_path[20] ; 8       ;
--------------------------------------------------------------------------------------


----------------------------------------------------
; Local Routing Interconnect                       ;
----------------------------------------------------
; Local Routing Interconnects ; Number of MegaLABs ;
----------------------------------------------------
; 0 - 11                      ; 68                 ;
; 12 - 23                     ; 1                  ;
; 24 - 35                     ; 0                  ;
; 36 - 47                     ; 0                  ;
; 48 - 59                     ; 0                  ;
; 60 - 71                     ; 0                  ;
; 72 - 83                     ; 1                  ;
; 84 - 95                     ; 1                  ;
; 96 - 107                    ; 0                  ;
; 108 - 119                   ; 1                  ;
----------------------------------------------------


----------------------------------------------
; MegaLAB Interconnect                       ;
----------------------------------------------
; MegaLAB Interconnects ; Number of MegaLABs ;
----------------------------------------------
; 0 - 17                ; 68                 ;
; 18 - 35               ; 0                  ;
; 36 - 53               ; 0                  ;
; 54 - 71               ; 0                  ;
; 72 - 89               ; 0                  ;
; 90 - 107              ; 0                  ;
; 108 - 125             ; 2                  ;
; 126 - 143             ; 1                  ;
; 144 - 161             ; 0                  ;
; 162 - 179             ; 1                  ;
----------------------------------------------


------------------------------------------------
; LAB External Interconnect                    ;
------------------------------------------------
; LAB External Interconnects ; Number MegaLABs ;
------------------------------------------------
; 0 - 25                     ; 68              ;
; 26 - 51                    ; 0               ;
; 52 - 77                    ; 0               ;
; 78 - 103                   ; 0               ;
; 104 - 129                  ; 0               ;
; 130 - 155                  ; 2               ;
; 156 - 181                  ; 0               ;
; 182 - 207                  ; 0               ;
; 208 - 233                  ; 1               ;
; 234 - 259                  ; 1               ;
------------------------------------------------


--------------------------------------------------------------------------------------------------------------------------------------------------------------------------------------------------------------------------------------------------------------------------------------------------------
; MegaLAB Usage Summary                                                                                                                                                                                                                                                                                ;
--------------------------------------------------------------------------------------------------------------------------------------------------------------------------------------------------------------------------------------------------------------------------------------------------------
; MegaLAB Name ; Total Cells          ; MegaLAB Interconnect ; Column Fast Interconnect Driving In ; Column Fast Interconnect Driving Out ; Row Fast Interconnect Driving In ; Row Fast Interconnect Driving Out ; Fan-In ; Fan-Out ; Local Interconnect ; LAB External Interconnect ; Control Signals ;
--------------------------------------------------------------------------------------------------------------------------------------------------------------------------------------------------------------------------------------------------------------------------------------------------------
;  A1          ;  160 / 160 ( 100 % ) ; 175                  ; 78                                  ; 11                                   ; 87                               ; 1                                 ; 166    ; 131     ; 23                 ; 253                       ; 3               ;
;  A2          ;  62 / 160 ( 38 % )   ; 1                    ; 0                                   ; 0                                    ; 1                                ; 62                                ; 1      ; 62      ; 0                  ; 1                         ; 1               ;
;  A3          ;  20 / 160 ( 12 % )   ; 0                    ; 0                                   ; 0                                    ; 0                                ; 20                                ; 1      ; 20      ; 0                  ; 0                         ; 1               ;
;  A4          ;  5 / 160 ( 3 % )     ; 0                    ; 0                                   ; 0                                    ; 0                                ; 5                                 ; 1      ; 7       ; 0                  ; 0                         ; 1               ;
;  B1          ;  160 / 160 ( 100 % ) ; 113                  ; 16                                  ; 45                                   ; 56                               ; 1                                 ; 77     ; 241     ; 113                ; 144                       ; 5               ;
;  B2          ;  43 / 160 ( 26 % )   ; 1                    ; 0                                   ; 0                                    ; 1                                ; 43                                ; 1      ; 43      ; 0                  ; 1                         ; 1               ;
;  B3          ;  10 / 160 ( 6 % )    ; 0                    ; 0                                   ; 0                                    ; 0                                ; 10                                ; 1      ; 10      ; 0                  ; 0                         ; 1               ;
;  B4          ;  3 / 160 ( 1 % )     ; 0                    ; 0                                   ; 0                                    ; 0                                ; 3                                 ; 2      ; 14      ; 0                  ; 0                         ; 1               ;
;  C1          ;  160 / 160 ( 100 % ) ; 141                  ; 65                                  ; 17                                   ; 42                               ; 1                                 ; 110    ; 65      ; 75                 ; 210                       ; 2               ;
;  C2          ;  32 / 160 ( 20 % )   ; 0                    ; 0                                   ; 0                                    ; 0                                ; 32                                ; 1      ; 32      ; 0                  ; 0                         ; 1               ;
;  C3          ;  9 / 160 ( 5 % )     ; 1                    ; 0                                   ; 0                                    ; 1                                ; 9                                 ; 1      ; 9       ; 0                  ; 1                         ; 1               ;
;  C4          ;  1 / 160 ( < 1 % )   ; 0                    ; 0                                   ; 0                                    ; 0                                ; 1                                 ; 2      ; 4       ; 0                  ; 0                         ; 1               ;
;  D1          ;  159 / 160 ( 99 % )  ; 115                  ; 22                                  ; 15                                   ; 0                                ; 13                                ; 25     ; 53      ; 85                 ; 153                       ; 3               ;
;  D2          ;  9 / 160 ( 5 % )     ; 9                    ; 0                                   ; 0                                    ; 9                                ; 0                                 ; 10     ; 0       ; 0                  ; 9                         ; 1               ;
;  D3          ;  3 / 160 ( 1 % )     ; 3                    ; 0                                   ; 0                                    ; 3                                ; 0                                 ; 4      ; 0       ; 0                  ; 3                         ; 1               ;
;  D4          ;  1 / 160 ( < 1 % )   ; 1                    ; 0                                   ; 0                                    ; 1                                ; 0                                 ; 2      ; 3       ; 0                  ; 1                         ; 1               ;
;  E1          ;  25 / 160 ( 15 % )   ; 0                    ; 0                                   ; 25                                   ; 0                                ; 0                                 ; 1      ; 26      ; 0                  ; 0                         ; 1               ;
;  E2          ;  0 / 160 ( 0 % )     ; 0                    ; 0                                   ; 0                                    ; 0                                ; 0                                 ; 0      ; 0       ; 0                  ; 0                         ; 0               ;
;  E3          ;  0 / 160 ( 0 % )     ; 0                    ; 0                                   ; 0                                    ; 0                                ; 0                                 ; 0      ; 0       ; 0                  ; 0                         ; 0               ;
;  E4          ;  0 / 160 ( 0 % )     ; 0                    ; 0                                   ; 0                                    ; 0                                ; 0                                 ; 0      ; 0       ; 0                  ; 0                         ; 0               ;
;  F1          ;  10 / 160 ( 6 % )    ; 0                    ; 0                                   ; 10                                   ; 0                                ; 0                                 ; 1      ; 10      ; 0                  ; 0                         ; 1               ;
;  F2          ;  0 / 160 ( 0 % )     ; 0                    ; 0                                   ; 0                                    ; 0                                ; 0                                 ; 0      ; 0       ; 0                  ; 0                         ; 0               ;
;  F3          ;  0 / 160 ( 0 % )     ; 0                    ; 0                                   ; 0                                    ; 0                                ; 0                                 ; 0      ; 0       ; 0                  ; 0                         ; 0               ;
;  F4          ;  0 / 160 ( 0 % )     ; 0                    ; 0                                   ; 0                                    ; 0                                ; 0                                 ; 0      ; 0       ; 0                  ; 0                         ; 0               ;
;  G1          ;  7 / 160 ( 4 % )     ; 0                    ; 0                                   ; 7                                    ; 0                                ; 0                                 ; 1      ; 7       ; 0                  ; 0                         ; 1               ;
;  G2          ;  0 / 160 ( 0 % )     ; 0                    ; 0                                   ; 0                                    ; 0                                ; 0                                 ; 0      ; 0       ; 0                  ; 0                         ; 0               ;
;  G3          ;  0 / 160 ( 0 % )     ; 0                    ; 0                                   ; 0                                    ; 0                                ; 0                                 ; 0      ; 0       ; 0                  ; 0                         ; 0               ;
;  G4          ;  0 / 160 ( 0 % )     ; 0                    ; 0                                   ; 0                                    ; 0                                ; 0                                 ; 0      ; 0       ; 0                  ; 0                         ; 0               ;
;  H1          ;  3 / 160 ( 1 % )     ; 0                    ; 0                                   ; 3                                    ; 0                                ; 0                                 ; 1      ; 3       ; 0                  ; 0                         ; 1               ;
;  H2          ;  0 / 160 ( 0 % )     ; 0                    ; 0                                   ; 0                                    ; 0                                ; 0                                 ; 0      ; 0       ; 0                  ; 0                         ; 0               ;
;  H3          ;  0 / 160 ( 0 % )     ; 0                    ; 0                                   ; 0                                    ; 0                                ; 0                                 ; 0      ; 0       ; 0                  ; 0                         ; 0               ;
;  H4          ;  0 / 160 ( 0 % )     ; 0                    ; 0                                   ; 0                                    ; 0                                ; 0                                 ; 0      ; 0       ; 0                  ; 0                         ; 0               ;
;  I1          ;  0 / 160 ( 0 % )     ; 0                    ; 0                                   ; 0                                    ; 0                                ; 0                                 ; 0      ; 0       ; 0                  ; 0                         ; 0               ;
;  I2          ;  0 / 160 ( 0 % )     ; 0                    ; 0                                   ; 0                                    ; 0                                ; 0                                 ; 0      ; 0       ; 0                  ; 0                         ; 0               ;
;  I3          ;  0 / 160 ( 0 % )     ; 0                    ; 0                                   ; 0                                    ; 0                                ; 0                                 ; 0      ; 0       ; 0                  ; 0                         ; 0               ;
;  I4          ;  0 / 160 ( 0 % )     ; 0                    ; 0                                   ; 0                                    ; 0                                ; 0                                 ; 0      ; 0       ; 0                  ; 0                         ; 0               ;
;  J1          ;  0 / 160 ( 0 % )     ; 0                    ; 0                                   ; 0                                    ; 0                                ; 0                                 ; 0      ; 0       ; 0                  ; 0                         ; 0               ;
;  J2          ;  0 / 160 ( 0 % )     ; 0                    ; 0                                   ; 0                                    ; 0                                ; 0                                 ; 0      ; 0       ; 0                  ; 0                         ; 0               ;
;  J3          ;  0 / 160 ( 0 % )     ; 0                    ; 0                                   ; 0                                    ; 0                                ; 0                                 ; 0      ; 0       ; 0                  ; 0                         ; 0               ;
;  J4          ;  0 / 160 ( 0 % )     ; 0                    ; 0                                   ; 0                                    ; 0                                ; 0                                 ; 0      ; 0       ; 0                  ; 0                         ; 0               ;
;  K1          ;  0 / 160 ( 0 % )     ; 0                    ; 0                                   ; 0                                    ; 0                                ; 0                                 ; 0      ; 0       ; 0                  ; 0                         ; 0               ;
;  K2          ;  0 / 160 ( 0 % )     ; 0                    ; 0                                   ; 0                                    ; 0                                ; 0                                 ; 0      ; 0       ; 0                  ; 0                         ; 0               ;
;  K3          ;  0 / 160 ( 0 % )     ; 0                    ; 0                                   ; 0                                    ; 0                                ; 0                                 ; 0      ; 0       ; 0                  ; 0                         ; 0               ;
;  K4          ;  0 / 160 ( 0 % )     ; 0                    ; 0                                   ; 0                                    ; 0                                ; 0                                 ; 0      ; 0       ; 0                  ; 0                         ; 0               ;
;  L1          ;  0 / 160 ( 0 % )     ; 0                    ; 0                                   ; 0                                    ; 0                                ; 0                                 ; 0      ; 0       ; 0                  ; 0                         ; 0               ;
;  L2          ;  0 / 160 ( 0 % )     ; 0                    ; 0                                   ; 0                                    ; 0                                ; 0                                 ; 0      ; 0       ; 0                  ; 0                         ; 0               ;
;  L3          ;  0 / 160 ( 0 % )     ; 0                    ; 0                                   ; 0                                    ; 0                                ; 0                                 ; 0      ; 0       ; 0                  ; 0                         ; 0               ;
;  L4          ;  0 / 160 ( 0 % )     ; 0                    ; 0                                   ; 0                                    ; 0                                ; 0                                 ; 0      ; 0       ; 0                  ; 0                         ; 0               ;
;  M1          ;  0 / 160 ( 0 % )     ; 0                    ; 0                                   ; 0                                    ; 0                                ; 0                                 ; 0      ; 0       ; 0                  ; 0                         ; 0               ;
;  M2          ;  0 / 160 ( 0 % )     ; 0                    ; 0                                   ; 0                                    ; 0                                ; 0                                 ; 0      ; 0       ; 0                  ; 0                         ; 0               ;
;  M3          ;  0 / 160 ( 0 % )     ; 0                    ; 0                                   ; 0                                    ; 0                                ; 0                                 ; 0      ; 0       ; 0                  ; 0                         ; 0               ;
;  M4          ;  0 / 160 ( 0 % )     ; 0                    ; 0                                   ; 0                                    ; 0                                ; 0                                 ; 0      ; 0       ; 0                  ; 0                         ; 0               ;
;  N1          ;  0 / 160 ( 0 % )     ; 0                    ; 0                                   ; 0                                    ; 0                                ; 0                                 ; 0      ; 0       ; 0                  ; 0                         ; 0               ;
;  N2          ;  0 / 160 ( 0 % )     ; 0                    ; 0                                   ; 0                                    ; 0                                ; 0                                 ; 0      ; 0       ; 0                  ; 0                         ; 0               ;
;  N3          ;  0 / 160 ( 0 % )     ; 0                    ; 0                                   ; 0                                    ; 0                                ; 0                                 ; 0      ; 0       ; 0                  ; 0                         ; 0               ;
;  N4          ;  0 / 160 ( 0 % )     ; 0                    ; 0                                   ; 0                                    ; 0                                ; 0                                 ; 0      ; 0       ; 0                  ; 0                         ; 0               ;
;  O1          ;  0 / 160 ( 0 % )     ; 0                    ; 0                                   ; 0                                    ; 0                                ; 0                                 ; 0      ; 0       ; 0                  ; 0                         ; 0               ;
;  O2          ;  0 / 160 ( 0 % )     ; 0                    ; 0                                   ; 0                                    ; 0                                ; 0                                 ; 0      ; 0       ; 0                  ; 0                         ; 0               ;
;  O3          ;  0 / 160 ( 0 % )     ; 0                    ; 0                                   ; 0                                    ; 0                                ; 0                                 ; 0      ; 0       ; 0                  ; 0                         ; 0               ;
;  O4          ;  0 / 160 ( 0 % )     ; 0                    ; 0                                   ; 0                                    ; 0                                ; 0                                 ; 0      ; 0       ; 0                  ; 0                         ; 0               ;
;  P1          ;  0 / 160 ( 0 % )     ; 0                    ; 0                                   ; 0                                    ; 0                                ; 0                                 ; 0      ; 0       ; 0                  ; 0                         ; 0               ;
;  P2          ;  0 / 160 ( 0 % )     ; 0                    ; 0                                   ; 0                                    ; 0                                ; 0                                 ; 0      ; 0       ; 0                  ; 0                         ; 0               ;
;  P3          ;  0 / 160 ( 0 % )     ; 0                    ; 0                                   ; 0                                    ; 0                                ; 0                                 ; 0      ; 0       ; 0                  ; 0                         ; 0               ;
;  P4          ;  0 / 160 ( 0 % )     ; 0                    ; 0                                   ; 0                                    ; 0                                ; 0                                 ; 0      ; 0       ; 0                  ; 0                         ; 0               ;
;  Q1          ;  0 / 160 ( 0 % )     ; 0                    ; 0                                   ; 0                                    ; 0                                ; 0                                 ; 0      ; 0       ; 0                  ; 0                         ; 0               ;
;  Q2          ;  0 / 160 ( 0 % )     ; 0                    ; 0                                   ; 0                                    ; 0                                ; 0                                 ; 0      ; 0       ; 0                  ; 0                         ; 0               ;
;  Q3          ;  0 / 160 ( 0 % )     ; 0                    ; 0                                   ; 0                                    ; 0                                ; 0                                 ; 0      ; 0       ; 0                  ; 0                         ; 0               ;
;  Q4          ;  0 / 160 ( 0 % )     ; 0                    ; 0                                   ; 0                                    ; 0                                ; 0                                 ; 0      ; 0       ; 0                  ; 0                         ; 0               ;
;  R1          ;  0 / 160 ( 0 % )     ; 0                    ; 0                                   ; 0                                    ; 0                                ; 0                                 ; 0      ; 0       ; 0                  ; 0                         ; 0               ;
;  R2          ;  0 / 160 ( 0 % )     ; 0                    ; 0                                   ; 0                                    ; 0                                ; 0                                 ; 0      ; 0       ; 0                  ; 0                         ; 0               ;
;  R3          ;  0 / 160 ( 0 % )     ; 0                    ; 0                                   ; 0                                    ; 0                                ; 0                                 ; 0      ; 0       ; 0                  ; 0                         ; 0               ;
;  R4          ;  0 / 160 ( 0 % )     ; 0                    ; 0                                   ; 0                                    ; 0                                ; 0                                 ; 0      ; 0       ; 0                  ; 0                         ; 0               ;
--------------------------------------------------------------------------------------------------------------------------------------------------------------------------------------------------------------------------------------------------------------------------------------------------------


--------------------------------------------------------------------------------
; Row Interconnect                                                             ;
--------------------------------------------------------------------------------
; Row   ; Interconnect Available ; Interconnect Used  ; Half Interconnect Used ;
--------------------------------------------------------------------------------
;  A    ; 100                    ;  25 / 100 ( 25 % ) ;  63 / 200 ( 31 % )     ;
;  B    ; 100                    ;  13 / 100 ( 13 % ) ;  44 / 200 ( 22 % )     ;
;  C    ; 100                    ;  11 / 100 ( 11 % ) ;  32 / 200 ( 16 % )     ;
;  D    ; 100                    ;  4 / 100 ( 4 % )   ;  9 / 200 ( 4 % )       ;
;  E    ; 100                    ;  0 / 100 ( 0 % )   ;  0 / 200 ( 0 % )       ;
;  F    ; 100                    ;  0 / 100 ( 0 % )   ;  0 / 200 ( 0 % )       ;
;  G    ; 100                    ;  0 / 100 ( 0 % )   ;  0 / 200 ( 0 % )       ;
;  H    ; 100                    ;  0 / 100 ( 0 % )   ;  0 / 200 ( 0 % )       ;
;  I    ; 100                    ;  0 / 100 ( 0 % )   ;  0 / 200 ( 0 % )       ;
;  J    ; 100                    ;  0 / 100 ( 0 % )   ;  0 / 200 ( 0 % )       ;
;  K    ; 100                    ;  0 / 100 ( 0 % )   ;  0 / 200 ( 0 % )       ;
;  L    ; 100                    ;  0 / 100 ( 0 % )   ;  0 / 200 ( 0 % )       ;
;  M    ; 100                    ;  0 / 100 ( 0 % )   ;  0 / 200 ( 0 % )       ;
;  N    ; 100                    ;  0 / 100 ( 0 % )   ;  0 / 200 ( 0 % )       ;
;  O    ; 100                    ;  0 / 100 ( 0 % )   ;  0 / 200 ( 0 % )       ;
;  P    ; 100                    ;  0 / 100 ( 0 % )   ;  0 / 200 ( 0 % )       ;
;  Q    ; 100                    ;  0 / 100 ( 0 % )   ;  0 / 200 ( 0 % )       ;
;  R    ; 100                    ;  0 / 100 ( 0 % )   ;  0 / 200 ( 0 % )       ;
; Total ; 1800                   ;  53 / 1800 ( 2 % ) ;  148 / 3600 ( 4 % )    ;
--------------------------------------------------------------------------------


---------------------------------------------------------------------------------------------
; LAB Column Interconnect                                                                   ;
---------------------------------------------------------------------------------------------
; MegaLAB Col. ; Col. ; Interconnect Available ; Interconnect Used ; Half Interconnect Used ;
---------------------------------------------------------------------------------------------
; 1            ; 1    ; 80                     ;  0 / 80 ( 0 % )   ;  4 / 160 ( 2 % )       ;
; 1            ; 2    ; 80                     ;  0 / 80 ( 0 % )   ;  9 / 160 ( 5 % )       ;
; 1            ; 3    ; 80                     ;  0 / 80 ( 0 % )   ;  7 / 160 ( 4 % )       ;
; 1            ; 4    ; 80                     ;  0 / 80 ( 0 % )   ;  12 / 160 ( 7 % )      ;
; 1            ; 5    ; 80                     ;  0 / 80 ( 0 % )   ;  6 / 160 ( 3 % )       ;
; 1            ; 6    ; 80                     ;  0 / 80 ( 0 % )   ;  9 / 160 ( 5 % )       ;
; 1            ; 7    ; 80                     ;  0 / 80 ( 0 % )   ;  7 / 160 ( 4 % )       ;
; 1            ; 8    ; 80                     ;  0 / 80 ( 0 % )   ;  6 / 160 ( 3 % )       ;
; 1            ; 9    ; 80                     ;  0 / 80 ( 0 % )   ;  11 / 160 ( 6 % )      ;
; 1            ; 10   ; 80                     ;  0 / 80 ( 0 % )   ;  11 / 160 ( 6 % )      ;
; 1            ; 11   ; 80                     ;  0 / 80 ( 0 % )   ;  13 / 160 ( 8 % )      ;
; 1            ; 12   ; 80                     ;  0 / 80 ( 0 % )   ;  13 / 160 ( 8 % )      ;
; 1            ; 13   ; 80                     ;  0 / 80 ( 0 % )   ;  10 / 160 ( 6 % )      ;
; 1            ; 14   ; 80                     ;  0 / 80 ( 0 % )   ;  8 / 160 ( 5 % )       ;
; 1            ; 15   ; 80                     ;  0 / 80 ( 0 % )   ;  7 / 160 ( 4 % )       ;
; 1            ; 16   ; 80                     ;  0 / 80 ( 0 % )   ;  6 / 160 ( 3 % )       ;
; 1            ; 17   ; 80                     ;  0 / 80 ( 0 % )   ;  1 / 160 ( < 1 % )     ;
; 2            ; 1    ; 80                     ;  0 / 80 ( 0 % )   ;  0 / 160 ( 0 % )       ;
; 2            ; 2    ; 80                     ;  0 / 80 ( 0 % )   ;  0 / 160 ( 0 % )       ;
; 2            ; 3    ; 80                     ;  0 / 80 ( 0 % )   ;  0 / 160 ( 0 % )       ;
; 2            ; 4    ; 80                     ;  0 / 80 ( 0 % )   ;  0 / 160 ( 0 % )       ;
; 2            ; 5    ; 80                     ;  0 / 80 ( 0 % )   ;  0 / 160 ( 0 % )       ;
; 2            ; 6    ; 80                     ;  0 / 80 ( 0 % )   ;  0 / 160 ( 0 % )       ;
; 2            ; 7    ; 80                     ;  0 / 80 ( 0 % )   ;  0 / 160 ( 0 % )       ;
; 2            ; 8    ; 80                     ;  0 / 80 ( 0 % )   ;  0 / 160 ( 0 % )       ;
; 2            ; 9    ; 80                     ;  0 / 80 ( 0 % )   ;  0 / 160 ( 0 % )       ;
; 2            ; 10   ; 80                     ;  0 / 80 ( 0 % )   ;  0 / 160 ( 0 % )       ;
; 2            ; 11   ; 80                     ;  0 / 80 ( 0 % )   ;  0 / 160 ( 0 % )       ;
; 2            ; 12   ; 80                     ;  0 / 80 ( 0 % )   ;  0 / 160 ( 0 % )       ;
; 2            ; 13   ; 80                     ;  0 / 80 ( 0 % )   ;  0 / 160 ( 0 % )       ;
; 2            ; 14   ; 80                     ;  0 / 80 ( 0 % )   ;  0 / 160 ( 0 % )       ;
; 2            ; 15   ; 80                     ;  0 / 80 ( 0 % )   ;  0 / 160 ( 0 % )       ;
; 2            ; 16   ; 80                     ;  0 / 80 ( 0 % )   ;  0 / 160 ( 0 % )       ;
; 2            ; 17   ; 80                     ;  0 / 80 ( 0 % )   ;  0 / 160 ( 0 % )       ;
; 3            ; 1    ; 80                     ;  0 / 80 ( 0 % )   ;  0 / 160 ( 0 % )       ;
; 3            ; 2    ; 80                     ;  0 / 80 ( 0 % )   ;  0 / 160 ( 0 % )       ;
; 3            ; 3    ; 80                     ;  0 / 80 ( 0 % )   ;  0 / 160 ( 0 % )       ;
; 3            ; 4    ; 80                     ;  0 / 80 ( 0 % )   ;  0 / 160 ( 0 % )       ;
; 3            ; 5    ; 80                     ;  0 / 80 ( 0 % )   ;  0 / 160 ( 0 % )       ;
; 3            ; 6    ; 80                     ;  0 / 80 ( 0 % )   ;  0 / 160 ( 0 % )       ;
; 3            ; 7    ; 80                     ;  0 / 80 ( 0 % )   ;  0 / 160 ( 0 % )       ;
; 3            ; 8    ; 80                     ;  0 / 80 ( 0 % )   ;  0 / 160 ( 0 % )       ;
; 3            ; 9    ; 80                     ;  0 / 80 ( 0 % )   ;  0 / 160 ( 0 % )       ;
; 3            ; 10   ; 80                     ;  0 / 80 ( 0 % )   ;  0 / 160 ( 0 % )       ;
; 3            ; 11   ; 80                     ;  0 / 80 ( 0 % )   ;  0 / 160 ( 0 % )       ;
; 3            ; 12   ; 80                     ;  0 / 80 ( 0 % )   ;  0 / 160 ( 0 % )       ;
; 3            ; 13   ; 80                     ;  0 / 80 ( 0 % )   ;  0 / 160 ( 0 % )       ;
; 3            ; 14   ; 80                     ;  0 / 80 ( 0 % )   ;  0 / 160 ( 0 % )       ;
; 3            ; 15   ; 80                     ;  0 / 80 ( 0 % )   ;  0 / 160 ( 0 % )       ;
; 3            ; 16   ; 80                     ;  0 / 80 ( 0 % )   ;  0 / 160 ( 0 % )       ;
; 3            ; 17   ; 80                     ;  0 / 80 ( 0 % )   ;  0 / 160 ( 0 % )       ;
; 4            ; 1    ; 80                     ;  0 / 80 ( 0 % )   ;  0 / 160 ( 0 % )       ;
; 4            ; 2    ; 80                     ;  0 / 80 ( 0 % )   ;  0 / 160 ( 0 % )       ;
; 4            ; 3    ; 80                     ;  0 / 80 ( 0 % )   ;  0 / 160 ( 0 % )       ;
; 4            ; 4    ; 80                     ;  0 / 80 ( 0 % )   ;  0 / 160 ( 0 % )       ;
; 4            ; 5    ; 80                     ;  0 / 80 ( 0 % )   ;  0 / 160 ( 0 % )       ;
; 4            ; 6    ; 80                     ;  0 / 80 ( 0 % )   ;  0 / 160 ( 0 % )       ;
; 4            ; 7    ; 80                     ;  0 / 80 ( 0 % )   ;  0 / 160 ( 0 % )       ;
; 4            ; 8    ; 80                     ;  0 / 80 ( 0 % )   ;  0 / 160 ( 0 % )       ;
; 4            ; 9    ; 80                     ;  0 / 80 ( 0 % )   ;  0 / 160 ( 0 % )       ;
; 4            ; 10   ; 80                     ;  0 / 80 ( 0 % )   ;  0 / 160 ( 0 % )       ;
; 4            ; 11   ; 80                     ;  0 / 80 ( 0 % )   ;  0 / 160 ( 0 % )       ;
; 4            ; 12   ; 80                     ;  0 / 80 ( 0 % )   ;  0 / 160 ( 0 % )       ;
; 4            ; 13   ; 80                     ;  0 / 80 ( 0 % )   ;  0 / 160 ( 0 % )       ;
; 4            ; 14   ; 80                     ;  0 / 80 ( 0 % )   ;  0 / 160 ( 0 % )       ;
; 4            ; 15   ; 80                     ;  0 / 80 ( 0 % )   ;  0 / 160 ( 0 % )       ;
; 4            ; 16   ; 80                     ;  0 / 80 ( 0 % )   ;  0 / 160 ( 0 % )       ;
; 4            ; 17   ; 80                     ;  0 / 80 ( 0 % )   ;  0 / 160 ( 0 % )       ;
; Total        ;      ; 5440                   ;  0 / 5440 ( 0 % ) ;  140 / 10880 ( 1 % )   ;
---------------------------------------------------------------------------------------------


-------------------------------------------------------------------------------
; ESB Column Interconnect                                                     ;
-------------------------------------------------------------------------------
; Col.  ; Interconnect Available ; Interconnect Used ; Half Interconnect Used ;
-------------------------------------------------------------------------------
; 0     ; 128                    ;  0 / 128 ( 0 % )  ;  0 / 256 ( 0 % )       ;
; 1     ; 128                    ;  0 / 128 ( 0 % )  ;  0 / 256 ( 0 % )       ;
; 2     ; 128                    ;  0 / 128 ( 0 % )  ;  0 / 256 ( 0 % )       ;
; 3     ; 128                    ;  0 / 128 ( 0 % )  ;  0 / 256 ( 0 % )       ;
; Total ; 512                    ;  0 / 512 ( 0 % )  ;  0 / 1024 ( 0 % )      ;
-------------------------------------------------------------------------------


-------------------------------------------------------
; Resource Usage Summary                              ;
-------------------------------------------------------
; Resource                     ; Usage                ;
-------------------------------------------------------
; Logic cells                  ; 882 / 11,520 ( 7 % ) ;
; Registers                    ; 460 / 12,400 ( 3 % ) ;
; User inserted logic cells    ; 0                    ;
; I/O pins                     ; 19 / 152 ( 12 % )    ;
;     -- Clock pins            ; 0                    ;
;     -- Dedicated input pins  ; 0 / 4 ( 0 % )        ;
; Global signals               ; 5                    ;
; ESBs                         ; 0 / 72 ( 0 % )       ;
; Macrocells                   ; 0 / 1,152 ( 0 % )    ;
; ESB pterm bits used          ; 0 / 147,456 ( 0 % )  ;
; ESB CAM bits used            ; 0 / 147,456 ( 0 % )  ;
; Total memory bits            ; 0 / 147,456 ( 0 % )  ;
; Total RAM block bits         ; 0 / 147,456 ( 0 % )  ;
; FastRow interconnects        ; 0 / 120 ( 0 % )      ;
; PLLs                         ; 0 / 4 ( 0 % )        ;
; Maximum fan-out node         ; clk20                ;
; Maximum fan-out              ; 460                  ;
; Total fan-out                ; 2538                 ;
; Average fan-out              ; 2.82                 ;
-------------------------------------------------------


---------------------------------------------------------------------------------------------------------------------------------------------------------------------------------------------------------------------------------------
; Fitter Resource Utilization by Entity                                                                                                                                                                                               ;
---------------------------------------------------------------------------------------------------------------------------------------------------------------------------------------------------------------------------------------
; Compilation Hierarchy Node             ; Logic Cells ; Registers ; Memory Bits ; Pins ; Virtual Pins ; LUT-Only LCs ; Register-Only LCs ; LUT/Register LCs ; Full Hierarchy Name                                                    ;
---------------------------------------------------------------------------------------------------------------------------------------------------------------------------------------------------------------------------------------
; |ums2                                  ; 578 (256)   ; 156       ; 0           ; 19   ; 304          ; 422 (198)    ; 14 (14)           ; 142 (44)         ; |ums2                                                                  ;
;    |lpm_compare:PCT100_CMP|            ; 32 (0)      ; 0         ; 0           ; 0    ; 0            ; 32 (0)       ; 0 (0)             ; 0 (0)            ; |ums2|lpm_compare:PCT100_CMP                                           ;
;       |comptree:comparator|            ; 32 (0)      ; 0         ; 0           ; 0    ; 0            ; 32 (0)       ; 0 (0)             ; 0 (0)            ; |ums2|lpm_compare:PCT100_CMP|comptree:comparator                       ;
;          |cmpchain:cmp_end|            ; 32 (32)     ; 0         ; 0           ; 0    ; 0            ; 32 (32)      ; 0 (0)             ; 0 (0)            ; |ums2|lpm_compare:PCT100_CMP|comptree:comparator|cmpchain:cmp_end      ;
;    |lpm_compare:PCT10_CMP|             ; 32 (0)      ; 0         ; 0           ; 0    ; 0            ; 32 (0)       ; 0 (0)             ; 0 (0)            ; |ums2|lpm_compare:PCT10_CMP                                            ;
;       |comptree:comparator|            ; 32 (0)      ; 0         ; 0           ; 0    ; 0            ; 32 (0)       ; 0 (0)             ; 0 (0)            ; |ums2|lpm_compare:PCT10_CMP|comptree:comparator                        ;
;          |cmpchain:cmp_end|            ; 32 (32)     ; 0         ; 0           ; 0    ; 0            ; 32 (32)      ; 0 (0)             ; 0 (0)            ; |ums2|lpm_compare:PCT10_CMP|comptree:comparator|cmpchain:cmp_end       ;
;    |lpm_compare:PCT110_CMP|            ; 32 (0)      ; 0         ; 0           ; 0    ; 0            ; 32 (0)       ; 0 (0)             ; 0 (0)            ; |ums2|lpm_compare:PCT110_CMP                                           ;
;       |comptree:comparator|            ; 32 (0)      ; 0         ; 0           ; 0    ; 0            ; 32 (0)       ; 0 (0)             ; 0 (0)            ; |ums2|lpm_compare:PCT110_CMP|comptree:comparator                       ;
;          |cmpchain:cmp_end|            ; 32 (32)     ; 0         ; 0           ; 0    ; 0            ; 32 (32)      ; 0 (0)             ; 0 (0)            ; |ums2|lpm_compare:PCT110_CMP|comptree:comparator|cmpchain:cmp_end      ;
;    |lpm_compare:PCT25_CMP|             ; 32 (0)      ; 0         ; 0           ; 0    ; 0            ; 32 (0)       ; 0 (0)             ; 0 (0)            ; |ums2|lpm_compare:PCT25_CMP                                            ;
;       |comptree:comparator|            ; 32 (0)      ; 0         ; 0           ; 0    ; 0            ; 32 (0)       ; 0 (0)             ; 0 (0)            ; |ums2|lpm_compare:PCT25_CMP|comptree:comparator                        ;
;          |cmpchain:cmp_end|            ; 32 (32)     ; 0         ; 0           ; 0    ; 0            ; 32 (32)      ; 0 (0)             ; 0 (0)            ; |ums2|lpm_compare:PCT25_CMP|comptree:comparator|cmpchain:cmp_end       ;
;    |lpm_compare:PCT75_CMP|             ; 32 (0)      ; 0         ; 0           ; 0    ; 0            ; 32 (0)       ; 0 (0)             ; 0 (0)            ; |ums2|lpm_compare:PCT75_CMP                                            ;
;       |comptree:comparator|            ; 32 (0)      ; 0         ; 0           ; 0    ; 0            ; 32 (0)       ; 0 (0)             ; 0 (0)            ; |ums2|lpm_compare:PCT75_CMP|comptree:comparator                        ;
;          |cmpchain:cmp_end|            ; 32 (32)     ; 0         ; 0           ; 0    ; 0            ; 32 (32)      ; 0 (0)             ; 0 (0)            ; |ums2|lpm_compare:PCT75_CMP|comptree:comparator|cmpchain:cmp_end       ;
;    |lpm_compare:PCT90_CMP|             ; 32 (0)      ; 0         ; 0           ; 0    ; 0            ; 32 (0)       ; 0 (0)             ; 0 (0)            ; |ums2|lpm_compare:PCT90_CMP                                            ;
;       |comptree:comparator|            ; 32 (0)      ; 0         ; 0           ; 0    ; 0            ; 32 (0)       ; 0 (0)             ; 0 (0)            ; |ums2|lpm_compare:PCT90_CMP|comptree:comparator                        ;
;          |cmpchain:cmp_end|            ; 32 (32)     ; 0         ; 0           ; 0    ; 0            ; 32 (32)      ; 0 (0)             ; 0 (0)            ; |ums2|lpm_compare:PCT90_CMP|comptree:comparator|cmpchain:cmp_end       ;
;    |lpm_compare:PCTMAX_CMP|            ; 32 (0)      ; 0         ; 0           ; 0    ; 0            ; 32 (0)       ; 0 (0)             ; 0 (0)            ; |ums2|lpm_compare:PCTMAX_CMP                                           ;
;       |comptree:comparator|            ; 32 (0)      ; 0         ; 0           ; 0    ; 0            ; 32 (0)       ; 0 (0)             ; 0 (0)            ; |ums2|lpm_compare:PCTMAX_CMP|comptree:comparator                       ;
;          |cmpchain:cmp_end|            ; 32 (32)     ; 0         ; 0           ; 0    ; 0            ; 32 (32)      ; 0 (0)             ; 0 (0)            ; |ums2|lpm_compare:PCTMAX_CMP|comptree:comparator|cmpchain:cmp_end      ;
;    |lpm_counter:CMD_CNT_rtl_33|        ; 32 (0)      ; 32        ; 0           ; 0    ; 0            ; 0 (0)        ; 0 (0)             ; 32 (0)           ; |ums2|lpm_counter:CMD_CNT_rtl_33                                       ;
;       |alt_synch_counter:wysi_counter| ; 32 (32)     ; 32        ; 0           ; 0    ; 0            ; 0 (0)        ; 0 (0)             ; 32 (32)          ; |ums2|lpm_counter:CMD_CNT_rtl_33|alt_synch_counter:wysi_counter        ;
;    |lpm_counter:iUMS_CNT_rtl_29|       ; 32 (0)      ; 32        ; 0           ; 0    ; 0            ; 0 (0)        ; 0 (0)             ; 32 (0)           ; |ums2|lpm_counter:iUMS_CNT_rtl_29                                      ;
;       |alt_synch_counter:wysi_counter| ; 32 (32)     ; 32        ; 0           ; 0    ; 0            ; 0 (0)        ; 0 (0)             ; 32 (32)          ; |ums2|lpm_counter:iUMS_CNT_rtl_29|alt_synch_counter:wysi_counter       ;
;    |lpm_counter:init_delay_cnt_rtl_32| ; 15 (0)      ; 15        ; 0           ; 0    ; 0            ; 0 (0)        ; 0 (0)             ; 15 (0)           ; |ums2|lpm_counter:init_delay_cnt_rtl_32                                ;
;       |alt_synch_counter:wysi_counter| ; 15 (15)     ; 15        ; 0           ; 0    ; 0            ; 0 (0)        ; 0 (0)             ; 15 (15)          ; |ums2|lpm_counter:init_delay_cnt_rtl_32|alt_synch_counter:wysi_counter ;
;    |lpm_counter:ns250_cnt_rtl_31|      ; 3 (0)       ; 3         ; 0           ; 0    ; 0            ; 0 (0)        ; 0 (0)             ; 3 (0)            ; |ums2|lpm_counter:ns250_cnt_rtl_31                                     ;
;       |alt_synch_counter:wysi_counter| ; 3 (3)       ; 3         ; 0           ; 0    ; 0            ; 0 (0)        ; 0 (0)             ; 3 (3)            ; |ums2|lpm_counter:ns250_cnt_rtl_31|alt_synch_counter:wysi_counter      ;
;    |lpm_counter:step_cnt_rtl_30|       ; 16 (0)      ; 16        ; 0           ; 0    ; 0            ; 0 (0)        ; 0 (0)             ; 16 (0)           ; |ums2|lpm_counter:step_cnt_rtl_30                                      ;
;       |alt_synch_counter:wysi_counter| ; 16 (16)     ; 16        ; 0           ; 0    ; 0            ; 0 (0)        ; 0 (0)             ; 16 (16)          ; |ums2|lpm_counter:step_cnt_rtl_30|alt_synch_counter:wysi_counter       ;
---------------------------------------------------------------------------------------------------------------------------------------------------------------------------------------------------------------------------------------


---------------------------------------------------------------------------------------------------------------------------------------------------------------------
; LogicLock Region Resource Usage                                                                                                                                   ;
---------------------------------------------------------------------------------------------------------------------------------------------------------------------
; LogicLock Region ; Origin   ; Width ; Height ; Logic Cells ; Registers ; Memory Bits ; Pins  ; Virtual Pins ; LUT-Only LCs ; Register-Only LCs ; LUT/Register LCs ;
---------------------------------------------------------------------------------------------------------------------------------------------------------------------
; UMS2             ; LAB_1_A1 ; 16    ; 4      ; 578 (578)   ; 156 (156) ; 0 (0)       ; 0 (0) ; 0 (0)        ; 422 (422)    ; 14 (14)           ; 142 (142)        ;
---------------------------------------------------------------------------------------------------------------------------------------------------------------------


----------------------------------------------------------------------------------------------------------------------
; Delay Chain Summary                                                                                                ;
----------------------------------------------------------------------------------------------------------------------
; Name        ; Pin Type ; Pad to Core ; Pad to Input Register ; Core to Output Register ; Core to CE Register ; TCO ;
----------------------------------------------------------------------------------------------------------------------
; CMD_IN      ; Input    ; ON          ; OFF                   ; OFF                     ; OFF                 ; OFF ;
; CMD_MID_IN  ; Input    ; ON          ; OFF                   ; OFF                     ; OFF                 ; OFF ;
; CMD_MID_OUT ; Input    ; ON          ; OFF                   ; OFF                     ; OFF                 ; OFF ;
; CMD_OUT     ; Input    ; ON          ; OFF                   ; OFF                     ; OFF                 ; OFF ;
; CMD_WD      ; Input    ; ON          ; OFF                   ; OFF                     ; OFF                 ; OFF ;
; Det_Sat     ; Input    ; ON          ; OFF                   ; OFF                     ; OFF                 ; OFF ;
; HC_MR       ; Input    ; ON          ; OFF                   ; OFF                     ; OFF                 ; OFF ;
; Hi_Cnt      ; Input    ; ON          ; OFF                   ; OFF                     ; OFF                 ; OFF ;
; RTEM_GRN    ; Input    ; ON          ; OFF                   ; OFF                     ; OFF                 ; OFF ;
; RTEM_HS     ; Input    ; ON          ; OFF                   ; OFF                     ; OFF                 ; OFF ;
; RTEM_RED    ; Input    ; ON          ; OFF                   ; OFF                     ; OFF                 ; OFF ;
; ST_RTEM[0]  ; Output   ; OFF         ; OFF                   ; OFF                     ; OFF                 ; OFF ;
; ST_RTEM[1]  ; Output   ; OFF         ; OFF                   ; OFF                     ; OFF                 ; OFF ;
; ST_RTEM[2]  ; Output   ; OFF         ; OFF                   ; OFF                     ; OFF                 ; OFF ;
; ST_RTEM[3]  ; Output   ; OFF         ; OFF                   ; OFF                     ; OFF                 ; OFF ;
; UMS_DIR     ; Output   ; OFF         ; OFF                   ; OFF                     ; OFF                 ; OFF ;
; UMS_SCLK    ; Output   ; OFF         ; OFF                   ; OFF                     ; OFF                 ; OFF ;
; clk20       ; Input    ; OFF         ; OFF                   ; OFF                     ; OFF                 ; OFF ;
; imr         ; Input    ; OFF         ; OFF                   ; OFF                     ; OFF                 ; OFF ;
----------------------------------------------------------------------------------------------------------------------


-------------------------------
; I/O Bank Usage              ;
-------------------------------
; I/O Bank ; Usage            ;
-------------------------------
; 1        ; 4 / 20 ( 20 % )  ;
; 2        ; 0 / 14 ( 0 % )   ;
; 3        ; 0 / 20 ( 0 % )   ;
; 4        ; 0 / 23 ( 0 % )   ;
; 5        ; 0 / 17 ( 0 % )   ;
; 6        ; 0 / 15 ( 0 % )   ;
; 7        ; 0 / 21 ( 0 % )   ;
; 8        ; 15 / 22 ( 68 % ) ;
-------------------------------


-----------------
; Pin-Out File  ;
-----------------
The pin-out file can be found in f:\p19700-1\software\ep99840\rtemctrl\ums\UMS2.pin.


--------------------
; Fitter Messages  ;
--------------------
Info: *******************************************************************
Info: Running Quartus II Fitter
  Info: Version 3.0 Build 199 06/26/2003 SJ Full Version
  Info: Processing started: Tue Sep 02 11:37:23 2003
Info: Command: quartus_fit --lower_priority --import_settings_files=off --export_settings_files=off UMS2 -c UMS2
Info: Selected device EP20K300EQC240-2X for design UMS2
Info: Detected fmax, tsu, tco, and/or tpd requirements -- optimizing circuit to achieve only the specified requirements
Info: Promoted cell clk20 to global signal automatically
Info: Promoted cell imr to global signal automatically
Info: Promoted cell i~148 to global signal automatically
Info: Promoted cell reduce_nor_27~123 to global signal automatically
Info: Promoted cell UMS_STATE~8 to global signal automatically
Info: Started fitting attempt 1 on Tue Sep 02 2003 at 11:37:27
Info: Fitter placement was successful
Info: Design requires the following device routing resources: overall column FastTrack interconnect 1%; overall row FastTrack interconnect 7%; maximum column FastTrack interconnect 9%; maximum row FastTrack interconnect 87%
Info: Estimated most critical path is register to pin delay of 3.761 ns
  Info: 1: + IC(0.000 ns) + CELL(0.194 ns) = 0.194 ns; Loc. = LAB_8_D1; REG Node = 'step_clk'
  Info: 2: + IC(0.916 ns) + CELL(2.651 ns) = 3.761 ns; Loc. = Unassigned; PIN Node = 'UMS_SCLK'
  Info: Total cell delay = 2.845 ns
  Info: Total interconnect delay = 0.916 ns
Info: Quartus II Fitter was successful. 0 errors, 0 warnings
  Info: Processing ended: Tue Sep 02 11:39:29 2003
  Info: Elapsed time: 00:02:06
Info: Writing report file UMS2.fit.rpt


