Analysis & Synthesis report for UMS2 compilation.
Tue Sep 02 11:37:21 2003
Version 3.0 Build 199 06/26/2003 SJ Full Version

Command: quartus_map --lower_priority --import_settings_files=on --export_settings_files=off UMS2 -c UMS2



---------------------
; Table of Contents ;
---------------------
   1. Legal Notice
   2. Flow Summary
   3. Flow Settings
   4. Flow Elapsed Time
   5. Analysis & Synthesis Summary
   6. Analysis & Synthesis Settings
   7. Hierarchy
   8. State Machine - UMS_STATE
   9. Gate-level Retiming
  10. Analysis & Synthesis Resource Utilization by Entity
  11. Analysis & Synthesis Equations
  12. Analysis & Synthesis Messages


----------------
; Legal Notice ;
----------------
Copyright (C) 1991-2003 Altera Corporation
Any  megafunction  design,  and related netlist (encrypted  or  decrypted),
support information,  device programming or simulation file,  and any other
associated  documentation or information  provided by  Altera  or a partner
under  Altera's   Megafunction   Partnership   Program  may  be  used  only
to program  PLD  devices (but not masked  PLD  devices) from  Altera.   Any
other  use  of such  megafunction  design,  netlist,  support  information,
device programming or simulation file,  or any other  related documentation
or information  is prohibited  for  any  other purpose,  including, but not
limited to  modification,  reverse engineering,  de-compiling, or use  with
any other  silicon devices,  unless such use is  explicitly  licensed under
a separate agreement with  Altera  or a megafunction partner.  Title to the
intellectual property,  including patents,  copyrights,  trademarks,  trade
secrets,  or maskworks,  embodied in any such megafunction design, netlist,
support  information,  device programming or simulation file,  or any other
related documentation or information provided by  Altera  or a megafunction
partner, remains with Altera, the megafunction partner, or their respective
licensors. No other licenses, including any licenses needed under any third
party's intellectual property, are provided herein.



-----------------------------------------------------------------
; Flow Summary                                                  ;
-----------------------------------------------------------------
; Flow Status           ; Successful - Tue Sep 02 11:37:21 2003 ;
; Compiler Setting Name ; UMS2                                  ;
; Top-level Entity Name ; ums2                                  ;
; Family                ; APEX20KE                              ;
; Device                ; EP20K300EQC240-2X                     ;
; Total logic elements  ; 882                                   ;
; Total pins            ; 19                                    ;
; Total memory bits     ; 0                                     ;
; Total PLLs            ; 0                                     ;
-----------------------------------------------------------------


-----------------------------------------------
; Flow Settings                               ;
-----------------------------------------------
; Option                ; Setting             ;
-----------------------------------------------
; Start date & time     ; 09/02/2003 11:37:06 ;
; Main task             ; Compilation         ;
; Compiler Setting Name ; UMS2                ;
-----------------------------------------------


---------------------------------------
; Flow Elapsed Time                   ;
---------------------------------------
; Module Name          ; Elapsed Time ;
---------------------------------------
; Analysis & Synthesis ; 00:00:16     ;
; Total                ; 00:00:16     ;
---------------------------------------


-----------------------------------------------------------------------
; Analysis & Synthesis Summary                                        ;
-----------------------------------------------------------------------
; Analysis & Synthesis Status ; Successful - Tue Sep 02 11:37:21 2003 ;
; Compiler Setting Name       ; UMS2                                  ;
; Top-level Entity Name       ; ums2                                  ;
; Family                      ; APEX20KE                              ;
; Total logic elements        ; 882                                   ;
; Total pins                  ; 19                                    ;
; Total memory bits           ; 0                                     ;
; Total PLLs                  ; 0                                     ;
-----------------------------------------------------------------------


------------------------------------------------------------
; Analysis & Synthesis Settings                            ;
------------------------------------------------------------
; Option                                        ; Setting  ;
------------------------------------------------------------
; Use Generated Physical Constraints File       ; On       ;
; Physical Synthesis Level for Resynthesis      ; Normal   ;
; Resynthesis Optimization Effort               ; Normal   ;
; Type of Retiming Performed During Resynthesis ; Full     ;
; Perform gate-level register retiming          ; On       ;
; Perform WYSIWYG primitive resynthesis         ; On       ;
; Focus entity name                             ; |UMS2    ;
; Family name                                   ; APEX20KE ;
; Preserve fewer node names                     ; On       ;
; Disk space/compilation speed tradeoff         ; Normal   ;
------------------------------------------------------------


--------------
; Hierarchy  ;
--------------
Hierarchy
  ums2
    lpm_counter:CMD_CNT_rtl_33
      alt_synch_counter:wysi_counter
    lpm_counter:init_delay_cnt_rtl_32
      alt_synch_counter:wysi_counter
    lpm_counter:iUMS_CNT_rtl_29
      alt_synch_counter:wysi_counter
    lpm_counter:ns250_cnt_rtl_31
      alt_synch_counter:wysi_counter
    lpm_compare:PCT10_CMP
      altshift:aeb_ext_lat_ffs
      altshift:agb_ext_lat_ffs
      comptree:comparator
        cmpchain:cmp_end
    lpm_compare:PCT25_CMP
      altshift:aeb_ext_lat_ffs
      altshift:agb_ext_lat_ffs
      comptree:comparator
        cmpchain:cmp_end
    lpm_compare:PCT75_CMP
      altshift:aeb_ext_lat_ffs
      altshift:agb_ext_lat_ffs
      comptree:comparator
        cmpchain:cmp_end
    lpm_compare:PCT90_CMP
      altshift:aeb_ext_lat_ffs
      altshift:agb_ext_lat_ffs
      comptree:comparator
        cmpchain:cmp_end
    lpm_compare:PCT100_CMP
      altshift:aeb_ext_lat_ffs
      altshift:agb_ext_lat_ffs
      comptree:comparator
        cmpchain:cmp_end
    lpm_compare:PCT110_CMP
      altshift:aeb_ext_lat_ffs
      altshift:agb_ext_lat_ffs
      comptree:comparator
        cmpchain:cmp_end
    lpm_compare:PCTMAX_CMP
      altshift:aeb_ext_lat_ffs
      altshift:agb_ext_lat_ffs
      comptree:comparator
        cmpchain:cmp_end
    lpm_counter:step_cnt_rtl_30
      alt_synch_counter:wysi_counter


------------------------------------------------------------------------------------------------------------------------------------------------------------------------------------------------------------------------------------------------------------
; State Machine - UMS_STATE                                                                                                                                                                                                                                ;
------------------------------------------------------------------------------------------------------------------------------------------------------------------------------------------------------------------------------------------------------------
; Name                      ; UMS_STATE~22 ; UMS_STATE~21 ; UMS_STATE~20 ; UMS_STATE~19 ; UMS_STATE~18 ; UMS_STATE~17 ; UMS_STATE~16 ; UMS_STATE~15 ; UMS_STATE~14 ; UMS_STATE~13 ; UMS_STATE~12 ; UMS_STATE~11 ; UMS_STATE~10 ; UMS_STATE~9 ; UMS_STATE~8 ;
------------------------------------------------------------------------------------------------------------------------------------------------------------------------------------------------------------------------------------------------------------
; UMS_STATE.st_init         ; 0            ; 0            ; 0            ; 0            ; 0            ; 0            ; 0            ; 0            ; 0            ; 0            ; 0            ; 0            ; 0            ; 0           ; 0           ;
; UMS_STATE.st_error        ; 0            ; 0            ; 0            ; 0            ; 0            ; 0            ; 0            ; 0            ; 0            ; 0            ; 0            ; 0            ; 0            ; 1           ; 1           ;
; UMS_STATE.st_stopped      ; 0            ; 0            ; 0            ; 0            ; 0            ; 0            ; 0            ; 0            ; 0            ; 0            ; 0            ; 0            ; 1            ; 0           ; 1           ;
; UMS_STATE.st_analyze      ; 0            ; 0            ; 0            ; 0            ; 0            ; 0            ; 0            ; 0            ; 0            ; 0            ; 0            ; 1            ; 0            ; 0           ; 1           ;
; UMS_STATE.st_retract      ; 0            ; 0            ; 0            ; 0            ; 0            ; 0            ; 0            ; 0            ; 0            ; 0            ; 1            ; 0            ; 0            ; 0           ; 1           ;
; UMS_STATE.st_sem          ; 0            ; 0            ; 0            ; 0            ; 0            ; 0            ; 0            ; 0            ; 0            ; 1            ; 0            ; 0            ; 0            ; 0           ; 1           ;
; UMS_STATE.st_wd           ; 0            ; 0            ; 0            ; 0            ; 0            ; 0            ; 0            ; 0            ; 1            ; 0            ; 0            ; 0            ; 0            ; 0           ; 1           ;
; UMS_STATE.st_move_analyze ; 0            ; 0            ; 0            ; 0            ; 0            ; 0            ; 0            ; 1            ; 0            ; 0            ; 0            ; 0            ; 0            ; 0           ; 1           ;
; UMS_STATE.st_move_retract ; 0            ; 0            ; 0            ; 0            ; 0            ; 0            ; 1            ; 0            ; 0            ; 0            ; 0            ; 0            ; 0            ; 0           ; 1           ;
; UMS_STATE.st_move_sem_in  ; 0            ; 0            ; 0            ; 0            ; 0            ; 1            ; 0            ; 0            ; 0            ; 0            ; 0            ; 0            ; 0            ; 0           ; 1           ;
; UMS_STATE.st_move_sem_out ; 0            ; 0            ; 0            ; 0            ; 1            ; 0            ; 0            ; 0            ; 0            ; 0            ; 0            ; 0            ; 0            ; 0           ; 1           ;
; UMS_STATE.st_move_wd      ; 0            ; 0            ; 0            ; 1            ; 0            ; 0            ; 0            ; 0            ; 0            ; 0            ; 0            ; 0            ; 0            ; 0           ; 1           ;
; UMS_STATE.st_move_error   ; 0            ; 0            ; 1            ; 0            ; 0            ; 0            ; 0            ; 0            ; 0            ; 0            ; 0            ; 0            ; 0            ; 0           ; 1           ;
; UMS_STATE.st_no_power     ; 0            ; 1            ; 0            ; 0            ; 0            ; 0            ; 0            ; 0            ; 0            ; 0            ; 0            ; 0            ; 0            ; 0           ; 1           ;
; UMS_STATE.st_hs           ; 1            ; 0            ; 0            ; 0            ; 0            ; 0            ; 0            ; 0            ; 0            ; 0            ; 0            ; 0            ; 0            ; 0           ; 1           ;
------------------------------------------------------------------------------------------------------------------------------------------------------------------------------------------------------------------------------------------------------------


------------------------------------------------
; Gate-level Retiming                          ;
------------------------------------------------
; Register Name ; Clock Name ; Created/Deleted ;
------------------------------------------------
; UMS_STATE~11  ; clk20      ; Deleted         ;
; UMS_STATE~15  ; clk20      ; Deleted         ;
; UMS_STATE~17  ; clk20      ; Deleted         ;
; UMS_STATE~16  ; clk20      ; Deleted         ;
; UMS_STATE~18  ; clk20      ; Deleted         ;
; UMS_STATE~19  ; clk20      ; Deleted         ;
; UMS_STATE~20  ; clk20      ; Deleted         ;
; UMS_STATE~12  ; clk20      ; Deleted         ;
; UMS_STATE~13  ; clk20      ; Deleted         ;
; UMS_STATE~9   ; clk20      ; Deleted         ;
; UMS_STATE~518 ; clk20      ; Created         ;
; UMS_STATE~521 ; clk20      ; Created         ;
; UMS_STATE~525 ; clk20      ; Created         ;
; UMS_STATE~527 ; clk20      ; Created         ;
; UMS_STATE~528 ; clk20      ; Created         ;
; UMS_STATE~531 ; clk20      ; Created         ;
; UMS_STATE~533 ; clk20      ; Created         ;
; UMS_STATE~535 ; clk20      ; Created         ;
; UMS_STATE~537 ; clk20      ; Created         ;
; UMS_STATE~539 ; clk20      ; Created         ;
; UMS_STATE~541 ; clk20      ; Created         ;
; UMS_STATE~542 ; clk20      ; Created         ;
; UMS_STATE~544 ; clk20      ; Created         ;
; UMS_STATE~547 ; clk20      ; Created         ;
; UMS_STATE~549 ; clk20      ; Created         ;
; UMS_STATE~550 ; clk20      ; Created         ;
; UMS_STATE~553 ; clk20      ; Created         ;
; UMS_STATE~554 ; clk20      ; Created         ;
; UMS_STATE~556 ; clk20      ; Created         ;
; UMS_STATE~558 ; clk20      ; Created         ;
; UMS_STATE~560 ; clk20      ; Created         ;
; UMS_STATE~562 ; clk20      ; Created         ;
; UMS_STATE~565 ; clk20      ; Created         ;
; UMS_STATE~568 ; clk20      ; Created         ;
; UMS_STATE~571 ; clk20      ; Created         ;
; UMS_STATE~573 ; clk20      ; Created         ;
; UMS_STATE~575 ; clk20      ; Created         ;
; UMS_STATE~579 ; clk20      ; Created         ;
; UMS_STATE~580 ; clk20      ; Created         ;
; UMS_STATE~581 ; clk20      ; Created         ;
; UMS_STATE~582 ; clk20      ; Created         ;
; UMS_STATE~583 ; clk20      ; Created         ;
------------------------------------------------


---------------------------------------------------------------------------------------------------------------------------------------------------------------------------------------------------------------------------------------
; Analysis & Synthesis Resource Utilization by Entity                                                                                                                                                                                 ;
---------------------------------------------------------------------------------------------------------------------------------------------------------------------------------------------------------------------------------------
; Compilation Hierarchy Node             ; Logic Cells ; Registers ; Memory Bits ; Pins ; Virtual Pins ; LUT-Only LCs ; Register-Only LCs ; LUT/Register LCs ; Full Hierarchy Name                                                    ;
---------------------------------------------------------------------------------------------------------------------------------------------------------------------------------------------------------------------------------------
; |ums2                                  ; 578 (256)   ; 156       ; 0           ; 19   ; 304          ; 422 (198)    ; 14 (14)           ; 142 (44)         ; |ums2                                                                  ;
;    |lpm_compare:PCT100_CMP|            ; 32 (0)      ; 0         ; 0           ; 0    ; 0            ; 32 (0)       ; 0 (0)             ; 0 (0)            ; |ums2|lpm_compare:PCT100_CMP                                           ;
;       |comptree:comparator|            ; 32 (0)      ; 0         ; 0           ; 0    ; 0            ; 32 (0)       ; 0 (0)             ; 0 (0)            ; |ums2|lpm_compare:PCT100_CMP|comptree:comparator                       ;
;          |cmpchain:cmp_end|            ; 32 (32)     ; 0         ; 0           ; 0    ; 0            ; 32 (32)      ; 0 (0)             ; 0 (0)            ; |ums2|lpm_compare:PCT100_CMP|comptree:comparator|cmpchain:cmp_end      ;
;    |lpm_compare:PCT10_CMP|             ; 32 (0)      ; 0         ; 0           ; 0    ; 0            ; 32 (0)       ; 0 (0)             ; 0 (0)            ; |ums2|lpm_compare:PCT10_CMP                                            ;
;       |comptree:comparator|            ; 32 (0)      ; 0         ; 0           ; 0    ; 0            ; 32 (0)       ; 0 (0)             ; 0 (0)            ; |ums2|lpm_compare:PCT10_CMP|comptree:comparator                        ;
;          |cmpchain:cmp_end|            ; 32 (32)     ; 0         ; 0           ; 0    ; 0            ; 32 (32)      ; 0 (0)             ; 0 (0)            ; |ums2|lpm_compare:PCT10_CMP|comptree:comparator|cmpchain:cmp_end       ;
;    |lpm_compare:PCT110_CMP|            ; 32 (0)      ; 0         ; 0           ; 0    ; 0            ; 32 (0)       ; 0 (0)             ; 0 (0)            ; |ums2|lpm_compare:PCT110_CMP                                           ;
;       |comptree:comparator|            ; 32 (0)      ; 0         ; 0           ; 0    ; 0            ; 32 (0)       ; 0 (0)             ; 0 (0)            ; |ums2|lpm_compare:PCT110_CMP|comptree:comparator                       ;
;          |cmpchain:cmp_end|            ; 32 (32)     ; 0         ; 0           ; 0    ; 0            ; 32 (32)      ; 0 (0)             ; 0 (0)            ; |ums2|lpm_compare:PCT110_CMP|comptree:comparator|cmpchain:cmp_end      ;
;    |lpm_compare:PCT25_CMP|             ; 32 (0)      ; 0         ; 0           ; 0    ; 0            ; 32 (0)       ; 0 (0)             ; 0 (0)            ; |ums2|lpm_compare:PCT25_CMP                                            ;
;       |comptree:comparator|            ; 32 (0)      ; 0         ; 0           ; 0    ; 0            ; 32 (0)       ; 0 (0)             ; 0 (0)            ; |ums2|lpm_compare:PCT25_CMP|comptree:comparator                        ;
;          |cmpchain:cmp_end|            ; 32 (32)     ; 0         ; 0           ; 0    ; 0            ; 32 (32)      ; 0 (0)             ; 0 (0)            ; |ums2|lpm_compare:PCT25_CMP|comptree:comparator|cmpchain:cmp_end       ;
;    |lpm_compare:PCT75_CMP|             ; 32 (0)      ; 0         ; 0           ; 0    ; 0            ; 32 (0)       ; 0 (0)             ; 0 (0)            ; |ums2|lpm_compare:PCT75_CMP                                            ;
;       |comptree:comparator|            ; 32 (0)      ; 0         ; 0           ; 0    ; 0            ; 32 (0)       ; 0 (0)             ; 0 (0)            ; |ums2|lpm_compare:PCT75_CMP|comptree:comparator                        ;
;          |cmpchain:cmp_end|            ; 32 (32)     ; 0         ; 0           ; 0    ; 0            ; 32 (32)      ; 0 (0)             ; 0 (0)            ; |ums2|lpm_compare:PCT75_CMP|comptree:comparator|cmpchain:cmp_end       ;
;    |lpm_compare:PCT90_CMP|             ; 32 (0)      ; 0         ; 0           ; 0    ; 0            ; 32 (0)       ; 0 (0)             ; 0 (0)            ; |ums2|lpm_compare:PCT90_CMP                                            ;
;       |comptree:comparator|            ; 32 (0)      ; 0         ; 0           ; 0    ; 0            ; 32 (0)       ; 0 (0)             ; 0 (0)            ; |ums2|lpm_compare:PCT90_CMP|comptree:comparator                        ;
;          |cmpchain:cmp_end|            ; 32 (32)     ; 0         ; 0           ; 0    ; 0            ; 32 (32)      ; 0 (0)             ; 0 (0)            ; |ums2|lpm_compare:PCT90_CMP|comptree:comparator|cmpchain:cmp_end       ;
;    |lpm_compare:PCTMAX_CMP|            ; 32 (0)      ; 0         ; 0           ; 0    ; 0            ; 32 (0)       ; 0 (0)             ; 0 (0)            ; |ums2|lpm_compare:PCTMAX_CMP                                           ;
;       |comptree:comparator|            ; 32 (0)      ; 0         ; 0           ; 0    ; 0            ; 32 (0)       ; 0 (0)             ; 0 (0)            ; |ums2|lpm_compare:PCTMAX_CMP|comptree:comparator                       ;
;          |cmpchain:cmp_end|            ; 32 (32)     ; 0         ; 0           ; 0    ; 0            ; 32 (32)      ; 0 (0)             ; 0 (0)            ; |ums2|lpm_compare:PCTMAX_CMP|comptree:comparator|cmpchain:cmp_end      ;
;    |lpm_counter:CMD_CNT_rtl_33|        ; 32 (0)      ; 32        ; 0           ; 0    ; 0            ; 0 (0)        ; 0 (0)             ; 32 (0)           ; |ums2|lpm_counter:CMD_CNT_rtl_33                                       ;
;       |alt_synch_counter:wysi_counter| ; 32 (32)     ; 32        ; 0           ; 0    ; 0            ; 0 (0)        ; 0 (0)             ; 32 (32)          ; |ums2|lpm_counter:CMD_CNT_rtl_33|alt_synch_counter:wysi_counter        ;
;    |lpm_counter:iUMS_CNT_rtl_29|       ; 32 (0)      ; 32        ; 0           ; 0    ; 0            ; 0 (0)        ; 0 (0)             ; 32 (0)           ; |ums2|lpm_counter:iUMS_CNT_rtl_29                                      ;
;       |alt_synch_counter:wysi_counter| ; 32 (32)     ; 32        ; 0           ; 0    ; 0            ; 0 (0)        ; 0 (0)             ; 32 (32)          ; |ums2|lpm_counter:iUMS_CNT_rtl_29|alt_synch_counter:wysi_counter       ;
;    |lpm_counter:init_delay_cnt_rtl_32| ; 15 (0)      ; 15        ; 0           ; 0    ; 0            ; 0 (0)        ; 0 (0)             ; 15 (0)           ; |ums2|lpm_counter:init_delay_cnt_rtl_32                                ;
;       |alt_synch_counter:wysi_counter| ; 15 (15)     ; 15        ; 0           ; 0    ; 0            ; 0 (0)        ; 0 (0)             ; 15 (15)          ; |ums2|lpm_counter:init_delay_cnt_rtl_32|alt_synch_counter:wysi_counter ;
;    |lpm_counter:ns250_cnt_rtl_31|      ; 3 (0)       ; 3         ; 0           ; 0    ; 0            ; 0 (0)        ; 0 (0)             ; 3 (0)            ; |ums2|lpm_counter:ns250_cnt_rtl_31                                     ;
;       |alt_synch_counter:wysi_counter| ; 3 (3)       ; 3         ; 0           ; 0    ; 0            ; 0 (0)        ; 0 (0)             ; 3 (3)            ; |ums2|lpm_counter:ns250_cnt_rtl_31|alt_synch_counter:wysi_counter      ;
;    |lpm_counter:step_cnt_rtl_30|       ; 16 (0)      ; 16        ; 0           ; 0    ; 0            ; 0 (0)        ; 0 (0)             ; 16 (0)           ; |ums2|lpm_counter:step_cnt_rtl_30                                      ;
;       |alt_synch_counter:wysi_counter| ; 16 (16)     ; 16        ; 0           ; 0    ; 0            ; 0 (0)        ; 0 (0)             ; 16 (16)          ; |ums2|lpm_counter:step_cnt_rtl_30|alt_synch_counter:wysi_counter       ;
---------------------------------------------------------------------------------------------------------------------------------------------------------------------------------------------------------------------------------------


-----------------------------------
; Analysis & Synthesis Equations  ;
-----------------------------------
The equations can be found in f:\p19700-1\software\ep99840\rtemctrl\ums\UMS2.map.eqn.


----------------------------------
; Analysis & Synthesis Messages  ;
----------------------------------
Info: *******************************************************************
Info: Running Quartus II Analysis & Synthesis
  Info: Version 3.0 Build 199 06/26/2003 SJ Full Version
  Info: Processing started: Tue Sep 02 11:37:05 2003
Info: Command: quartus_map --lower_priority --import_settings_files=on --export_settings_files=off UMS2 -c UMS2
Info: Found 2 design units and 1 entities in source file f:\p19700-1\software\ep99840\rtemctrl\ums\UMS2.vhd
  Info: Found design unit 1: ums2-behavioral
  Info: Found entity 1: ums2
Info: Found 1 design units and 1 entities in source file c:\altera\quartus2-3\libraries\megafunctions\lpm_compare.tdf
  Info: Found entity 1: lpm_compare
Info: Found 1 design units and 1 entities in source file c:\altera\quartus2-3\libraries\megafunctions\comptree.tdf
  Info: Found entity 1: comptree
Info: Found 1 design units and 1 entities in source file c:\altera\quartus2-3\libraries\megafunctions\cmpchain.tdf
  Info: Found entity 1: cmpchain
Info: Found 1 design units and 1 entities in source file c:\altera\quartus2-3\libraries\megafunctions\altshift.tdf
  Info: Found entity 1: altshift
Info: Inferred 5 megafunctions from design logic
  Info: Inferred lpm_counter megafunction (LPM_WIDTH=32) from the following logic: iUMS_CNT_rtl_29
  Info: Inferred lpm_counter megafunction (LPM_WIDTH=16) from the following logic: step_cnt_rtl_30
  Info: Inferred lpm_counter megafunction (LPM_WIDTH=3) from the following logic: ns250_cnt_rtl_31
  Info: Inferred lpm_counter megafunction (LPM_WIDTH=15) from the following logic: init_delay_cnt_rtl_32
  Info: Inferred lpm_counter megafunction (LPM_WIDTH=32) from the following logic: CMD_CNT_rtl_33
Info: Found 1 design units and 1 entities in source file c:\altera\quartus2-3\libraries\megafunctions\lpm_counter.tdf
  Info: Found entity 1: lpm_counter
Info: Found 1 design units and 1 entities in source file c:\altera\quartus2-3\libraries\megafunctions\alt_synch_counter.tdf
  Info: Found entity 1: alt_synch_counter
Info: State machine |ums2|UMS_STATE contains 15 states and 0 state bits
Info: Selected Auto state machine encoding method for state machine |ums2|UMS_STATE
Info: Encoding result for state machine |ums2|UMS_STATE
  Info: Completed encoding using 15 state bits
    Info: Encoded state bit UMS_STATE~22
    Info: Encoded state bit UMS_STATE~21
    Info: Encoded state bit UMS_STATE~20
    Info: Encoded state bit UMS_STATE~19
    Info: Encoded state bit UMS_STATE~18
    Info: Encoded state bit UMS_STATE~17
    Info: Encoded state bit UMS_STATE~16
    Info: Encoded state bit UMS_STATE~15
    Info: Encoded state bit UMS_STATE~14
    Info: Encoded state bit UMS_STATE~13
    Info: Encoded state bit UMS_STATE~12
    Info: Encoded state bit UMS_STATE~11
    Info: Encoded state bit UMS_STATE~10
    Info: Encoded state bit UMS_STATE~9
    Info: Encoded state bit UMS_STATE~8
  Info: State |ums2|UMS_STATE.st_init uses code string 000000000000000
  Info: State |ums2|UMS_STATE.st_error uses code string 000000000000011
  Info: State |ums2|UMS_STATE.st_stopped uses code string 000000000000101
  Info: State |ums2|UMS_STATE.st_analyze uses code string 000000000001001
  Info: State |ums2|UMS_STATE.st_retract uses code string 000000000010001
  Info: State |ums2|UMS_STATE.st_sem uses code string 000000000100001
  Info: State |ums2|UMS_STATE.st_wd uses code string 000000001000001
  Info: State |ums2|UMS_STATE.st_move_analyze uses code string 000000010000001
  Info: State |ums2|UMS_STATE.st_move_retract uses code string 000000100000001
  Info: State |ums2|UMS_STATE.st_move_sem_in uses code string 000001000000001
  Info: State |ums2|UMS_STATE.st_move_sem_out uses code string 000010000000001
  Info: State |ums2|UMS_STATE.st_move_wd uses code string 000100000000001
  Info: State |ums2|UMS_STATE.st_move_error uses code string 001000000000001
  Info: State |ums2|UMS_STATE.st_no_power uses code string 010000000000001
  Info: State |ums2|UMS_STATE.st_hs uses code string 100000000000001
Info: Resynthesizing 0 WYSIWYG logic cells and I/Os using speed technology mapper which leaves 130 WYSIWYG logic cells and I/Os untouched
Warning: Reduced register UMS_STATE~14 with stuck data_in port to stuck value GND
Info: Performing gate-level register retiming
Info: Not allowed to move registers -- 9 registers affected
  Info: Not allowed to move 3 registers because they are directly fed by input pins
  Info: Not allowed to move 6 registers because they feed output pins directly
Info: Quartus II software applied gate-level register retiming to 1 clock domains
  Info: Quartus II software applied gate-level register retiming to clock clk20: created 32 new registers, removed 10 registers, left 26 registers untouched
Info: Converted 217 single input CARRY primitives to CARRY_SUM primitives
Info: Implemented 901 device resources after synthesis - the final resource count might be different
  Info: Implemented 285 input pins
  Info: Implemented 38 output pins
  Info: Implemented 578 logic cells
Info: Design contains 304 virtual pins
  Info: Pin Low_Speed[1] is virtual input pin
  Info: Pin Med_Speed[1] is virtual input pin
  Info: Pin Hi_Speed[1] is virtual input pin
  Info: Pin Low_Speed[9] is virtual input pin
  Info: Pin Med_Speed[9] is virtual input pin
  Info: Pin Hi_Speed[9] is virtual input pin
  Info: Pin Low_Speed[8] is virtual input pin
  Info: Pin Med_Speed[8] is virtual input pin
  Info: Pin Hi_Speed[8] is virtual input pin
  Info: Pin Low_Speed[4] is virtual input pin
  Info: Pin Low_Speed[2] is virtual input pin
  Info: Pin Med_Speed[2] is virtual input pin
  Info: Pin Hi_Speed[2] is virtual input pin
  Info: Pin Low_Speed[0] is virtual input pin
  Info: Pin Med_Speed[0] is virtual input pin
  Info: Pin Hi_Speed[0] is virtual input pin
  Info: Pin Low_Speed[11] is virtual input pin
  Info: Pin Med_Speed[11] is virtual input pin
  Info: Pin Hi_Speed[11] is virtual input pin
  Info: Pin Low_Speed[10] is virtual input pin
  Info: Pin Med_Speed[10] is virtual input pin
  Info: Pin Hi_Speed[10] is virtual input pin
  Info: Pin Low_Speed[12] is virtual input pin
  Info: Pin Med_Speed[12] is virtual input pin
  Info: Pin Hi_Speed[12] is virtual input pin
  Info: Pin Low_Speed[5] is virtual input pin
  Info: Pin Med_Speed[5] is virtual input pin
  Info: Pin Hi_Speed[5] is virtual input pin
  Info: Pin Low_Speed[3] is virtual input pin
  Info: Pin Med_Speed[3] is virtual input pin
  Info: Pin Hi_Speed[3] is virtual input pin
  Info: Pin Low_Speed[15] is virtual input pin
  Info: Pin Med_Speed[15] is virtual input pin
  Info: Pin Hi_Speed[15] is virtual input pin
  Info: Pin Low_Speed[13] is virtual input pin
  Info: Pin Med_Speed[13] is virtual input pin
  Info: Pin Hi_Speed[13] is virtual input pin
  Info: Pin Low_Speed[7] is virtual input pin
  Info: Pin Med_Speed[7] is virtual input pin
  Info: Pin Hi_Speed[7] is virtual input pin
  Info: Pin Low_Speed[14] is virtual input pin
  Info: Pin Med_Speed[14] is virtual input pin
  Info: Pin Hi_Speed[14] is virtual input pin
  Info: Pin Low_Speed[6] is virtual input pin
  Info: Pin Med_Speed[6] is virtual input pin
  Info: Pin Hi_Speed[6] is virtual input pin
  Info: Pin CNT_90[31] is virtual input pin
  Info: Pin CNT_75[31] is virtual input pin
  Info: Pin CNT_25[31] is virtual input pin
  Info: Pin CNT_10[31] is virtual input pin
  Info: Pin CNT_100[31] is virtual input pin
  Info: Pin CNT_90[30] is virtual input pin
  Info: Pin CNT_75[30] is virtual input pin
  Info: Pin CNT_25[30] is virtual input pin
  Info: Pin CNT_10[30] is virtual input pin
  Info: Pin Med_Speed[4] is virtual input pin
  Info: Pin Hi_Speed[4] is virtual input pin
  Info: Pin CNT_MAX[31] is virtual input pin
  Info: Pin CNT_110[31] is virtual input pin
  Info: Pin CNT_100[30] is virtual input pin
  Info: Pin CNT_90[29] is virtual input pin
  Info: Pin CNT_75[29] is virtual input pin
  Info: Pin CNT_25[29] is virtual input pin
  Info: Pin CNT_10[29] is virtual input pin
  Info: Pin CNT_MAX[30] is virtual input pin
  Info: Pin CNT_110[30] is virtual input pin
  Info: Pin CNT_100[29] is virtual input pin
  Info: Pin CNT_90[28] is virtual input pin
  Info: Pin CNT_75[28] is virtual input pin
  Info: Pin CNT_25[28] is virtual input pin
  Info: Pin CNT_10[28] is virtual input pin
  Info: Pin CNT_MAX[29] is virtual input pin
  Info: Pin CNT_110[29] is virtual input pin
  Info: Pin CNT_100[28] is virtual input pin
  Info: Pin CNT_90[27] is virtual input pin
  Info: Pin CNT_75[27] is virtual input pin
  Info: Pin CNT_25[27] is virtual input pin
  Info: Pin CNT_10[27] is virtual input pin
  Info: Pin CNT_MAX[28] is virtual input pin
  Info: Pin CNT_110[28] is virtual input pin
  Info: Pin CNT_100[27] is virtual input pin
  Info: Pin CNT_90[26] is virtual input pin
  Info: Pin CNT_75[26] is virtual input pin
  Info: Pin CNT_25[26] is virtual input pin
  Info: Pin CNT_10[26] is virtual input pin
  Info: Pin CNT_MAX[27] is virtual input pin
  Info: Pin CNT_110[27] is virtual input pin
  Info: Pin CNT_100[26] is virtual input pin
  Info: Pin CNT_90[25] is virtual input pin
  Info: Pin CNT_75[25] is virtual input pin
  Info: Pin CNT_25[25] is virtual input pin
  Info: Pin CNT_10[25] is virtual input pin
  Info: Pin CNT_MAX[26] is virtual input pin
  Info: Pin CNT_110[26] is virtual input pin
  Info: Pin CNT_100[25] is virtual input pin
  Info: Pin CNT_90[24] is virtual input pin
  Info: Pin CNT_75[24] is virtual input pin
  Info: Pin CNT_25[24] is virtual input pin
  Info: Pin CNT_10[24] is virtual input pin
  Info: Pin CNT_MAX[25] is virtual input pin
  Info: Pin CNT_110[25] is virtual input pin
  Info: Pin CNT_100[24] is virtual input pin
  Info: Pin CNT_90[23] is virtual input pin
  Info: Pin CNT_75[23] is virtual input pin
  Info: Pin CNT_25[23] is virtual input pin
  Info: Pin CNT_10[23] is virtual input pin
  Info: Pin CNT_MAX[24] is virtual input pin
  Info: Pin CNT_110[24] is virtual input pin
  Info: Pin CNT_100[23] is virtual input pin
  Info: Pin CNT_90[22] is virtual input pin
  Info: Pin CNT_75[22] is virtual input pin
  Info: Pin CNT_25[22] is virtual input pin
  Info: Pin CNT_10[22] is virtual input pin
  Info: Pin CNT_MAX[23] is virtual input pin
  Info: Pin CNT_110[23] is virtual input pin
  Info: Pin CNT_100[22] is virtual input pin
  Info: Pin CNT_90[21] is virtual input pin
  Info: Pin CNT_75[21] is virtual input pin
  Info: Pin CNT_25[21] is virtual input pin
  Info: Pin CNT_10[21] is virtual input pin
  Info: Pin CNT_MAX[22] is virtual input pin
  Info: Pin CNT_110[22] is virtual input pin
  Info: Pin CNT_100[21] is virtual input pin
  Info: Pin CNT_90[20] is virtual input pin
  Info: Pin CNT_75[20] is virtual input pin
  Info: Pin CNT_25[20] is virtual input pin
  Info: Pin CNT_10[20] is virtual input pin
  Info: Pin CNT_MAX[21] is virtual input pin
  Info: Pin CNT_110[21] is virtual input pin
  Info: Pin CNT_100[20] is virtual input pin
  Info: Pin CNT_90[19] is virtual input pin
  Info: Pin CNT_75[19] is virtual input pin
  Info: Pin CNT_25[19] is virtual input pin
  Info: Pin CNT_10[19] is virtual input pin
  Info: Pin CNT_MAX[20] is virtual input pin
  Info: Pin CNT_110[20] is virtual input pin
  Info: Pin CNT_100[19] is virtual input pin
  Info: Pin CNT_90[18] is virtual input pin
  Info: Pin CNT_75[18] is virtual input pin
  Info: Pin CNT_25[18] is virtual input pin
  Info: Pin CNT_10[18] is virtual input pin
  Info: Pin CNT_MAX[19] is virtual input pin
  Info: Pin CNT_110[19] is virtual input pin
  Info: Pin CNT_100[18] is virtual input pin
  Info: Pin CNT_90[17] is virtual input pin
  Info: Pin CNT_75[17] is virtual input pin
  Info: Pin CNT_25[17] is virtual input pin
  Info: Pin CNT_10[17] is virtual input pin
  Info: Pin CNT_MAX[18] is virtual input pin
  Info: Pin CNT_110[18] is virtual input pin
  Info: Pin CNT_100[17] is virtual input pin
  Info: Pin CNT_90[16] is virtual input pin
  Info: Pin CNT_75[16] is virtual input pin
  Info: Pin CNT_25[16] is virtual input pin
  Info: Pin CNT_10[16] is virtual input pin
  Info: Pin CNT_MAX[17] is virtual input pin
  Info: Pin CNT_110[17] is virtual input pin
  Info: Pin CNT_100[16] is virtual input pin
  Info: Pin CNT_90[15] is virtual input pin
  Info: Pin CNT_75[15] is virtual input pin
  Info: Pin CNT_25[15] is virtual input pin
  Info: Pin CNT_10[15] is virtual input pin
  Info: Pin CNT_MAX[16] is virtual input pin
  Info: Pin CNT_110[16] is virtual input pin
  Info: Pin CNT_100[15] is virtual input pin
  Info: Pin CNT_90[14] is virtual input pin
  Info: Pin CNT_75[14] is virtual input pin
  Info: Pin CNT_25[14] is virtual input pin
  Info: Pin CNT_10[14] is virtual input pin
  Info: Pin CNT_MAX[15] is virtual input pin
  Info: Pin CNT_110[15] is virtual input pin
  Info: Pin CNT_100[14] is virtual input pin
  Info: Pin CNT_90[13] is virtual input pin
  Info: Pin CNT_75[13] is virtual input pin
  Info: Pin CNT_25[13] is virtual input pin
  Info: Pin CNT_10[13] is virtual input pin
  Info: Pin CNT_MAX[14] is virtual input pin
  Info: Pin CNT_110[14] is virtual input pin
  Info: Pin CNT_100[13] is virtual input pin
  Info: Pin CNT_90[12] is virtual input pin
  Info: Pin CNT_75[12] is virtual input pin
  Info: Pin CNT_25[12] is virtual input pin
  Info: Pin CNT_10[12] is virtual input pin
  Info: Pin CNT_MAX[13] is virtual input pin
  Info: Pin CNT_110[13] is virtual input pin
  Info: Pin CNT_100[12] is virtual input pin
  Info: Pin CNT_90[11] is virtual input pin
  Info: Pin CNT_75[11] is virtual input pin
  Info: Pin CNT_25[11] is virtual input pin
  Info: Pin CNT_10[11] is virtual input pin
  Info: Pin CNT_MAX[12] is virtual input pin
  Info: Pin CNT_110[12] is virtual input pin
  Info: Pin CNT_100[11] is virtual input pin
  Info: Pin CNT_90[10] is virtual input pin
  Info: Pin CNT_75[10] is virtual input pin
  Info: Pin CNT_25[10] is virtual input pin
  Info: Pin CNT_10[10] is virtual input pin
  Info: Pin CNT_MAX[11] is virtual input pin
  Info: Pin CNT_110[11] is virtual input pin
  Info: Pin CNT_100[10] is virtual input pin
  Info: Pin CNT_90[9] is virtual input pin
  Info: Pin CNT_75[9] is virtual input pin
  Info: Pin CNT_25[9] is virtual input pin
  Info: Pin CNT_10[9] is virtual input pin
  Info: Pin CNT_MAX[10] is virtual input pin
  Info: Pin CNT_110[10] is virtual input pin
  Info: Pin CNT_100[9] is virtual input pin
  Info: Pin CNT_90[8] is virtual input pin
  Info: Pin CNT_75[8] is virtual input pin
  Info: Pin CNT_25[8] is virtual input pin
  Info: Pin CNT_10[8] is virtual input pin
  Info: Pin CNT_MAX[9] is virtual input pin
  Info: Pin CNT_110[9] is virtual input pin
  Info: Pin CNT_100[8] is virtual input pin
  Info: Pin CNT_90[7] is virtual input pin
  Info: Pin CNT_75[7] is virtual input pin
  Info: Pin CNT_25[7] is virtual input pin
  Info: Pin CNT_10[7] is virtual input pin
  Info: Pin CNT_MAX[8] is virtual input pin
  Info: Pin CNT_110[8] is virtual input pin
  Info: Pin CNT_100[7] is virtual input pin
  Info: Pin CNT_90[6] is virtual input pin
  Info: Pin CNT_75[6] is virtual input pin
  Info: Pin CNT_25[6] is virtual input pin
  Info: Pin CNT_10[6] is virtual input pin
  Info: Pin CNT_MAX[7] is virtual input pin
  Info: Pin CNT_110[7] is virtual input pin
  Info: Pin CNT_100[6] is virtual input pin
  Info: Pin CNT_90[5] is virtual input pin
  Info: Pin CNT_75[5] is virtual input pin
  Info: Pin CNT_25[5] is virtual input pin
  Info: Pin CNT_10[5] is virtual input pin
  Info: Pin CNT_MAX[6] is virtual input pin
  Info: Pin CNT_110[6] is virtual input pin
  Info: Pin CNT_100[5] is virtual input pin
  Info: Pin CNT_90[4] is virtual input pin
  Info: Pin CNT_75[4] is virtual input pin
  Info: Pin CNT_25[4] is virtual input pin
  Info: Pin CNT_10[4] is virtual input pin
  Info: Pin CNT_MAX[5] is virtual input pin
  Info: Pin CNT_110[5] is virtual input pin
  Info: Pin CNT_100[4] is virtual input pin
  Info: Pin CNT_90[3] is virtual input pin
  Info: Pin CNT_75[3] is virtual input pin
  Info: Pin CNT_25[3] is virtual input pin
  Info: Pin CNT_10[3] is virtual input pin
  Info: Pin CNT_MAX[4] is virtual input pin
  Info: Pin CNT_110[4] is virtual input pin
  Info: Pin CNT_100[3] is virtual input pin
  Info: Pin CNT_90[2] is virtual input pin
  Info: Pin CNT_75[2] is virtual input pin
  Info: Pin CNT_25[2] is virtual input pin
  Info: Pin CNT_10[2] is virtual input pin
  Info: Pin CNT_MAX[3] is virtual input pin
  Info: Pin CNT_110[3] is virtual input pin
  Info: Pin CNT_100[2] is virtual input pin
  Info: Pin CNT_90[1] is virtual input pin
  Info: Pin CNT_75[1] is virtual input pin
  Info: Pin CNT_25[1] is virtual input pin
  Info: Pin CNT_10[1] is virtual input pin
  Info: Pin CNT_MAX[2] is virtual input pin
  Info: Pin CNT_110[2] is virtual input pin
  Info: Pin CNT_100[1] is virtual input pin
  Info: Pin CNT_90[0] is virtual input pin
  Info: Pin CNT_75[0] is virtual input pin
  Info: Pin CNT_25[0] is virtual input pin
  Info: Pin CNT_10[0] is virtual input pin
  Info: Pin CNT_MAX[1] is virtual input pin
  Info: Pin CNT_110[1] is virtual input pin
  Info: Pin CNT_100[0] is virtual input pin
  Info: Pin CNT_MAX[0] is virtual input pin
  Info: Pin CNT_110[0] is virtual input pin
  Info: Pin UMS_CNT[31] is virtual output pin
  Info: Pin UMS_CNT[30] is virtual output pin
  Info: Pin UMS_CNT[29] is virtual output pin
  Info: Pin UMS_CNT[28] is virtual output pin
  Info: Pin UMS_CNT[27] is virtual output pin
  Info: Pin UMS_CNT[26] is virtual output pin
  Info: Pin UMS_CNT[25] is virtual output pin
  Info: Pin UMS_CNT[24] is virtual output pin
  Info: Pin UMS_CNT[23] is virtual output pin
  Info: Pin UMS_CNT[22] is virtual output pin
  Info: Pin UMS_CNT[21] is virtual output pin
  Info: Pin UMS_CNT[20] is virtual output pin
  Info: Pin UMS_CNT[19] is virtual output pin
  Info: Pin UMS_CNT[18] is virtual output pin
  Info: Pin UMS_CNT[17] is virtual output pin
  Info: Pin UMS_CNT[16] is virtual output pin
  Info: Pin UMS_CNT[15] is virtual output pin
  Info: Pin UMS_CNT[14] is virtual output pin
  Info: Pin UMS_CNT[13] is virtual output pin
  Info: Pin UMS_CNT[12] is virtual output pin
  Info: Pin UMS_CNT[11] is virtual output pin
  Info: Pin UMS_CNT[10] is virtual output pin
  Info: Pin UMS_CNT[9] is virtual output pin
  Info: Pin UMS_CNT[8] is virtual output pin
  Info: Pin UMS_CNT[7] is virtual output pin
  Info: Pin UMS_CNT[6] is virtual output pin
  Info: Pin UMS_CNT[5] is virtual output pin
  Info: Pin UMS_CNT[4] is virtual output pin
  Info: Pin UMS_CNT[3] is virtual output pin
  Info: Pin UMS_CNT[2] is virtual output pin
  Info: Pin UMS_CNT[1] is virtual output pin
  Info: Pin UMS_CNT[0] is virtual output pin
Info: Virtual pin clock not found for 304 virtual pins -- used Auto clock
Info: Quartus II Analysis & Synthesis was successful. 0 errors, 1 warning
  Info: Processing ended: Tue Sep 02 11:37:21 2003
  Info: Elapsed time: 00:00:15
Info: Writing report file UMS2.map.rpt


