Flow report for dspctrl
Wed Jan 04 11:09:36 2006
Version 5.1 Build 176 10/26/2005 Service Pack 0.15 SJ Full Version


---------------------
; Table of Contents ;
---------------------
  1. Legal Notice
  2. Flow Summary
  3. Flow Settings
  4. Flow Elapsed Time
  5. Flow Log



----------------
; Legal Notice ;
----------------
Copyright (C) 1991-2005 Altera Corporation
Your use of Altera Corporation's design tools, logic functions 
and other software and tools, and its AMPP partner logic 
functions, and any output files any of the foregoing 
(including device programming or simulation files), and any 
associated documentation or information are expressly subject 
to the terms and conditions of the Altera Program License 
Subscription Agreement, Altera MegaCore Function License 
Agreement, or other applicable license agreement, including, 
without limitation, that your use is for the sole purpose of 
programming logic devices manufactured by Altera and sold by 
Altera or its authorized distributors.  Please refer to the 
applicable agreement for further details.



+----------------------------------------------------------------------------+
; Flow Summary                                                               ;
+-------------------------+--------------------------------------------------+
; Flow Status             ; Successful - Wed Jan 04 11:09:36 2006            ;
; Quartus II Version      ; 5.1 Build 176 10/26/2005 SP 0.15 SJ Full Version ;
; Revision Name           ; dspctrl                                          ;
; Top-level Entity Name   ; dspctrl                                          ;
; Family                  ; APEX20KE                                         ;
; Device                  ; EP20K30ETC144-2X                                 ;
; Timing Models           ; Final                                            ;
; Met timing requirements ; Yes                                              ;
; Total logic elements    ; 29 / 1,200 ( 2 % )                               ;
; Total pins              ; 30 / 92 ( 33 % )                                 ;
; Total virtual pins      ; 0                                                ;
; Total memory bits       ; 0 / 24,576 ( 0 % )                               ;
; Total PLLs              ; 0 / 2 ( 0 % )                                    ;
+-------------------------+--------------------------------------------------+


+-----------------------------------------+
; Flow Settings                           ;
+-------------------+---------------------+
; Option            ; Setting             ;
+-------------------+---------------------+
; Start date & time ; 01/04/2006 11:09:22 ;
; Main task         ; Compilation         ;
; Revision Name     ; dspctrl             ;
+-------------------+---------------------+


+-------------------------------------+
; Flow Elapsed Time                   ;
+----------------------+--------------+
; Module Name          ; Elapsed Time ;
+----------------------+--------------+
; Analysis & Synthesis ; 00:00:03     ;
; Fitter               ; 00:00:03     ;
; Assembler            ; 00:00:01     ;
; Timing Analyzer      ; 00:00:03     ;
; EDA Netlist Writer   ; 00:00:01     ;
; Total                ; 00:00:11     ;
+----------------------+--------------+


------------
; Flow Log ;
------------
quartus_map --read_settings_files=on --write_settings_files=off dspctrl -c dspctrl
quartus_fit --read_settings_files=off --write_settings_files=off dspctrl -c dspctrl
quartus_asm --read_settings_files=off --write_settings_files=off dspctrl -c dspctrl
quartus_tan --read_settings_files=off --write_settings_files=off dspctrl -c dspctrl
quartus_eda --read_settings_files=off --write_settings_files=off dspctrl -c dspctrl



