Analysis & Synthesis report for hotswap
Mon Mar 27 10:34:45 2006
Version 5.1 Build 216 03/06/2006 Service Pack 2 SJ Full Version


---------------------
; Table of Contents ;
---------------------
  1. Legal Notice
  2. Analysis & Synthesis Summary
  3. Analysis & Synthesis Settings
  4. Analysis & Synthesis Source Files Read
  5. Analysis & Synthesis Resource Usage Summary
  6. Analysis & Synthesis Resource Utilization by Entity
  7. General Register Statistics
  8. Analysis & Synthesis Equations
  9. Analysis & Synthesis Messages



----------------
; Legal Notice ;
----------------
Copyright (C) 1991-2006 Altera Corporation
Your use of Altera Corporation's design tools, logic functions 
and other software and tools, and its AMPP partner logic 
functions, and any output files any of the foregoing 
(including device programming or simulation files), and any 
associated documentation or information are expressly subject 
to the terms and conditions of the Altera Program License 
Subscription Agreement, Altera MegaCore Function License 
Agreement, or other applicable license agreement, including, 
without limitation, that your use is for the sole purpose of 
programming logic devices manufactured by Altera and sold by 
Altera or its authorized distributors.  Please refer to the 
applicable agreement for further details.



+-----------------------------------------------------------------------------+
; Analysis & Synthesis Summary                                                ;
+-----------------------------+-----------------------------------------------+
; Analysis & Synthesis Status ; Successful - Mon Mar 27 10:34:45 2006         ;
; Quartus II Version          ; 5.1 Build 216 03/06/2006 SP 2 SJ Full Version ;
; Revision Name               ; hotswap                                       ;
; Top-level Entity Name       ; hotswap                                       ;
; Family                      ; APEX20KE                                      ;
; Total logic elements        ; 15                                            ;
; Total pins                  ; 5                                             ;
; Total virtual pins          ; 0                                             ;
; Total memory bits           ; 0                                             ;
; Total PLLs                  ; 0                                             ;
+-----------------------------+-----------------------------------------------+


+--------------------------------------------------------------------------------------------------------------------------------+
; Analysis & Synthesis Settings                                                                                                  ;
+--------------------------------------------------------------------------------------------+-------------------+---------------+
; Option                                                                                     ; Setting           ; Default Value ;
+--------------------------------------------------------------------------------------------+-------------------+---------------+
; Device                                                                                     ; EP20K300EQC240-2X ;               ;
; Top-level entity name                                                                      ; hotswap           ; hotswap       ;
; Family name                                                                                ; APEX20KE          ; Stratix       ;
; VHDL Show LMF Mapping Messages                                                             ; Off               ;               ;
; Optimization Technique -- APEX 20K/APEX 20KE/APEX 20KC/APEX II/ARM-based Excalibur         ; Speed             ; Balanced      ;
; Use smart compilation                                                                      ; Off               ; Off           ;
; Create Debugging Nodes for IP Cores                                                        ; Off               ; Off           ;
; Preserve fewer node names                                                                  ; On                ; On            ;
; Disable OpenCore Plus hardware evaluation                                                  ; Off               ; Off           ;
; Verilog Version                                                                            ; Verilog_2001      ; Verilog_2001  ;
; VHDL Version                                                                               ; VHDL93            ; VHDL93        ;
; State Machine Processing                                                                   ; Auto              ; Auto          ;
; Extract Verilog State Machines                                                             ; On                ; On            ;
; Extract VHDL State Machines                                                                ; On                ; On            ;
; Add Pass-Through Logic to Inferred RAMs                                                    ; On                ; On            ;
; NOT Gate Push-Back                                                                         ; On                ; On            ;
; Power-Up Don't Care                                                                        ; On                ; On            ;
; Remove Redundant Logic Cells                                                               ; Off               ; Off           ;
; Remove Duplicate Registers                                                                 ; On                ; On            ;
; Ignore CARRY Buffers                                                                       ; Off               ; Off           ;
; Ignore CASCADE Buffers                                                                     ; Off               ; Off           ;
; Ignore GLOBAL Buffers                                                                      ; Off               ; Off           ;
; Ignore ROW GLOBAL Buffers                                                                  ; Off               ; Off           ;
; Ignore LCELL Buffers                                                                       ; Off               ; Off           ;
; Ignore SOFT Buffers                                                                        ; On                ; On            ;
; Limit AHDL Integers to 32 Bits                                                             ; Off               ; Off           ;
; Auto Implement in ROM                                                                      ; Off               ; Off           ;
; Technology Mapper -- APEX 20K/APEX 20KE/APEX 20KC/APEX II/ARM-based Excalibur              ; LUT               ; LUT           ;
; Allow XOR Gate Usage                                                                       ; On                ; On            ;
; Carry Chain Length                                                                         ; 48                ; 48            ;
; Cascade Chain Length                                                                       ; 2                 ; 2             ;
; Parallel Expander Chain Length -- APEX 20K/APEX 20KE/APEX 20KC/APEX II/ARM-based Excalibur ; 16                ; 16            ;
; Auto Carry Chains                                                                          ; On                ; On            ;
; Auto Parallel Expanders                                                                    ; On                ; On            ;
; Auto Open-Drain Pins                                                                       ; On                ; On            ;
; Remove Duplicate Logic                                                                     ; On                ; On            ;
; Perform WYSIWYG Primitive Resynthesis                                                      ; Off               ; Off           ;
; Perform gate-level register retiming                                                       ; Off               ; Off           ;
; Allow register retiming to trade off Tsu/Tco with Fmax                                     ; On                ; On            ;
; Auto ROM Replacement                                                                       ; On                ; On            ;
; Auto RAM Replacement                                                                       ; On                ; On            ;
; Auto Shift Register Replacement                                                            ; On                ; On            ;
; Auto Clock Enable Replacement                                                              ; On                ; On            ;
; Auto Resource Sharing                                                                      ; Off               ; Off           ;
; Allow Any RAM Size For Recognition                                                         ; Off               ; Off           ;
; Allow Any ROM Size For Recognition                                                         ; Off               ; Off           ;
; Allow Any Shift Register Size For Recognition                                              ; Off               ; Off           ;
; Ignore translate_off and translate_on Synthesis Directives                                 ; Off               ; Off           ;
; Show Parameter Settings Tables in Synthesis Report                                         ; On                ; On            ;
; Ignore Maximum Fan-Out Assignments                                                         ; Off               ; Off           ;
; Retiming Meta-Stability Register Sequence Length                                           ; 2                 ; 2             ;
; HDL message level                                                                          ; Level2            ; Level2        ;
+--------------------------------------------------------------------------------------------+-------------------+---------------+


+-----------------------------------------------------------------------------------------------------------------------------------------+
; Analysis & Synthesis Source Files Read                                                                                                  ;
+----------------------------------+-----------------+-----------------+------------------------------------------------------------------+
; File Name with User-Entered Path ; Used in Netlist ; File Type       ; File Name with Absolute Path                                     ;
+----------------------------------+-----------------+-----------------+------------------------------------------------------------------+
; hotswap.vhd                      ; yes             ; User VHDL File  ; H:/Projects/DPP-II/p19700-1/Software/ep99840/hotswap/hotswap.vhd ;
+----------------------------------+-----------------+-----------------+------------------------------------------------------------------+


+---------------------------------------------+
; Analysis & Synthesis Resource Usage Summary ;
+-----------------------------------+---------+
; Resource                          ; Usage   ;
+-----------------------------------+---------+
; Total logic elements              ; 15      ;
; Total combinational functions     ; 15      ;
;     -- Total 4-input functions    ; 5       ;
;     -- Total 3-input functions    ; 3       ;
;     -- Total 2-input functions    ; 1       ;
;     -- Total 1-input functions    ; 6       ;
;     -- Total 0-input functions    ; 0       ;
; Combinational cells for routing   ; 0       ;
; Total registers                   ; 10      ;
; Total logic cells in carry chains ; 6       ;
; I/O pins                          ; 5       ;
; Maximum fan-out node              ; imr     ;
; Maximum fan-out                   ; 13      ;
; Total fan-out                     ; 78      ;
; Average fan-out                   ; 3.90    ;
+-----------------------------------+---------+


+--------------------------------------------------------------------------------------------------------------------------------------------------------------------------------------------------------+
; Analysis & Synthesis Resource Utilization by Entity                                                                                                                                                    ;
+----------------------------+-------------+--------------+-------------+------+--------------+--------------+-------------------+------------------+-----------------+------------+---------------------+
; Compilation Hierarchy Node ; Logic Cells ; LC Registers ; Memory Bits ; Pins ; Virtual Pins ; LUT-Only LCs ; Register-Only LCs ; LUT/Register LCs ; Carry Chain LCs ; Packed LCs ; Full Hierarchy Name ;
+----------------------------+-------------+--------------+-------------+------+--------------+--------------+-------------------+------------------+-----------------+------------+---------------------+
; |hotswap                   ; 15 (15)     ; 10           ; 0           ; 5    ; 0            ; 5 (5)        ; 0 (0)             ; 10 (10)          ; 6 (6)           ; 0 (0)      ; |hotswap            ;
+----------------------------+-------------+--------------+-------------+------+--------------+--------------+-------------------+------------------+-----------------+------------+---------------------+
Note: For table entries with two numbers listed, the numbers in parentheses indicate the number of resources of the given type used by the specific entity alone. The numbers listed outside of parentheses indicate the total resources of the given type used by the specific entity and all of its sub-entities in the hierarchy.


+------------------------------------------------------+
; General Register Statistics                          ;
+----------------------------------------------+-------+
; Statistic                                    ; Value ;
+----------------------------------------------+-------+
; Total registers                              ; 10    ;
; Number of registers using Synchronous Clear  ; 6     ;
; Number of registers using Synchronous Load   ; 0     ;
; Number of registers using Asynchronous Clear ; 10    ;
; Number of registers using Asynchronous Load  ; 0     ;
; Number of registers using Clock Enable       ; 10    ;
; Number of registers using Preset             ; 0     ;
+----------------------------------------------+-------+


+--------------------------------+
; Analysis & Synthesis Equations ;
+--------------------------------+
The equations can be found in H:/Projects/DPP-II/p19700-1/Software/ep99840/hotswap/hotswap.map.eqn.


+-------------------------------+
; Analysis & Synthesis Messages ;
+-------------------------------+
Info: *******************************************************************
Info: Running Quartus II Analysis & Synthesis
    Info: Version 5.1 Build 216 03/06/2006 Service Pack 2 SJ Full Version
    Info: Processing started: Mon Mar 27 10:34:43 2006
Info: Command: quartus_map --read_settings_files=on --write_settings_files=off hotswap -c hotswap
Info: Found 2 design units, including 1 entities, in source file hotswap.vhd
    Info: Found design unit 1: hotswap-behavioral
    Info: Found entity 1: hotswap
Info: Elaborating entity "hotswap" for the top level hierarchy
Warning (10492): VHDL Process Statement warning at hotswap.vhd(70): signal "sense_vec" is read inside the Process Statement but isn't in the Process Statement's sensivitity list
Warning (10492): VHDL Process Statement warning at hotswap.vhd(70): signal "Sense" is read inside the Process Statement but isn't in the Process Statement's sensivitity list
Info: Converted presettable and clearable register to equivalent circuits with latches. Registers will power-up to an undefined state, and DEVCLRn will place the registers in an undefined state.
Info: Duplicate LATCH primitives merged into single LATCH primitive
    Info: Duplicate LATCH primitive "sense_vec[0]~23" merged with LATCH primitive "sense_vec[1]~11"
Info: Implemented 20 device resources after synthesis - the final resource count might be different
    Info: Implemented 4 input pins
    Info: Implemented 1 output pins
    Info: Implemented 15 logic cells
Info: Quartus II Analysis & Synthesis was successful. 0 errors, 2 warnings
    Info: Processing ended: Mon Mar 27 10:34:45 2006
    Info: Elapsed time: 00:00:03


